(kicad_symbol_lib
	(version 20231120)
	(generator "kicad_symbol_editor")
	(generator_version "8.0")
	(symbol "S5971"
		(pin_names
			(offset 0.254) hide)
		(exclude_from_sim no)
		(in_bom yes)
		(on_board yes)
		(property "Reference" "D"
			(at 2.54 -5.08 0)
			(effects
				(font
					(size 1.27 1.27)
				)
				(justify left)
			)
		)
		(property "Value" "SD008-2171-112"
			(at 5.08 5.08 0)
			(effects
				(font
					(size 1.27 1.27)
				)
			)
		)
		(property "Footprint" "Package_TO_SOT_THT:TO-18-3"
			(at 0 8.89 0)
			(effects
				(font
					(size 1.27 1.27)
				)
				(hide yes)
			)
		)
		(property "Datasheet" "https://www.hamamatsu.com/resources/pdf/ssd/s5971_etc_kpin1025e.pdf"
			(at 3.556 -19.05 0)
			(effects
				(font
					(size 1.27 1.27)
				)
				(hide yes)
			)
		)
		(property "Description" "Si PIN Photodiode, 0.1 GHz, TO-18-3"
			(at 3.556 -16.51 0)
			(effects
				(font
					(size 1.27 1.27)
				)
				(hide yes)
			)
		)
		(property "ki_keywords" "opto photodiode"
			(at 0 0 0)
			(effects
				(font
					(size 1.27 1.27)
				)
				(hide yes)
			)
		)
		(property "ki_fp_filters" "TO?18*"
			(at 0 0 0)
			(effects
				(font
					(size 1.27 1.27)
				)
				(hide yes)
			)
		)
		(symbol "S5971_0_0"
			(pin passive line
				(at 0 -7.62 90)
				(length 3.81)
				(name "C"
					(effects
						(font
							(size 1.27 1.27)
						)
					)
				)
				(number "2"
					(effects
						(font
							(size 1.27 1.27)
						)
					)
				)
			)
		)
		(symbol "S5971_0_1"
			(polyline
				(pts
					(xy -1.27 0) (xy -3.81 0)
				)
				(stroke
					(width 0)
					(type default)
				)
				(fill
					(type none)
				)
			)
			(polyline
				(pts
					(xy -1.27 1.27) (xy -1.27 -1.27)
				)
				(stroke
					(width 0.1524)
					(type default)
				)
				(fill
					(type none)
				)
			)
			(polyline
				(pts
					(xy -0.762 1.778) (xy -0.254 1.778)
				)
				(stroke
					(width 0)
					(type default)
				)
				(fill
					(type none)
				)
			)
			(polyline
				(pts
					(xy 3.81 0) (xy 1.27 0)
				)
				(stroke
					(width 0)
					(type default)
				)
				(fill
					(type none)
				)
			)
			(polyline
				(pts
					(xy 0.762 3.302) (xy -0.762 1.778) (xy -0.762 2.286)
				)
				(stroke
					(width 0)
					(type default)
				)
				(fill
					(type none)
				)
			)
			(polyline
				(pts
					(xy -1.27 0) (xy 1.27 1.27) (xy 1.27 -1.27) (xy -1.27 0)
				)
				(stroke
					(width 0)
					(type default)
				)
				(fill
					(type outline)
				)
			)
			(polyline
				(pts
					(xy 2.032 3.302) (xy 0.508 1.778) (xy 0.508 2.286) (xy 0.508 1.778) (xy 1.016 1.778)
				)
				(stroke
					(width 0)
					(type default)
				)
				(fill
					(type none)
				)
			)
			(circle
				(center 0 0)
				(radius 3.81)
				(stroke
					(width 0)
					(type default)
				)
				(fill
					(type none)
				)
			)
		)
		(symbol "S5971_1_1"
			(pin passive line
				(at -7.62 0 0)
				(length 3.81)
				(name "K"
					(effects
						(font
							(size 1.27 1.27)
						)
					)
				)
				(number "1"
					(effects
						(font
							(size 1.27 1.27)
						)
					)
				)
			)
			(pin passive line
				(at 7.62 0 180)
				(length 3.81)
				(name "A"
					(effects
						(font
							(size 1.27 1.27)
						)
					)
				)
				(number "3"
					(effects
						(font
							(size 1.27 1.27)
						)
					)
				)
			)
		)
	)
	(symbol "SD008-2171-112"
		(pin_names
			(offset 0.254) hide)
		(exclude_from_sim no)
		(in_bom yes)
		(on_board yes)
		(property "Reference" "D"
			(at 2.54 -5.08 0)
			(effects
				(font
					(size 1.27 1.27)
				)
				(justify left)
			)
		)
		(property "Value" "SD008-2171-112"
			(at 5.08 5.08 0)
			(effects
				(font
					(size 1.27 1.27)
				)
			)
		)
		(property "Footprint" "Package_TO_SOT_THT:TO-18-3"
			(at 0 8.89 0)
			(effects
				(font
					(size 1.27 1.27)
				)
				(hide yes)
			)
		)
		(property "Datasheet" "https://www.hamamatsu.com/resources/pdf/ssd/s5971_etc_kpin1025e.pdf"
			(at 3.556 -19.05 0)
			(effects
				(font
					(size 1.27 1.27)
				)
				(hide yes)
			)
		)
		(property "Description" "Si PIN Photodiode, 0.1 GHz, TO-18-3"
			(at 3.556 -16.51 0)
			(effects
				(font
					(size 1.27 1.27)
				)
				(hide yes)
			)
		)
		(property "ki_keywords" "opto photodiode"
			(at 0 0 0)
			(effects
				(font
					(size 1.27 1.27)
				)
				(hide yes)
			)
		)
		(property "ki_fp_filters" "TO?18*"
			(at 0 0 0)
			(effects
				(font
					(size 1.27 1.27)
				)
				(hide yes)
			)
		)
		(symbol "SD008-2171-112_0_0"
			(pin passive line
				(at 0 -7.62 90)
				(length 3.81)
				(name "C"
					(effects
						(font
							(size 1.27 1.27)
						)
					)
				)
				(number "2"
					(effects
						(font
							(size 1.27 1.27)
						)
					)
				)
			)
		)
		(symbol "SD008-2171-112_0_1"
			(polyline
				(pts
					(xy -1.27 0) (xy -3.81 0)
				)
				(stroke
					(width 0)
					(type default)
				)
				(fill
					(type none)
				)
			)
			(polyline
				(pts
					(xy -1.27 1.27) (xy -1.27 -1.27)
				)
				(stroke
					(width 0.1524)
					(type default)
				)
				(fill
					(type none)
				)
			)
			(polyline
				(pts
					(xy -0.762 1.778) (xy -0.254 1.778)
				)
				(stroke
					(width 0)
					(type default)
				)
				(fill
					(type none)
				)
			)
			(polyline
				(pts
					(xy 3.81 0) (xy 1.27 0)
				)
				(stroke
					(width 0)
					(type default)
				)
				(fill
					(type none)
				)
			)
			(polyline
				(pts
					(xy 0.762 3.302) (xy -0.762 1.778) (xy -0.762 2.286)
				)
				(stroke
					(width 0)
					(type default)
				)
				(fill
					(type none)
				)
			)
			(polyline
				(pts
					(xy -1.27 0) (xy 1.27 1.27) (xy 1.27 -1.27) (xy -1.27 0)
				)
				(stroke
					(width 0)
					(type default)
				)
				(fill
					(type outline)
				)
			)
			(polyline
				(pts
					(xy 2.032 3.302) (xy 0.508 1.778) (xy 0.508 2.286) (xy 0.508 1.778) (xy 1.016 1.778)
				)
				(stroke
					(width 0)
					(type default)
				)
				(fill
					(type none)
				)
			)
			(circle
				(center 0 0)
				(radius 3.81)
				(stroke
					(width 0)
					(type default)
				)
				(fill
					(type none)
				)
			)
		)
		(symbol "SD008-2171-112_1_1"
			(pin passive line
				(at 7.62 0 180)
				(length 3.81)
				(name "1"
					(effects
						(font
							(size 1.27 1.27)
						)
					)
				)
				(number "1"
					(effects
						(font
							(size 1.27 1.27)
						)
					)
				)
			)
			(pin passive line
				(at -7.62 0 0)
				(length 3.81)
				(name "K"
					(effects
						(font
							(size 1.27 1.27)
						)
					)
				)
				(number "3"
					(effects
						(font
							(size 1.27 1.27)
						)
					)
				)
			)
		)
	)
)