"Id";"Designator";"Footprint";"Quantity";"Designation";"Supplier and ref";
1;"H1,H3,H4,He";"MountingHole_2.7mm_M2.5";4;"MountingHole";;;
2;"U1";"SOIC-14_3.9x8.7mm_P1.27mm";1;"OPA4340UA";;;
3;"R5,R3,R1,R7,R8,R6,R2";"R_0805_2012Metric_Pad1.20x1.40mm_HandSolder";7;"10K";;;
4;"D3";"TO-46-3";1;"SD008-2171-112";;;
5;"D1";"SOT-23";1;"BAT54S";;;
6;"J2";"PinSocket_1x05_P2.54mm_Vertical";1;"Conn_01x05_Female";;;
7;"C1,C3,C4,C2";"C_0805_2012Metric_Pad1.18x1.45mm_HandSolder";4;"1uF";;;
8;"R4";"R_0805_2012Metric_Pad1.20x1.40mm_HandSolder";1;"4.99K";;;
