(kicad_pcb
	(version 20240108)
	(generator "pcbnew")
	(generator_version "8.0")
	(general
		(thickness 1.6)
		(legacy_teardrops no)
	)
	(paper "A4")
	(layers
		(0 "F.Cu" signal)
		(31 "B.Cu" signal)
		(32 "B.Adhes" user "B.Adhesive")
		(33 "F.Adhes" user "F.Adhesive")
		(34 "B.Paste" user)
		(35 "F.Paste" user)
		(36 "B.SilkS" user "B.Silkscreen")
		(37 "F.SilkS" user "F.Silkscreen")
		(38 "B.Mask" user)
		(39 "F.Mask" user)
		(40 "Dwgs.User" user "User.Drawings")
		(41 "Cmts.User" user "User.Comments")
		(42 "Eco1.User" user "User.Eco1")
		(43 "Eco2.User" user "User.Eco2")
		(44 "Edge.Cuts" user)
		(45 "Margin" user)
		(46 "B.CrtYd" user "B.Courtyard")
		(47 "F.CrtYd" user "F.Courtyard")
		(48 "B.Fab" user)
		(49 "F.Fab" user)
		(50 "User.1" user)
		(51 "User.2" user)
		(52 "User.3" user)
		(53 "User.4" user)
		(54 "User.5" user)
		(55 "User.6" user)
		(56 "User.7" user)
		(57 "User.8" user)
		(58 "User.9" user)
	)
	(setup
		(pad_to_mask_clearance 0)
		(allow_soldermask_bridges_in_footprints no)
		(pcbplotparams
			(layerselection 0x00010fc_ffffffff)
			(plot_on_all_layers_selection 0x0000000_00000000)
			(disableapertmacros no)
			(usegerberextensions no)
			(usegerberattributes yes)
			(usegerberadvancedattributes yes)
			(creategerberjobfile yes)
			(dashed_line_dash_ratio 12.000000)
			(dashed_line_gap_ratio 3.000000)
			(svgprecision 4)
			(plotframeref no)
			(viasonmask no)
			(mode 1)
			(useauxorigin no)
			(hpglpennumber 1)
			(hpglpenspeed 20)
			(hpglpendiameter 15.000000)
			(pdf_front_fp_property_popups yes)
			(pdf_back_fp_property_popups yes)
			(dxfpolygonmode yes)
			(dxfimperialunits yes)
			(dxfusepcbnewfont yes)
			(psnegative no)
			(psa4output no)
			(plotreference yes)
			(plotvalue yes)
			(plotfptext yes)
			(plotinvisibletext no)
			(sketchpadsonfab no)
			(subtractmaskfromsilk no)
			(outputformat 1)
			(mirror no)
			(drillshape 0)
			(scaleselection 1)
			(outputdirectory "gerbers/")
		)
	)
	(net 0 "")
	(net 1 "+7VS")
	(net 2 "Net-(D1-K)")
	(net 3 "Net-(Q1-S)")
	(net 4 "Net-(Q1-G)")
	(net 5 "Net-(R1-Pad1)")
	(net 6 "GND")
	(net 7 "Net-(U1A-+)")
	(net 8 "V_LED_CONTROL")
	(net 9 "+5V")
	(net 10 "unconnected-(U1C---Pad9)")
	(net 11 "unconnected-(U1B-+-Pad5)")
	(net 12 "unconnected-(U1D---Pad13)")
	(net 13 "unconnected-(U1B---Pad6)")
	(net 14 "unconnected-(U1C-+-Pad10)")
	(net 15 "unconnected-(U1-Pad14)")
	(net 16 "unconnected-(U1D-+-Pad12)")
	(net 17 "unconnected-(U1-Pad8)")
	(net 18 "unconnected-(U1-Pad7)")
	(footprint "MountingHole:MountingHole_2.7mm_M2.5"
		(layer "F.Cu")
		(uuid "0cd1c52f-ef22-45dd-aa70-fd3b685aaa13")
		(at 52.94 41.08)
		(descr "Mounting Hole 2.7mm, no annular, M2.5")
		(tags "mounting hole 2.7mm no annular m2.5")
		(property "Reference" "H1"
			(at 0 -3.7 0)
			(layer "F.SilkS")
			(uuid "2d58ad34-fd78-4d82-bfd1-46cbe00ed024")
			(effects
				(font
					(size 1 1)
					(thickness 0.15)
				)
			)
		)
		(property "Value" "MountingHole"
			(at 0 3.7 0)
			(layer "F.Fab")
			(uuid "aee370f6-e45a-41b2-a80e-a44ef38487dc")
			(effects
				(font
					(size 1 1)
					(thickness 0.15)
				)
			)
		)
		(property "Footprint" "MountingHole:MountingHole_2.7mm_M2.5"
			(at 0 0 0)
			(unlocked yes)
			(layer "F.Fab")
			(hide yes)
			(uuid "9907355a-405c-4f64-a574-98af564991c2")
			(effects
				(font
					(size 1.27 1.27)
				)
			)
		)
		(property "Datasheet" ""
			(at 0 0 0)
			(unlocked yes)
			(layer "F.Fab")
			(hide yes)
			(uuid "88908781-22f9-4e18-bdd4-3a0578aa9396")
			(effects
				(font
					(size 1.27 1.27)
				)
			)
		)
		(property "Description" "Mounting Hole without connection"
			(at 0 0 0)
			(unlocked yes)
			(layer "F.Fab")
			(hide yes)
			(uuid "8b395a27-44ac-407b-bbb4-77347d1239e6")
			(effects
				(font
					(size 1.27 1.27)
				)
			)
		)
		(property ki_fp_filters "MountingHole*")
		(path "/d860c565-c29d-4a04-9526-cdfa76b82d9e")
		(sheetname "Root")
		(sheetfile "UV-LED-source.kicad_sch")
		(attr exclude_from_pos_files)
		(fp_circle
			(center 0 0)
			(end 2.7 0)
			(stroke
				(width 0.15)
				(type solid)
			)
			(fill none)
			(layer "Cmts.User")
			(uuid "cebab6bc-4b15-4601-ace1-f6f03fc47b2e")
		)
		(fp_circle
			(center 0 0)
			(end 2.95 0)
			(stroke
				(width 0.05)
				(type solid)
			)
			(fill none)
			(layer "F.CrtYd")
			(uuid "e3ad48eb-6243-415c-a319-3cd6b8f38d45")
		)
		(fp_text user "${REFERENCE}"
			(at 0 0 0)
			(layer "F.Fab")
			(uuid "dc87050a-cd81-419f-a9ad-9c442559c1ca")
			(effects
				(font
					(size 1 1)
					(thickness 0.15)
				)
			)
		)
		(pad "" np_thru_hole circle
			(at 0 0)
			(size 2.7 2.7)
			(drill 2.7)
			(layers "*.Cu" "*.Mask")
			(uuid "9512d91b-b26c-4f9a-830c-57b984f3b2ee")
		)
	)
	(footprint "Resistor_SMD:R_0805_2012Metric_Pad1.20x1.40mm_HandSolder"
		(layer "F.Cu")
		(uuid "23576cb9-6557-4047-a756-e47fd2e54f39")
		(at 53.1 55.95 180)
		(descr "Resistor SMD 0805 (2012 Metric), square (rectangular) end terminal, IPC_7351 nominal with elongated pad for handsoldering. (Body size source: IPC-SM-782 page 72, https://www.pcb-3d.com/wordpress/wp-content/uploads/ipc-sm-782a_amendment_1_and_2.pdf), generated with kicad-footprint-generator")
		(tags "resistor handsolder")
		(property "Reference" "R4"
			(at 0 -1.65 180)
			(layer "F.SilkS")
			(uuid "57d7ce56-53df-4c5b-8027-a4bd68f18e70")
			(effects
				(font
					(size 1 1)
					(thickness 0.15)
				)
			)
		)
		(property "Value" "24.9K"
			(at 0 1.65 180)
			(layer "F.Fab")
			(uuid "c25b34a0-9d11-4275-9639-f05a58ca1f83")
			(effects
				(font
					(size 1 1)
					(thickness 0.15)
				)
			)
		)
		(property "Footprint" "Resistor_SMD:R_0805_2012Metric_Pad1.20x1.40mm_HandSolder"
			(at 0 0 180)
			(unlocked yes)
			(layer "F.Fab")
			(hide yes)
			(uuid "e7f49a03-543c-468f-b53a-ed95a9f84859")
			(effects
				(font
					(size 1.27 1.27)
				)
			)
		)
		(property "Datasheet" ""
			(at 0 0 180)
			(unlocked yes)
			(layer "F.Fab")
			(hide yes)
			(uuid "a5062fd9-01b6-402b-83a0-5eea1abdc51f")
			(effects
				(font
					(size 1.27 1.27)
				)
			)
		)
		(property "Description" ""
			(at 0 0 180)
			(unlocked yes)
			(layer "F.Fab")
			(hide yes)
			(uuid "7bfc81d0-7143-41cb-a891-9864fa1a740e")
			(effects
				(font
					(size 1.27 1.27)
				)
			)
		)
		(property ki_fp_filters "R_*")
		(path "/ce204e0b-ff34-4ede-9abe-16436d9401ca")
		(sheetname "Root")
		(sheetfile "UV-LED-source.kicad_sch")
		(attr smd)
		(fp_line
			(start -0.227064 0.735)
			(end 0.227064 0.735)
			(stroke
				(width 0.12)
				(type solid)
			)
			(layer "F.SilkS")
			(uuid "ab271717-0491-4fa0-85b6-b6e8d4142253")
		)
		(fp_line
			(start -0.227064 -0.735)
			(end 0.227064 -0.735)
			(stroke
				(width 0.12)
				(type solid)
			)
			(layer "F.SilkS")
			(uuid "48895f90-29d6-490b-955f-9dac84d50eb5")
		)
		(fp_line
			(start 1.85 0.95)
			(end -1.85 0.95)
			(stroke
				(width 0.05)
				(type solid)
			)
			(layer "F.CrtYd")
			(uuid "77b09120-226f-49a6-8c6a-ca7a775834d1")
		)
		(fp_line
			(start 1.85 -0.95)
			(end 1.85 0.95)
			(stroke
				(width 0.05)
				(type solid)
			)
			(layer "F.CrtYd")
			(uuid "e4a12e86-23ea-4e4a-a38d-200fc6b9ee8e")
		)
		(fp_line
			(start -1.85 0.95)
			(end -1.85 -0.95)
			(stroke
				(width 0.05)
				(type solid)
			)
			(layer "F.CrtYd")
			(uuid "06aef063-5e86-46a6-bd2e-0ea3c8434d5a")
		)
		(fp_line
			(start -1.85 -0.95)
			(end 1.85 -0.95)
			(stroke
				(width 0.05)
				(type solid)
			)
			(layer "F.CrtYd")
			(uuid "98e3fbfc-620c-4988-b9e1-91b97b7a8033")
		)
		(fp_line
			(start 1 0.625)
			(end -1 0.625)
			(stroke
				(width 0.1)
				(type solid)
			)
			(layer "F.Fab")
			(uuid "0cefbd43-542e-4982-afce-50a2fadd1182")
		)
		(fp_line
			(start 1 -0.625)
			(end 1 0.625)
			(stroke
				(width 0.1)
				(type solid)
			)
			(layer "F.Fab")
			(uuid "1affc9d7-6c46-49e0-99ee-fde10c46fb24")
		)
		(fp_line
			(start -1 0.625)
			(end -1 -0.625)
			(stroke
				(width 0.1)
				(type solid)
			)
			(layer "F.Fab")
			(uuid "2364696a-c0ea-44a2-b285-49f465936572")
		)
		(fp_line
			(start -1 -0.625)
			(end 1 -0.625)
			(stroke
				(width 0.1)
				(type solid)
			)
			(layer "F.Fab")
			(uuid "561b9ba5-df99-48ef-805c-7f41982d5b1a")
		)
		(fp_text user "${REFERENCE}"
			(at 0 0 180)
			(layer "F.Fab")
			(uuid "646e70f0-59d0-4e88-9f38-ff8d151a343d")
			(effects
				(font
					(size 0.5 0.5)
					(thickness 0.08)
				)
			)
		)
		(pad "1" smd roundrect
			(at -1 0 180)
			(size 1.2 1.4)
			(layers "F.Cu" "F.Paste" "F.Mask")
			(roundrect_rratio 0.2083333333)
			(net 6 "GND")
			(pintype "passive")
			(uuid "ea007e09-88a4-424b-bbf4-d91058e08cad")
		)
		(pad "2" smd roundrect
			(at 1 0 180)
			(size 1.2 1.4)
			(layers "F.Cu" "F.Paste" "F.Mask")
			(roundrect_rratio 0.2083333333)
			(net 7 "Net-(U1A-+)")
			(pintype "passive")
			(uuid "f626cec6-55fa-4364-80bf-99ac2e8ab60e")
		)
		(model "${KICAD6_3DMODEL_DIR}/Resistor_SMD.3dshapes/R_0805_2012Metric.wrl"
			(offset
				(xyz 0 0 0)
			)
			(scale
				(xyz 1 1 1)
			)
			(rotate
				(xyz 0 0 0)
			)
		)
	)
	(footprint "Resistor_SMD:R_0805_2012Metric_Pad1.20x1.40mm_HandSolder"
		(layer "F.Cu")
		(uuid "28b87d8a-05a2-4d5a-92de-2b42bf84520f")
		(at 53.08 51.88 180)
		(descr "Resistor SMD 0805 (2012 Metric), square (rectangular) end terminal, IPC_7351 nominal with elongated pad for handsoldering. (Body size source: IPC-SM-782 page 72, https://www.pcb-3d.com/wordpress/wp-content/uploads/ipc-sm-782a_amendment_1_and_2.pdf), generated with kicad-footprint-generator")
		(tags "resistor handsolder")
		(property "Reference" "R2"
			(at 0 -1.65 180)
			(layer "F.SilkS")
			(uuid "c7057d6b-6faf-455b-b8fd-604664940fc6")
			(effects
				(font
					(size 1 1)
					(thickness 0.15)
				)
			)
		)
		(property "Value" "24.9"
			(at 0 1.65 180)
			(layer "F.Fab")
			(uuid "b9f9f166-dd80-462c-8b0e-5156e222be87")
			(effects
				(font
					(size 1 1)
					(thickness 0.15)
				)
			)
		)
		(property "Footprint" "Resistor_SMD:R_0805_2012Metric_Pad1.20x1.40mm_HandSolder"
			(at 0 0 180)
			(unlocked yes)
			(layer "F.Fab")
			(hide yes)
			(uuid "34715808-947a-4331-a3d6-e9866518c9d4")
			(effects
				(font
					(size 1.27 1.27)
				)
			)
		)
		(property "Datasheet" ""
			(at 0 0 180)
			(unlocked yes)
			(layer "F.Fab")
			(hide yes)
			(uuid "7588a476-e49b-4022-a100-36b20d55560e")
			(effects
				(font
					(size 1.27 1.27)
				)
			)
		)
		(property "Description" ""
			(at 0 0 180)
			(unlocked yes)
			(layer "F.Fab")
			(hide yes)
			(uuid "b3aadc87-71c3-4a1e-92d9-4f12a5b7de80")
			(effects
				(font
					(size 1.27 1.27)
				)
			)
		)
		(property ki_fp_filters "R_*")
		(path "/1b6baa08-e0b1-4d66-a89d-44da19179d50")
		(sheetname "Root")
		(sheetfile "UV-LED-source.kicad_sch")
		(attr smd)
		(fp_line
			(start -0.227064 0.735)
			(end 0.227064 0.735)
			(stroke
				(width 0.12)
				(type solid)
			)
			(layer "F.SilkS")
			(uuid "2e05ba1f-99e3-4fa4-b555-f5d44660066f")
		)
		(fp_line
			(start -0.227064 -0.735)
			(end 0.227064 -0.735)
			(stroke
				(width 0.12)
				(type solid)
			)
			(layer "F.SilkS")
			(uuid "f8ee8f69-a972-4faa-b063-49e78a2c314b")
		)
		(fp_line
			(start 1.85 0.95)
			(end -1.85 0.95)
			(stroke
				(width 0.05)
				(type solid)
			)
			(layer "F.CrtYd")
			(uuid "9894eae2-1299-4321-8a11-1995cd32e97b")
		)
		(fp_line
			(start 1.85 -0.95)
			(end 1.85 0.95)
			(stroke
				(width 0.05)
				(type solid)
			)
			(layer "F.CrtYd")
			(uuid "aae882e1-0e4d-4c86-9d96-988376c66bc1")
		)
		(fp_line
			(start -1.85 0.95)
			(end -1.85 -0.95)
			(stroke
				(width 0.05)
				(type solid)
			)
			(layer "F.CrtYd")
			(uuid "12a75d6a-8582-4338-a92b-c2ff7ca4ece5")
		)
		(fp_line
			(start -1.85 -0.95)
			(end 1.85 -0.95)
			(stroke
				(width 0.05)
				(type solid)
			)
			(layer "F.CrtYd")
			(uuid "54c55f92-e0e8-4f7c-89ba-26306398f3a0")
		)
		(fp_line
			(start 1 0.625)
			(end -1 0.625)
			(stroke
				(width 0.1)
				(type solid)
			)
			(layer "F.Fab")
			(uuid "8980edc9-88f4-4f72-8251-fc02f306b664")
		)
		(fp_line
			(start 1 -0.625)
			(end 1 0.625)
			(stroke
				(width 0.1)
				(type solid)
			)
			(layer "F.Fab")
			(uuid "95309dbe-56dd-4c2c-a763-ac1ab5e9d47e")
		)
		(fp_line
			(start -1 0.625)
			(end -1 -0.625)
			(stroke
				(width 0.1)
				(type solid)
			)
			(layer "F.Fab")
			(uuid "6b1b6bce-bac7-494a-a6ce-81a811306ef2")
		)
		(fp_line
			(start -1 -0.625)
			(end 1 -0.625)
			(stroke
				(width 0.1)
				(type solid)
			)
			(layer "F.Fab")
			(uuid "b2c9eb12-bd12-48b9-9fcc-3be7301d2cae")
		)
		(fp_text user "${REFERENCE}"
			(at 0 0 180)
			(layer "F.Fab")
			(uuid "b5aff2c9-b3a2-47ef-b694-d0314fc7af44")
			(effects
				(font
					(size 0.5 0.5)
					(thickness 0.08)
				)
			)
		)
		(pad "1" smd roundrect
			(at -1 0 180)
			(size 1.2 1.4)
			(layers "F.Cu" "F.Paste" "F.Mask")
			(roundrect_rratio 0.2083333333)
			(net 6 "GND")
			(pintype "passive")
			(uuid "556c97f3-dca1-4331-a43a-685549fa8071")
		)
		(pad "2" smd roundrect
			(at 1 0 180)
			(size 1.2 1.4)
			(layers "F.Cu" "F.Paste" "F.Mask")
			(roundrect_rratio 0.2083333333)
			(net 3 "Net-(Q1-S)")
			(pintype "passive")
			(uuid "60b877c3-1953-460b-a01d-2ea23540df6d")
		)
		(model "${KICAD6_3DMODEL_DIR}/Resistor_SMD.3dshapes/R_0805_2012Metric.wrl"
			(offset
				(xyz 0 0 0)
			)
			(scale
				(xyz 1 1 1)
			)
			(rotate
				(xyz 0 0 0)
			)
		)
	)
	(footprint "Connector_JST:JST_PH_S4B-PH-K_1x04_P2.00mm_Horizontal"
		(layer "F.Cu")
		(uuid "2d43725d-1df0-475d-9349-f495e502a71c")
		(at 73.99 56.65 90)
		(descr "JST PH series connector, S4B-PH-K (http://www.jst-mfg.com/product/pdf/eng/ePH.pdf), generated with kicad-footprint-generator")
		(tags "connector JST PH top entry")
		(property "Reference" "J2"
			(at 1.659 -2.616 -90)
			(layer "F.SilkS")
			(uuid "db5691c1-ccae-4315-8170-a47d1d219156")
			(effects
				(font
					(size 1 1)
					(thickness 0.15)
				)
			)
		)
		(property "Value" "Conn_01x04_Female"
			(at 3 7.45 -90)
			(layer "F.Fab")
			(uuid "5f9ef03c-2a52-4eea-b889-24ce9dbd7ec0")
			(effects
				(font
					(size 1 1)
					(thickness 0.15)
				)
			)
		)
		(property "Footprint" "Connector_JST:JST_PH_S4B-PH-K_1x04_P2.00mm_Horizontal"
			(at 0 0 90)
			(unlocked yes)
			(layer "F.Fab")
			(hide yes)
			(uuid "e2888477-b5ef-4148-8aa7-6390cd8c7de0")
			(effects
				(font
					(size 1.27 1.27)
				)
			)
		)
		(property "Datasheet" ""
			(at 0 0 90)
			(unlocked yes)
			(layer "F.Fab")
			(hide yes)
			(uuid "32fd3c95-bd05-40d5-9a2a-28afe37ca64e")
			(effects
				(font
					(size 1.27 1.27)
				)
			)
		)
		(property "Description" "Generic connector, single row, 01x04, script generated (kicad-library-utils/schlib/autogen/connector/)"
			(at 0 0 90)
			(unlocked yes)
			(layer "F.Fab")
			(hide yes)
			(uuid "147bdcd9-9e93-4b5b-a6a9-1ee7cf44c296")
			(effects
				(font
					(size 1.27 1.27)
				)
			)
		)
		(property ki_fp_filters "Connector*:*_1x??_*")
		(path "/caa4ea62-6e3b-49da-afec-a50e5f8a3489")
		(sheetname "Root")
		(sheetfile "UV-LED-source.kicad_sch")
		(attr through_hole)
		(fp_line
			(start 8.06 -1.46)
			(end 7.14 -1.46)
			(stroke
				(width 0.12)
				(type solid)
			)
			(layer "F.SilkS")
			(uuid "7810be5b-06d0-44dc-ae72-633c553d3f28")
		)
		(fp_line
			(start 7.14 -1.46)
			(end 7.14 0.14)
			(stroke
				(width 0.12)
				(type solid)
			)
			(layer "F.SilkS")
			(uuid "5046d817-36e1-4f07-98b0-b32c569afa90")
		)
		(fp_line
			(start -1.14 -1.46)
			(end -2.06 -1.46)
			(stroke
				(width 0.12)
				(type solid)
			)
			(layer "F.SilkS")
			(uuid "147612ab-72e1-415b-b6e9-e3247e27f632")
		)
		(fp_line
			(start -2.06 -1.46)
			(end -2.06 6.36)
			(stroke
				(width 0.12)
				(type solid)
			)
			(layer "F.SilkS")
			(uuid "4b94a237-aa49-4749-88e8-807c6b98dd1f")
		)
		(fp_line
			(start 8.06 0.14)
			(end 7.14 0.14)
			(stroke
				(width 0.12)
				(type solid)
			)
			(layer "F.SilkS")
			(uuid "985b5dcd-5ef8-4b0a-81be-e49d4685cfb7")
		)
		(fp_line
			(start 7.14 0.14)
			(end 6.86 0.14)
			(stroke
				(width 0.12)
				(type solid)
			)
			(layer "F.SilkS")
			(uuid "bb1a933c-c0e8-4902-8d50-9d7917ff3aad")
		)
		(fp_line
			(start -0.86 0.14)
			(end -0.86 -1.075)
			(stroke
				(width 0.12)
				(type solid)
			)
			(layer "F.SilkS")
			(uuid "f2d2e705-2264-4fd5-b077-5ac070fe3557")
		)
		(fp_line
			(start -0.86 0.14)
			(end -1.14 0.14)
			(stroke
				(width 0.12)
				(type solid)
			)
			(layer "F.SilkS")
			(uuid "ea885d25-b96f-475f-8313-fc749e9c3fbb")
		)
		(fp_line
			(start -1.14 0.14)
			(end -1.14 -1.46)
			(stroke
				(width 0.12)
				(type solid)
			)
			(layer "F.SilkS")
			(uuid "deb0c17c-2d84-4acf-ac0e-02b527c2643d")
		)
		(fp_line
			(start -2.06 0.14)
			(end -1.14 0.14)
			(stroke
				(width 0.12)
				(type solid)
			)
			(layer "F.SilkS")
			(uuid "c49f8f99-1f30-43c5-89e7-37e8d175b353")
		)
		(fp_line
			(start 5.5 2)
			(end 5.5 6.36)
			(stroke
				(width 0.12)
				(type solid)
			)
			(layer "F.SilkS")
			(uuid "ff6e462e-32e8-4257-a6c5-4bb8f470c725")
		)
		(fp_line
			(start 0.5 2)
			(end 5.5 2)
			(stroke
				(width 0.12)
				(type solid)
			)
			(layer "F.SilkS")
			(uuid "e016d9cb-75d3-48f3-b15a-6ee718e69204")
		)
		(fp_line
			(start 7.3 2.5)
			(end 7.3 4.1)
			(stroke
				(width 0.12)
				(type solid)
			)
			(layer "F.SilkS")
			(uuid "839c082f-7509-451d-bfb6-ac89ade63b92")
		)
		(fp_line
			(start 6.3 2.5)
			(end 7.3 2.5)
			(stroke
				(width 0.12)
				(type solid)
			)
			(layer "F.SilkS")
			(uuid "82384213-bdce-4c7d-91fa-8cab99455d47")
		)
		(fp_line
			(start -0.3 2.5)
			(end -1.3 2.5)
			(stroke
				(width 0.12)
				(type solid)
			)
			(layer "F.SilkS")
			(uuid "3cf1d69d-b2f7-4207-bb36-88b5e4880354")
		)
		(fp_line
			(start -1.3 2.5)
			(end -1.3 4.1)
			(stroke
				(width 0.12)
				(type solid)
			)
			(layer "F.SilkS")
			(uuid "65583154-661a-4f1d-aa5e-94260e561627")
		)
		(fp_line
			(start 7.3 4.1)
			(end 6.3 4.1)
			(stroke
				(width 0.12)
				(type solid)
			)
			(layer "F.SilkS")
			(uuid "4b6037c6-b87d-48aa-9a43-c4e381260161")
		)
		(fp_line
			(start 6.3 4.1)
			(end 6.3 2.5)
			(stroke
				(width 0.12)
				(type solid)
			)
			(layer "F.SilkS")
			(uuid "de7e73d7-61d7-415b-82d3-8d237ceb7c6c")
		)
		(fp_line
			(start -0.3 4.1)
			(end -0.3 2.5)
			(stroke
				(width 0.12)
				(type solid)
			)
			(layer "F.SilkS")
			(uuid "380a7970-43b0-4934-b3d1-c4a9e8c0acea")
		)
		(fp_line
			(start -0.3 4.1)
			(end -0.3 6.36)
			(stroke
				(width 0.12)
				(type solid)
			)
			(layer "F.SilkS")
			(uuid "ec322adc-576d-490e-963c-c57fceccee8b")
		)
		(fp_line
			(start -0.8 4.1)
			(end -0.8 6.36)
			(stroke
				(width 0.12)
				(type solid)
			)
			(layer "F.SilkS")
			(uuid "f0fa5baa-e2ff-495d-acb4-dfa84f34f91e")
		)
		(fp_line
			(start -1.3 4.1)
			(end -0.3 4.1)
			(stroke
				(width 0.12)
				(type solid)
			)
			(layer "F.SilkS")
			(uuid "93027990-1a68-4005-8376-b30f6281f331")
		)
		(fp_line
			(start 8.06 6.36)
			(end 8.06 -1.46)
			(stroke
				(width 0.12)
				(type solid)
			)
			(layer "F.SilkS")
			(uuid "84e6bc64-e7bd-4977-9541-8a56ca246874")
		)
		(fp_line
			(start 0.5 6.36)
			(end 0.5 2)
			(stroke
				(width 0.12)
				(type solid)
			)
			(layer "F.SilkS")
			(uuid "fd5cdc86-538d-4849-aff5-d2ca3c549a10")
		)
		(fp_line
			(start -2.06 6.36)
			(end 8.06 6.36)
			(stroke
				(width 0.12)
				(type solid)
			)
			(layer "F.SilkS")
			(uuid "31b735cf-01ac-4417-8662-feda0404a165")
		)
		(fp_line
			(start 8.45 -1.85)
			(end -2.45 -1.85)
			(stroke
				(width 0.05)
				(type solid)
			)
			(layer "F.CrtYd")
			(uuid "ef6a3785-81ac-4ed8-9046-906945de1913")
		)
		(fp_line
			(start -2.45 -1.85)
			(end -2.45 6.75)
			(stroke
				(width 0.05)
				(type solid)
			)
			(layer "F.CrtYd")
			(uuid "a361c891-a6f7-4be8-a76d-034517338e10")
		)
		(fp_line
			(start 8.45 6.75)
			(end 8.45 -1.85)
			(stroke
				(width 0.05)
				(type solid)
			)
			(layer "F.CrtYd")
			(uuid "0557a60b-fb27-4922-b1d9-19ce95e5d2e5")
		)
		(fp_line
			(start -2.45 6.75)
			(end 8.45 6.75)
			(stroke
				(width 0.05)
				(type solid)
			)
			(layer "F.CrtYd")
			(uuid "d92fb9c8-e43f-4f22-a603-505027099016")
		)
		(fp_line
			(start 7.95 -1.35)
			(end 7.25 -1.35)
			(stroke
				(width 0.1)
				(type solid)
			)
			(layer "F.Fab")
			(uuid "4a315953-e41f-492e-8b36-44b67edf360f")
		)
		(fp_line
			(start 7.25 -1.35)
			(end 7.25 0.25)
			(stroke
				(width 0.1)
				(type solid)
			)
			(layer "F.Fab")
			(uuid "abda3aa6-4d3d-446e-b310-29b03590e40c")
		)
		(fp_line
			(start -1.25 -1.35)
			(end -1.95 -1.35)
			(stroke
				(width 0.1)
				(type solid)
			)
			(layer "F.Fab")
			(uuid "ad190528-5f7b-4488-a670-5325cae36523")
		)
		(fp_line
			(start -1.95 -1.35)
			(end -1.95 6.25)
			(stroke
				(width 0.1)
				(type solid)
			)
			(layer "F.Fab")
			(uuid "b6e8ec08-710c-4387-83a5-c2801f0a2e60")
		)
		(fp_line
			(start 7.25 0.25)
			(end -1.25 0.25)
			(stroke
				(width 0.1)
				(type solid)
			)
			(layer "F.Fab")
			(uuid "298c6f09-27e1-4036-b956-4abef29ba376")
		)
		(fp_line
			(start -1.25 0.25)
			(end -1.25 -1.35)
			(stroke
				(width 0.1)
				(type solid)
			)
			(layer "F.Fab")
			(uuid "36098409-f408-476d-a88b-e44a892be47a")
		)
		(fp_line
			(start 0 0.875)
			(end -0.5 1.375)
			(stroke
				(width 0.1)
				(type solid)
			)
			(layer "F.Fab")
			(uuid "df2db27f-4804-45f0-a683-d4dc4c36d388")
		)
		(fp_line
			(start 0.5 1.375)
			(end 0 0.875)
			(stroke
				(width 0.1)
				(type solid)
			)
			(layer "F.Fab")
			(uuid "2dbc4149-7e7a-43a0-890e-f285bb949b9e")
		)
		(fp_line
			(start -0.5 1.375)
			(end 0.5 1.375)
			(stroke
				(width 0.1)
				(type solid)
			)
			(layer "F.Fab")
			(uuid "043b6d94-a3ee-4671-a970-659d60448d14")
		)
		(fp_line
			(start 7.95 6.25)
			(end 7.95 -1.35)
			(stroke
				(width 0.1)
				(type solid)
			)
			(layer "F.Fab")
			(uuid "2044f161-3465-47c2-90e0-e887e7722988")
		)
		(fp_line
			(start -1.95 6.25)
			(end 7.95 6.25)
			(stroke
				(width 0.1)
				(type solid)
			)
			(layer "F.Fab")
			(uuid "7b19890f-e51d-49fc-8742-b70bcf72c9f2")
		)
		(fp_text user "${REFERENCE}"
			(at 3 2.5 -90)
			(layer "F.Fab")
			(uuid "d988968b-7c4a-4b62-83dc-6882c74930f9")
			(effects
				(font
					(size 1 1)
					(thickness 0.15)
				)
			)
		)
		(pad "1" thru_hole roundrect
			(at 0 0 90)
			(size 1.2 1.75)
			(drill 0.75)
			(layers "*.Cu" "*.Mask")
			(remove_unused_layers no)
			(roundrect_rratio 0.2083333333)
			(net 8 "V_LED_CONTROL")
			(pinfunction "Pin_1")
			(pintype "passive")
			(uuid "a9678f29-801e-4233-a698-31edc36b5780")
		)
		(pad "2" thru_hole oval
			(at 2 0 90)
			(size 1.2 1.75)
			(drill 0.75)
			(layers "*.Cu" "*.Mask")
			(remove_unused_layers no)
			(net 1 "+7VS")
			(pinfunction "Pin_2")
			(pintype "passive")
			(uuid "3fe37d99-24ec-4856-9bbc-392fa41255be")
		)
		(pad "3" thru_hole oval
			(at 4 0 90)
			(size 1.2 1.75)
			(drill 0.75)
			(layers "*.Cu" "*.Mask")
			(remove_unused_layers no)
			(net 9 "+5V")
			(pinfunction "Pin_3")
			(pintype "passive")
			(uuid "45b773fb-12bd-43c6-9337-1b78c5b241d2")
		)
		(pad "4" thru_hole oval
			(at 6 0 90)
			(size 1.2 1.75)
			(drill 0.75)
			(layers "*.Cu" "*.Mask")
			(remove_unused_layers no)
			(net 6 "GND")
			(pinfunction "Pin_4")
			(pintype "passive")
			(uuid "a1683a19-093e-4904-a6f9-b1c36ae22edd")
		)
		(model "${KICAD6_3DMODEL_DIR}/Connector_JST.3dshapes/JST_PH_S4B-PH-K_1x04_P2.00mm_Horizontal.wrl"
			(offset
				(xyz 0 0 0)
			)
			(scale
				(xyz 1 1 1)
			)
			(rotate
				(xyz 0 0 0)
			)
		)
	)
	(footprint "footprints:LED_IN-C35PPCTGU0"
		(layer "F.Cu")
		(uuid "75411ffc-03cc-4dde-81a2-2a01766355fb")
		(at 65.76 53.45)
		(descr "LED SMD 0805 (2012 Metric), square (rectangular) end terminal, IPC_7351 nominal, (Body size source: https://docs.google.com/spreadsheets/d/1BsfQQcO9C6DZCsRaXUlFlo91Tg2WpOkGARC1WS5S8t0/edit?usp=sharing), generated with kicad-footprint-generator")
		(tags "LED handsolder")
		(property "Reference" "D1"
			(at -0.23 3.45 0)
			(layer "F.SilkS")
			(uuid "4f6784fc-79a5-48f8-b1fa-2171834399ed")
			(effects
				(font
					(size 1 1)
					(thickness 0.15)
				)
			)
		)
		(property "Value" "UV LED"
			(at -0.1 3.7 0)
			(layer "F.Fab")
			(uuid "52751739-5fc4-4ca8-8265-fbe0017d5f04")
			(effects
				(font
					(size 1 1)
					(thickness 0.15)
				)
			)
		)
		(property "Footprint" "footprints:LED_IN-C35PPCTGU0"
			(at -1.9 0 0)
			(unlocked yes)
			(layer "F.Fab")
			(hide yes)
			(uuid "f45c35bb-c354-4f98-8499-948dcc6bcc2b")
			(effects
				(font
					(size 1.27 1.27)
				)
			)
		)
		(property "Datasheet" ""
			(at -1.9 0 0)
			(unlocked yes)
			(layer "F.Fab")
			(hide yes)
			(uuid "e91dec29-f19f-425d-bbd4-d15585b2d5bf")
			(effects
				(font
					(size 1.27 1.27)
				)
			)
		)
		(property "Description" ""
			(at -1.9 0 0)
			(unlocked yes)
			(layer "F.Fab")
			(hide yes)
			(uuid "fc443b2b-dc94-4666-9873-054542f04353")
			(effects
				(font
					(size 1.27 1.27)
				)
			)
		)
		(path "/6be07929-c990-4736-bc62-9d95cbbe587d")
		(attr smd)
		(fp_rect
			(start -0.75 -1.65)
			(end 0.65 1.65)
			(stroke
				(width 0)
				(type solid)
			)
			(fill solid)
			(layer "F.Cu")
			(uuid "510e5c61-b230-45b2-8181-7dd9b32ffc7c")
		)
		(fp_rect
			(start -3.6 -2.3)
			(end -2.7 2.3)
			(stroke
				(width 0)
				(type solid)
			)
			(fill solid)
			(layer "F.SilkS")
			(uuid "e2304728-6ab6-4532-972e-25976f3e8c2c")
		)
		(fp_rect
			(start -3.6 -2.3)
			(end 2.9 2.3)
			(stroke
				(width 0.12)
				(type default)
			)
			(fill none)
			(layer "F.SilkS")
			(uuid "3638eccb-b3b9-4d4e-8ac6-af1e95a1efed")
		)
		(fp_line
			(start -3.6 -2.3)
			(end 2.9 -2.3)
			(stroke
				(width 0.05)
				(type solid)
			)
			(layer "F.CrtYd")
			(uuid "de5385ed-b9e2-43d6-93c9-e23dc9b5eb37")
		)
		(fp_line
			(start -3.6 2.3)
			(end -3.6 -2.3)
			(stroke
				(width 0.05)
				(type solid)
			)
			(layer "F.CrtYd")
			(uuid "416387c4-d2f9-42e0-9e40-5d17534c4649")
		)
		(fp_line
			(start 2.9 -2.3)
			(end 2.9 2.3)
			(stroke
				(width 0.05)
				(type solid)
			)
			(layer "F.CrtYd")
			(uuid "1e44263b-96fc-49b5-9b58-aac029c90cf9")
		)
		(fp_line
			(start 2.9 2.3)
			(end -3.6 2.3)
			(stroke
				(width 0.05)
				(type solid)
			)
			(layer "F.CrtYd")
			(uuid "171945d6-927d-4abe-a4a3-e423114e1aa1")
		)
		(fp_text user "${REFERENCE}"
			(at -2.9 -4.7 0)
			(layer "F.Fab")
			(uuid "db4718d9-52c0-4418-9e00-3e65e74d9b50")
			(effects
				(font
					(size 0.5 0.5)
					(thickness 0.08)
				)
			)
		)
		(pad "1" smd rect
			(at -1.9 0)
			(size 0.45 1)
			(layers "F.Cu" "F.Paste" "F.Mask")
			(net 2 "Net-(D1-K)")
			(pinfunction "K")
			(pintype "passive")
			(uuid "20306854-914f-4f66-992a-6ed4899c3c1e")
		)
		(pad "1" smd roundrect
			(at -1.45 0)
			(size 0.5 3.3)
			(layers "F.Cu" "F.Paste" "F.Mask")
			(roundrect_rratio 0.217392)
			(net 2 "Net-(D1-K)")
			(pinfunction "K")
			(pintype "passive")
			(uuid "7f63f268-cbf1-4922-a7a8-c5e728730203")
		)
		(pad "2" smd roundrect
			(at 1.35 0)
			(size 0.5 3.3)
			(layers "F.Cu" "F.Paste" "F.Mask")
			(roundrect_rratio 0.217392)
			(net 1 "+7VS")
			(pinfunction "A")
			(pintype "passive")
			(uuid "8c96cc2c-90d8-404a-b203-8801efa0dda6")
		)
		(pad "2" smd rect
			(at 1.8 0)
			(size 0.45 1)
			(layers "F.Cu" "F.Paste" "F.Mask")
			(net 1 "+7VS")
			(pinfunction "A")
			(pintype "passive")
			(uuid "22c4e36d-f09e-4f0a-b3ff-4df62cffca63")
		)
		(model "${KICAD6_3DMODEL_DIR}/LED_SMD.3dshapes/LED_0805_2012Metric.wrl"
			(offset
				(xyz 0 0 0)
			)
			(scale
				(xyz 1 1 1)
			)
			(rotate
				(xyz 0 0 0)
			)
		)
	)
	(footprint "MountingHole:MountingHole_2.7mm_M2.5"
		(layer "F.Cu")
		(uuid "8ba53783-34ba-46d0-aaa7-8bae2db076ee")
		(at 77.94 66.08)
		(descr "Mounting Hole 2.7mm, no annular, M2.5")
		(tags "mounting hole 2.7mm no annular m2.5")
		(property "Reference" "H4"
			(at 0 -3.7 0)
			(layer "F.SilkS")
			(uuid "29790d70-fbfc-4e30-b55c-9e1ba4b210a7")
			(effects
				(font
					(size 1 1)
					(thickness 0.15)
				)
			)
		)
		(property "Value" "MountingHole"
			(at -0.04 -2.41 0)
			(layer "F.Fab")
			(uuid "55f92098-08c1-43ea-b793-0b75af8f4133")
			(effects
				(font
					(size 1 1)
					(thickness 0.15)
				)
			)
		)
		(property "Footprint" "MountingHole:MountingHole_2.7mm_M2.5"
			(at 0 0 0)
			(unlocked yes)
			(layer "F.Fab")
			(hide yes)
			(uuid "686789ad-b7f7-48d6-a626-d04b19c15317")
			(effects
				(font
					(size 1.27 1.27)
				)
			)
		)
		(property "Datasheet" ""
			(at 0 0 0)
			(unlocked yes)
			(layer "F.Fab")
			(hide yes)
			(uuid "81c56cd3-6e28-4b2d-bc70-27e5623a20c2")
			(effects
				(font
					(size 1.27 1.27)
				)
			)
		)
		(property "Description" "Mounting Hole without connection"
			(at 0 0 0)
			(unlocked yes)
			(layer "F.Fab")
			(hide yes)
			(uuid "5968f98c-e2f6-4364-8fff-a20f26f935ce")
			(effects
				(font
					(size 1.27 1.27)
				)
			)
		)
		(property ki_fp_filters "MountingHole*")
		(path "/00c2f9cf-50de-44d8-baff-ae7fee6f64a8")
		(sheetname "Root")
		(sheetfile "UV-LED-source.kicad_sch")
		(attr exclude_from_pos_files)
		(fp_circle
			(center 0 0)
			(end 2.7 0)
			(stroke
				(width 0.15)
				(type solid)
			)
			(fill none)
			(layer "Cmts.User")
			(uuid "d1e0fab3-7fda-45f8-948e-cd4a0cb6c836")
		)
		(fp_circle
			(center 0 0)
			(end 2.95 0)
			(stroke
				(width 0.05)
				(type solid)
			)
			(fill none)
			(layer "F.CrtYd")
			(uuid "711ff743-d209-45cd-b8d9-590fe8c22135")
		)
		(fp_text user "${REFERENCE}"
			(at 0 0 0)
			(layer "F.Fab")
			(uuid "7d3acacd-23d0-4761-bdcf-fb18e76c032f")
			(effects
				(font
					(size 1 1)
					(thickness 0.15)
				)
			)
		)
		(pad "" np_thru_hole circle
			(at 0 0)
			(size 2.7 2.7)
			(drill 2.7)
			(layers "*.Cu" "*.Mask")
			(uuid "58cebd4a-8652-4e2e-b42c-c37d94b149a6")
		)
	)
	(footprint "MountingHole:MountingHole_2.7mm_M2.5"
		(layer "F.Cu")
		(uuid "8d726b5e-07de-4f69-a63e-af2b330555a6")
		(at 52.94 66.08)
		(descr "Mounting Hole 2.7mm, no annular, M2.5")
		(tags "mounting hole 2.7mm no annular m2.5")
		(property "Reference" "H3"
			(at -0.02 -4.16 0)
			(layer "F.SilkS")
			(uuid "860c8380-4ac7-469a-8a26-1e2ad29f644f")
			(effects
				(font
					(size 1 1)
					(thickness 0.15)
				)
			)
		)
		(property "Value" "MountingHole"
			(at 0 3.7 0)
			(layer "F.Fab")
			(uuid "47f7b52d-6d32-43d7-986b-f5d46ed2b494")
			(effects
				(font
					(size 1 1)
					(thickness 0.15)
				)
			)
		)
		(property "Footprint" "MountingHole:MountingHole_2.7mm_M2.5"
			(at 0 0 0)
			(unlocked yes)
			(layer "F.Fab")
			(hide yes)
			(uuid "5ea6a6e1-523a-4ed2-a4e2-09d44769de8b")
			(effects
				(font
					(size 1.27 1.27)
				)
			)
		)
		(property "Datasheet" ""
			(at 0 0 0)
			(unlocked yes)
			(layer "F.Fab")
			(hide yes)
			(uuid "cfcd47d2-e577-41df-8823-612008f6879e")
			(effects
				(font
					(size 1.27 1.27)
				)
			)
		)
		(property "Description" "Mounting Hole without connection"
			(at 0 0 0)
			(unlocked yes)
			(layer "F.Fab")
			(hide yes)
			(uuid "b3631d24-04ed-4dbf-b3f7-3acd82e743d1")
			(effects
				(font
					(size 1.27 1.27)
				)
			)
		)
		(property ki_fp_filters "MountingHole*")
		(path "/e43ef8b0-16d6-4cfc-b148-444eabd9948e")
		(sheetname "Root")
		(sheetfile "UV-LED-source.kicad_sch")
		(attr exclude_from_pos_files)
		(fp_circle
			(center 0 0)
			(end 2.7 0)
			(stroke
				(width 0.15)
				(type solid)
			)
			(fill none)
			(layer "Cmts.User")
			(uuid "49ac53c8-459a-4fd5-88eb-17b2775ab472")
		)
		(fp_circle
			(center 0 0)
			(end 2.95 0)
			(stroke
				(width 0.05)
				(type solid)
			)
			(fill none)
			(layer "F.CrtYd")
			(uuid "b412e61e-cd47-4d4f-8e1d-f26be6fa9a7b")
		)
		(fp_text user "${REFERENCE}"
			(at 0 0 0)
			(layer "F.Fab")
			(uuid "fb12fe1f-6776-4120-aff6-43bc6cab9b92")
			(effects
				(font
					(size 1 1)
					(thickness 0.15)
				)
			)
		)
		(pad "" np_thru_hole circle
			(at 0 0)
			(size 2.7 2.7)
			(drill 2.7)
			(layers "*.Cu" "*.Mask")
			(uuid "8eefe295-6bef-4fbb-9e09-efb0c9bc7354")
		)
	)
	(footprint "MountingHole:MountingHole_2.7mm_M2.5"
		(layer "F.Cu")
		(uuid "acd30a0b-ce7c-466b-84a9-47f581c404e4")
		(at 77.94 41.08)
		(descr "Mounting Hole 2.7mm, no annular, M2.5")
		(tags "mounting hole 2.7mm no annular m2.5")
		(property "Reference" "H2"
			(at 0 -3.7 0)
			(layer "F.SilkS")
			(uuid "79bc7145-ad45-44dd-9e7f-ae3bd0a37c0d")
			(effects
				(font
					(size 1 1)
					(thickness 0.15)
				)
			)
		)
		(property "Value" "MountingHole"
			(at 0 3.7 0)
			(layer "F.Fab")
			(uuid "4f9aea21-cb98-43fc-8a9b-f53c6a5617f1")
			(effects
				(font
					(size 1 1)
					(thickness 0.15)
				)
			)
		)
		(property "Footprint" "MountingHole:MountingHole_2.7mm_M2.5"
			(at 0 0 0)
			(unlocked yes)
			(layer "F.Fab")
			(hide yes)
			(uuid "2513d54d-ebe5-4aa2-9b8a-1a21208bad3b")
			(effects
				(font
					(size 1.27 1.27)
				)
			)
		)
		(property "Datasheet" ""
			(at 0 0 0)
			(unlocked yes)
			(layer "F.Fab")
			(hide yes)
			(uuid "e1bab5b5-cd7c-4573-829d-4d9ffe7acca2")
			(effects
				(font
					(size 1.27 1.27)
				)
			)
		)
		(property "Description" "Mounting Hole without connection"
			(at 0 0 0)
			(unlocked yes)
			(layer "F.Fab")
			(hide yes)
			(uuid "5aa8533f-6af6-44f1-8137-46634fe39d0c")
			(effects
				(font
					(size 1.27 1.27)
				)
			)
		)
		(property ki_fp_filters "MountingHole*")
		(path "/a8de29bc-5477-404e-aa3b-e3886bb3c6c7")
		(sheetname "Root")
		(sheetfile "UV-LED-source.kicad_sch")
		(attr exclude_from_pos_files)
		(fp_circle
			(center 0 0)
			(end 2.7 0)
			(stroke
				(width 0.15)
				(type solid)
			)
			(fill none)
			(layer "Cmts.User")
			(uuid "a56d5a7a-d709-4757-8e4d-89961f5b5734")
		)
		(fp_circle
			(center 0 0)
			(end 2.95 0)
			(stroke
				(width 0.05)
				(type solid)
			)
			(fill none)
			(layer "F.CrtYd")
			(uuid "f8e9d410-341a-470b-9090-fa9905e686fd")
		)
		(fp_text user "${REFERENCE}"
			(at 0 0 0)
			(layer "F.Fab")
			(uuid "c01f4bd1-48b0-437d-a26a-9ddb356dec25")
			(effects
				(font
					(size 1 1)
					(thickness 0.15)
				)
			)
		)
		(pad "" np_thru_hole circle
			(at 0 0)
			(size 2.7 2.7)
			(drill 2.7)
			(layers "*.Cu" "*.Mask")
			(uuid "366e2d96-061a-4be8-b696-d91d730e5b50")
		)
	)
	(footprint "Package_TO_SOT_SMD:SOT-23"
		(layer "F.Cu")
		(uuid "af26e64f-e984-418b-a299-9f025a74dbda")
		(at 55.2025 47.55)
		(descr "SOT, 3 Pin (https://www.jedec.org/system/files/docs/to-236h.pdf variant AB), generated with kicad-footprint-generator ipc_gullwing_generator.py")
		(tags "SOT TO_SOT_SMD")
		(property "Reference" "Q1"
			(at 0 -2.4 0)
			(layer "F.SilkS")
			(uuid "f5a4b87d-83df-4f7e-90b5-27ef47177870")
			(effects
				(font
					(size 1 1)
					(thickness 0.15)
				)
			)
		)
		(property "Value" "2N7000"
			(at 0 2.4 0)
			(layer "F.Fab")
			(uuid "1b489b72-2e02-494b-8688-3743e147db36")
			(effects
				(font
					(size 1 1)
					(thickness 0.15)
				)
			)
		)
		(property "Footprint" "Package_TO_SOT_SMD:SOT-23"
			(at 0 0 0)
			(unlocked yes)
			(layer "F.Fab")
			(hide yes)
			(uuid "77f3c1b3-8340-4edc-9db5-43e36a910b9e")
			(effects
				(font
					(size 1.27 1.27)
				)
			)
		)
		(property "Datasheet" "https://www.vishay.com/docs/70226/70226.pdf"
			(at 0 0 0)
			(unlocked yes)
			(layer "F.Fab")
			(hide yes)
			(uuid "147a4f73-2c01-40d3-a9b7-29f6ac92a7e3")
			(effects
				(font
					(size 1.27 1.27)
				)
			)
		)
		(property "Description" ""
			(at 0 0 0)
			(unlocked yes)
			(layer "F.Fab")
			(hide yes)
			(uuid "eefa56b3-fcf6-4dac-80c5-3ae345602db8")
			(effects
				(font
					(size 1.27 1.27)
				)
			)
		)
		(property ki_fp_filters "TO?92*")
		(path "/f0275f67-f91e-48b6-b47e-a16761525de1")
		(sheetname "Root")
		(sheetfile "UV-LED-source.kicad_sch")
		(attr smd)
		(fp_line
			(start 0 -1.56)
			(end -1.675 -1.56)
			(stroke
				(width 0.12)
				(type solid)
			)
			(layer "F.SilkS")
			(uuid "94ee91bf-4f73-4b28-86a7-41d819d0c749")
		)
		(fp_line
			(start 0 -1.56)
			(end 0.65 -1.56)
			(stroke
				(width 0.12)
				(type solid)
			)
			(layer "F.SilkS")
			(uuid "0ffc50d5-5c03-426f-9a1b-25cc64a78dce")
		)
		(fp_line
			(start 0 1.56)
			(end -0.65 1.56)
			(stroke
				(width 0.12)
				(type solid)
			)
			(layer "F.SilkS")
			(uuid "1a2d5663-326b-4f8e-81a4-ae16a5dc2ae4")
		)
		(fp_line
			(start 0 1.56)
			(end 0.65 1.56)
			(stroke
				(width 0.12)
				(type solid)
			)
			(layer "F.SilkS")
			(uuid "b71cff59-109d-40a1-b46b-4a90e983bd67")
		)
		(fp_line
			(start -1.92 -1.7)
			(end -1.92 1.7)
			(stroke
				(width 0.05)
				(type solid)
			)
			(layer "F.CrtYd")
			(uuid "45207ff9-eeae-4ad9-9e24-27ea6e4ac176")
		)
		(fp_line
			(start -1.92 1.7)
			(end 1.92 1.7)
			(stroke
				(width 0.05)
				(type solid)
			)
			(layer "F.CrtYd")
			(uuid "bb4a168a-9a48-448f-b063-3a447ff5bdf6")
		)
		(fp_line
			(start 1.92 -1.7)
			(end -1.92 -1.7)
			(stroke
				(width 0.05)
				(type solid)
			)
			(layer "F.CrtYd")
			(uuid "33d334ca-d3f9-4e30-b25a-f713c8928941")
		)
		(fp_line
			(start 1.92 1.7)
			(end 1.92 -1.7)
			(stroke
				(width 0.05)
				(type solid)
			)
			(layer "F.CrtYd")
			(uuid "dd569c91-8db7-4264-ad76-890f6680cb33")
		)
		(fp_line
			(start -0.65 -1.125)
			(end -0.325 -1.45)
			(stroke
				(width 0.1)
				(type solid)
			)
			(layer "F.Fab")
			(uuid "594bc1aa-99c0-4100-a9be-4979b1f78ec2")
		)
		(fp_line
			(start -0.65 1.45)
			(end -0.65 -1.125)
			(stroke
				(width 0.1)
				(type solid)
			)
			(layer "F.Fab")
			(uuid "d0ea5a65-1cd7-414f-a540-f882a2f57da6")
		)
		(fp_line
			(start -0.325 -1.45)
			(end 0.65 -1.45)
			(stroke
				(width 0.1)
				(type solid)
			)
			(layer "F.Fab")
			(uuid "c307f6da-e57f-42c3-8d01-c9c177d65038")
		)
		(fp_line
			(start 0.65 -1.45)
			(end 0.65 1.45)
			(stroke
				(width 0.1)
				(type solid)
			)
			(layer "F.Fab")
			(uuid "e2d0e835-2c60-4862-b979-4f470a532395")
		)
		(fp_line
			(start 0.65 1.45)
			(end -0.65 1.45)
			(stroke
				(width 0.1)
				(type solid)
			)
			(layer "F.Fab")
			(uuid "c795a2c8-cc94-442b-a16a-44eb91c55cad")
		)
		(fp_text user "${REFERENCE}"
			(at 0 0 0)
			(layer "F.Fab")
			(uuid "2ab9837e-8afe-42e0-9c3b-dba078f88899")
			(effects
				(font
					(size 0.32 0.32)
					(thickness 0.05)
				)
			)
		)
		(pad "1" smd roundrect
			(at -0.9375 -0.95)
			(size 1.475 0.6)
			(layers "F.Cu" "F.Paste" "F.Mask")
			(roundrect_rratio 0.25)
			(net 3 "Net-(Q1-S)")
			(pinfunction "S")
			(pintype "passive")
			(uuid "1501274a-5d3c-4c00-8fe0-ae408973e95e")
		)
		(pad "2" smd roundrect
			(at -0.9375 0.95)
			(size 1.475 0.6)
			(layers "F.Cu" "F.Paste" "F.Mask")
			(roundrect_rratio 0.25)
			(net 4 "Net-(Q1-G)")
			(pinfunction "G")
			(pintype "input")
			(uuid "bb5a0684-ec0b-4fe7-b98f-95aa04df659c")
		)
		(pad "3" smd roundrect
			(at 0.9375 0)
			(size 1.475 0.6)
			(layers "F.Cu" "F.Paste" "F.Mask")
			(roundrect_rratio 0.25)
			(net 2 "Net-(D1-K)")
			(pinfunction "D")
			(pintype "passive")
			(uuid "c847be13-e3aa-4305-88b8-63187c81fa98")
		)
		(model "${KICAD6_3DMODEL_DIR}/Package_TO_SOT_SMD.3dshapes/SOT-23.wrl"
			(offset
				(xyz 0 0 0)
			)
			(scale
				(xyz 1 1 1)
			)
			(rotate
				(xyz 0 0 0)
			)
		)
	)
	(footprint "Resistor_SMD:R_0805_2012Metric_Pad1.20x1.40mm_HandSolder"
		(layer "F.Cu")
		(uuid "be0ad749-df0c-40bd-9a2b-975195d57057")
		(at 57.63 55.98 180)
		(descr "Resistor SMD 0805 (2012 Metric), square (rectangular) end terminal, IPC_7351 nominal with elongated pad for handsoldering. (Body size source: IPC-SM-782 page 72, https://www.pcb-3d.com/wordpress/wp-content/uploads/ipc-sm-782a_amendment_1_and_2.pdf), generated with kicad-footprint-generator")
		(tags "resistor handsolder")
		(property "Reference" "R3"
			(at 0 -1.65 180)
			(layer "F.SilkS")
			(uuid "10f8cd9b-ee97-43b8-a840-0ee5975831f6")
			(effects
				(font
					(size 1 1)
					(thickness 0.15)
				)
			)
		)
		(property "Value" "100K"
			(at 0 1.65 180)
			(layer "F.Fab")
			(uuid "f18b5ab4-67fe-4bb7-9160-cdcd428eec4b")
			(effects
				(font
					(size 1 1)
					(thickness 0.15)
				)
			)
		)
		(property "Footprint" "Resistor_SMD:R_0805_2012Metric_Pad1.20x1.40mm_HandSolder"
			(at 0 0 180)
			(unlocked yes)
			(layer "F.Fab")
			(hide yes)
			(uuid "36b5b0c5-6752-47b9-81bd-e1280041d655")
			(effects
				(font
					(size 1.27 1.27)
				)
			)
		)
		(property "Datasheet" ""
			(at 0 0 180)
			(unlocked yes)
			(layer "F.Fab")
			(hide yes)
			(uuid "7ffde9dd-a048-47f8-b2a6-6719087c09a1")
			(effects
				(font
					(size 1.27 1.27)
				)
			)
		)
		(property "Description" ""
			(at 0 0 180)
			(unlocked yes)
			(layer "F.Fab")
			(hide yes)
			(uuid "a5f63e7f-e130-4509-b304-d4da164ce469")
			(effects
				(font
					(size 1.27 1.27)
				)
			)
		)
		(property ki_fp_filters "R_*")
		(path "/1d9e4568-0450-4562-8be7-981aafbb717a")
		(sheetname "Root")
		(sheetfile "UV-LED-source.kicad_sch")
		(attr smd)
		(fp_line
			(start -0.227064 0.735)
			(end 0.227064 0.735)
			(stroke
				(width 0.12)
				(type solid)
			)
			(layer "F.SilkS")
			(uuid "fee17c35-07e1-4ca1-9390-0695a6d73564")
		)
		(fp_line
			(start -0.227064 -0.735)
			(end 0.227064 -0.735)
			(stroke
				(width 0.12)
				(type solid)
			)
			(layer "F.SilkS")
			(uuid "206711c9-c9ff-4932-8b41-40728670cd45")
		)
		(fp_line
			(start 1.85 0.95)
			(end -1.85 0.95)
			(stroke
				(width 0.05)
				(type solid)
			)
			(layer "F.CrtYd")
			(uuid "875e66b8-4205-477f-b5c1-05e9297e25ab")
		)
		(fp_line
			(start 1.85 -0.95)
			(end 1.85 0.95)
			(stroke
				(width 0.05)
				(type solid)
			)
			(layer "F.CrtYd")
			(uuid "966b7d6d-b2c7-473f-8204-28c5778ea9ea")
		)
		(fp_line
			(start -1.85 0.95)
			(end -1.85 -0.95)
			(stroke
				(width 0.05)
				(type solid)
			)
			(layer "F.CrtYd")
			(uuid "48419f16-bf70-43d3-ba70-121e35392d13")
		)
		(fp_line
			(start -1.85 -0.95)
			(end 1.85 -0.95)
			(stroke
				(width 0.05)
				(type solid)
			)
			(layer "F.CrtYd")
			(uuid "546f181a-8317-4c8b-a57a-8785a1614bf9")
		)
		(fp_line
			(start 1 0.625)
			(end -1 0.625)
			(stroke
				(width 0.1)
				(type solid)
			)
			(layer "F.Fab")
			(uuid "536cef8b-cfb7-407f-a868-c86be04b9724")
		)
		(fp_line
			(start 1 -0.625)
			(end 1 0.625)
			(stroke
				(width 0.1)
				(type solid)
			)
			(layer "F.Fab")
			(uuid "4d78270e-d5c5-40bb-9a05-a6d6d978242e")
		)
		(fp_line
			(start -1 0.625)
			(end -1 -0.625)
			(stroke
				(width 0.1)
				(type solid)
			)
			(layer "F.Fab")
			(uuid "e829b457-94d1-40ec-9b99-1255320a77b9")
		)
		(fp_line
			(start -1 -0.625)
			(end 1 -0.625)
			(stroke
				(width 0.1)
				(type solid)
			)
			(layer "F.Fab")
			(uuid "c64cecbf-0168-4960-a59b-775e418850c5")
		)
		(fp_text user "${REFERENCE}"
			(at 0 0 180)
			(layer "F.Fab")
			(uuid "c7c5fa8e-f225-4dab-a33f-e01c7626f3ec")
			(effects
				(font
					(size 0.5 0.5)
					(thickness 0.08)
				)
			)
		)
		(pad "1" smd roundrect
			(at -1 0 180)
			(size 1.2 1.4)
			(layers "F.Cu" "F.Paste" "F.Mask")
			(roundrect_rratio 0.2083333333)
			(net 8 "V_LED_CONTROL")
			(pintype "passive")
			(uuid "6c0d4b32-fed0-4011-943d-f28b7b74b8f2")
		)
		(pad "2" smd roundrect
			(at 1 0 180)
			(size 1.2 1.4)
			(layers "F.Cu" "F.Paste" "F.Mask")
			(roundrect_rratio 0.2083333333)
			(net 7 "Net-(U1A-+)")
			(pintype "passive")
			(uuid "9f339fd8-2141-4560-b2df-e7ea9411e7a6")
		)
		(model "${KICAD6_3DMODEL_DIR}/Resistor_SMD.3dshapes/R_0805_2012Metric.wrl"
			(offset
				(xyz 0 0 0)
			)
			(scale
				(xyz 1 1 1)
			)
			(rotate
				(xyz 0 0 0)
			)
		)
	)
	(footprint "Resistor_SMD:R_0805_2012Metric_Pad1.20x1.40mm_HandSolder"
		(layer "F.Cu")
		(uuid "d445ae5d-1e5d-4f1a-96cb-2fff841a62f8")
		(at 57.49 51.9 180)
		(descr "Resistor SMD 0805 (2012 Metric), square (rectangular) end terminal, IPC_7351 nominal with elongated pad for handsoldering. (Body size source: IPC-SM-782 page 72, https://www.pcb-3d.com/wordpress/wp-content/uploads/ipc-sm-782a_amendment_1_and_2.pdf), generated with kicad-footprint-generator")
		(tags "resistor handsolder")
		(property "Reference" "R1"
			(at 0 -1.65 180)
			(layer "F.SilkS")
			(uuid "3b7943c3-12ae-48f1-ac64-5b6c80c15222")
			(effects
				(font
					(size 1 1)
					(thickness 0.15)
				)
			)
		)
		(property "Value" "49.9"
			(at 0 1.65 180)
			(layer "F.Fab")
			(uuid "f723e5af-1297-4134-9c2b-260520fdcae7")
			(effects
				(font
					(size 1 1)
					(thickness 0.15)
				)
			)
		)
		(property "Footprint" "Resistor_SMD:R_0805_2012Metric_Pad1.20x1.40mm_HandSolder"
			(at 0 0 180)
			(unlocked yes)
			(layer "F.Fab")
			(hide yes)
			(uuid "c61916ca-ce3d-4ee2-a7f8-70468002a246")
			(effects
				(font
					(size 1.27 1.27)
				)
			)
		)
		(property "Datasheet" ""
			(at 0 0 180)
			(unlocked yes)
			(layer "F.Fab")
			(hide yes)
			(uuid "4beea4ba-96d8-41da-8d37-ca10fcf07479")
			(effects
				(font
					(size 1.27 1.27)
				)
			)
		)
		(property "Description" ""
			(at 0 0 180)
			(unlocked yes)
			(layer "F.Fab")
			(hide yes)
			(uuid "9af0eb05-285e-4d5c-96ab-c0e506fdabc6")
			(effects
				(font
					(size 1.27 1.27)
				)
			)
		)
		(property ki_fp_filters "R_*")
		(path "/dede8668-c297-49b7-a681-fb48bd0af6a0")
		(sheetname "Root")
		(sheetfile "UV-LED-source.kicad_sch")
		(attr smd)
		(fp_line
			(start -0.227064 0.735)
			(end 0.227064 0.735)
			(stroke
				(width 0.12)
				(type solid)
			)
			(layer "F.SilkS")
			(uuid "5a04c3f0-3783-4a9c-80ea-84d153c46af0")
		)
		(fp_line
			(start -0.227064 -0.735)
			(end 0.227064 -0.735)
			(stroke
				(width 0.12)
				(type solid)
			)
			(layer "F.SilkS")
			(uuid "557645f0-751e-40e7-93be-a7e89396e0c0")
		)
		(fp_line
			(start 1.85 0.95)
			(end -1.85 0.95)
			(stroke
				(width 0.05)
				(type solid)
			)
			(layer "F.CrtYd")
			(uuid "810df72c-d62c-40e0-83ac-8e00daaeb8e3")
		)
		(fp_line
			(start 1.85 -0.95)
			(end 1.85 0.95)
			(stroke
				(width 0.05)
				(type solid)
			)
			(layer "F.CrtYd")
			(uuid "5242260e-2218-4a86-be59-2d961c469dbd")
		)
		(fp_line
			(start -1.85 0.95)
			(end -1.85 -0.95)
			(stroke
				(width 0.05)
				(type solid)
			)
			(layer "F.CrtYd")
			(uuid "63f220a9-d28a-4cbb-a91c-3b58f3f039dd")
		)
		(fp_line
			(start -1.85 -0.95)
			(end 1.85 -0.95)
			(stroke
				(width 0.05)
				(type solid)
			)
			(layer "F.CrtYd")
			(uuid "bcdcc6ef-9019-481d-9e55-4ba13e4d4c52")
		)
		(fp_line
			(start 1 0.625)
			(end -1 0.625)
			(stroke
				(width 0.1)
				(type solid)
			)
			(layer "F.Fab")
			(uuid "e20272f8-c532-4fc0-9375-b36cad3363a0")
		)
		(fp_line
			(start 1 -0.625)
			(end 1 0.625)
			(stroke
				(width 0.1)
				(type solid)
			)
			(layer "F.Fab")
			(uuid "a6c0702e-04e8-440d-9e13-0cfdc68b9207")
		)
		(fp_line
			(start -1 0.625)
			(end -1 -0.625)
			(stroke
				(width 0.1)
				(type solid)
			)
			(layer "F.Fab")
			(uuid "bd890d5e-08ab-4f6c-95f9-8f1fc33c4dff")
		)
		(fp_line
			(start -1 -0.625)
			(end 1 -0.625)
			(stroke
				(width 0.1)
				(type solid)
			)
			(layer "F.Fab")
			(uuid "00d364bf-d0ba-4858-ac5f-cb3a763be635")
		)
		(fp_text user "${REFERENCE}"
			(at 0 0 180)
			(layer "F.Fab")
			(uuid "93a34f42-4e06-4d22-9ac4-c02d9588fc3e")
			(effects
				(font
					(size 0.5 0.5)
					(thickness 0.08)
				)
			)
		)
		(pad "1" smd roundrect
			(at -1 0 180)
			(size 1.2 1.4)
			(layers "F.Cu" "F.Paste" "F.Mask")
			(roundrect_rratio 0.2083333333)
			(net 5 "Net-(R1-Pad1)")
			(pintype "passive")
			(uuid "5a1b7636-82c5-4a39-bddf-6f6eed574768")
		)
		(pad "2" smd roundrect
			(at 1 0 180)
			(size 1.2 1.4)
			(layers "F.Cu" "F.Paste" "F.Mask")
			(roundrect_rratio 0.2083333333)
			(net 4 "Net-(Q1-G)")
			(pintype "passive")
			(uuid "e15e2d8c-cac3-48ff-8058-d60db4a7db34")
		)
		(model "${KICAD6_3DMODEL_DIR}/Resistor_SMD.3dshapes/R_0805_2012Metric.wrl"
			(offset
				(xyz 0 0 0)
			)
			(scale
				(xyz 1 1 1)
			)
			(rotate
				(xyz 0 0 0)
			)
		)
	)
	(footprint "Package_SO:SOIC-14_3.9x8.7mm_P1.27mm"
		(layer "F.Cu")
		(uuid "dd52fc3c-e00a-45c4-a4c8-7c1d40c8d128")
		(at 65.5 43.22 90)
		(descr "SOIC, 14 Pin (JEDEC MS-012AB, https://www.analog.com/media/en/package-pcb-resources/package/pkg_pdf/soic_narrow-r/r_14.pdf), generated with kicad-footprint-generator ipc_gullwing_generator.py")
		(tags "SOIC SO")
		(property "Reference" "U1"
			(at 0 -5.28 -90)
			(layer "F.SilkS")
			(uuid "b3a38e9c-d1bd-4a73-aa2b-76944f75bc83")
			(effects
				(font
					(size 1 1)
					(thickness 0.15)
				)
			)
		)
		(property "Value" "OPA4340UA"
			(at 0 5.28 -90)
			(layer "F.Fab")
			(uuid "11a0ae3c-6d7e-4847-933d-7e7184b88e0b")
			(effects
				(font
					(size 1 1)
					(thickness 0.15)
				)
			)
		)
		(property "Footprint" "Package_SO:SOIC-14_3.9x8.7mm_P1.27mm"
			(at 0 0 90)
			(unlocked yes)
			(layer "F.Fab")
			(hide yes)
			(uuid "e9c4b948-ecc4-434e-9920-7f4289aa81c3")
			(effects
				(font
					(size 1.27 1.27)
				)
			)
		)
		(property "Datasheet" "http://www.ti.com/lit/ds/symlink/opa340.pdf"
			(at 0 0 90)
			(unlocked yes)
			(layer "F.Fab")
			(hide yes)
			(uuid "3829d9ed-7f18-4246-90db-f12b7b08476f")
			(effects
				(font
					(size 1.27 1.27)
				)
			)
		)
		(property "Description" "Quad Single-Supply, Rail-to-Rail Operational Amplifier, MicroAmplifier Series, SOIC-14"
			(at 0 0 90)
			(unlocked yes)
			(layer "F.Fab")
			(hide yes)
			(uuid "26833eee-62db-4220-809f-52355d0a3061")
			(effects
				(font
					(size 1.27 1.27)
				)
			)
		)
		(property ki_fp_filters "SOIC*3.9x8.7mm*P1.27mm* DIP*W7.62mm* TSSOP*4.4x5mm*P0.65mm* SSOP*5.3x6.2mm*P0.65mm* MSOP*3x3mm*P0.5mm*")
		(path "/4c2b165b-5913-40fe-a158-d8fdfd74a88e")
		(sheetname "Root")
		(sheetfile "UV-LED-source.kicad_sch")
		(attr smd)
		(fp_line
			(start 0 -4.435)
			(end 1.95 -4.435)
			(stroke
				(width 0.12)
				(type solid)
			)
			(layer "F.SilkS")
			(uuid "2f76174c-684c-4abc-88ba-c517f6a0231b")
		)
		(fp_line
			(start 0 -4.435)
			(end -3.45 -4.435)
			(stroke
				(width 0.12)
				(type solid)
			)
			(layer "F.SilkS")
			(uuid "fe7ddcd0-d491-4a7d-a021-d29b15af5468")
		)
		(fp_line
			(start 0 4.435)
			(end 1.95 4.435)
			(stroke
				(width 0.12)
				(type solid)
			)
			(layer "F.SilkS")
			(uuid "1df4a5de-ffcf-4652-903c-a6951a2b8134")
		)
		(fp_line
			(start 0 4.435)
			(end -1.95 4.435)
			(stroke
				(width 0.12)
				(type solid)
			)
			(layer "F.SilkS")
			(uuid "89076518-92eb-49d7-b016-59b6087d792c")
		)
		(fp_line
			(start 3.7 -4.58)
			(end -3.7 -4.58)
			(stroke
				(width 0.05)
				(type solid)
			)
			(layer "F.CrtYd")
			(uuid "c42e7a72-23eb-4cf4-bf4f-56aa1cbd8530")
		)
		(fp_line
			(start -3.7 -4.58)
			(end -3.7 4.58)
			(stroke
				(width 0.05)
				(type solid)
			)
			(layer "F.CrtYd")
			(uuid "e939a165-41e9-4028-90bc-02d19668af77")
		)
		(fp_line
			(start 3.7 4.58)
			(end 3.7 -4.58)
			(stroke
				(width 0.05)
				(type solid)
			)
			(layer "F.CrtYd")
			(uuid "f509c189-66d8-42d8-b129-13767dfc7f9c")
		)
		(fp_line
			(start -3.7 4.58)
			(end 3.7 4.58)
			(stroke
				(width 0.05)
				(type solid)
			)
			(layer "F.CrtYd")
			(uuid "f4ef02bf-4c1b-4809-b7b8-f2aa495afa90")
		)
		(fp_line
			(start 1.95 -4.325)
			(end 1.95 4.325)
			(stroke
				(width 0.1)
				(type solid)
			)
			(layer "F.Fab")
			(uuid "00930727-3202-4fa4-9a8a-1b83f6d84331")
		)
		(fp_line
			(start -0.975 -4.325)
			(end 1.95 -4.325)
			(stroke
				(width 0.1)
				(type solid)
			)
			(layer "F.Fab")
			(uuid "f8a84d75-177c-4680-bf1b-ee079f7ee4cb")
		)
		(fp_line
			(start -1.95 -3.35)
			(end -0.975 -4.325)
			(stroke
				(width 0.1)
				(type solid)
			)
			(layer "F.Fab")
			(uuid "d77e9766-2d33-4c7a-81e7-94166f88d2f9")
		)
		(fp_line
			(start 1.95 4.325)
			(end -1.95 4.325)
			(stroke
				(width 0.1)
				(type solid)
			)
			(layer "F.Fab")
			(uuid "e0f9f6ef-849a-48db-814f-f1f80896351d")
		)
		(fp_line
			(start -1.95 4.325)
			(end -1.95 -3.35)
			(stroke
				(width 0.1)
				(type solid)
			)
			(layer "F.Fab")
			(uuid "25119567-d85a-4330-9764-3dff77296cd3")
		)
		(fp_text user "${REFERENCE}"
			(at 0 0 -90)
			(layer "F.Fab")
			(uuid "2b585a0c-4e87-4aa0-977b-be4cd4a92ead")
			(effects
				(font
					(size 0.98 0.98)
					(thickness 0.15)
				)
			)
		)
		(pad "1" smd roundrect
			(at -2.475 -3.81 90)
			(size 1.95 0.6)
			(layers "F.Cu" "F.Paste" "F.Mask")
			(roundrect_rratio 0.25)
			(net 5 "Net-(R1-Pad1)")
			(pintype "output")
			(uuid "5de5d7e3-050f-404d-8ffd-67ff50858d3c")
		)
		(pad "2" smd roundrect
			(at -2.475 -2.54 90)
			(size 1.95 0.6)
			(layers "F.Cu" "F.Paste" "F.Mask")
			(roundrect_rratio 0.25)
			(net 3 "Net-(Q1-S)")
			(pinfunction "-")
			(pintype "input")
			(uuid "ba13cfa8-5ffa-477c-a759-9b45b0a0c016")
		)
		(pad "3" smd roundrect
			(at -2.475 -1.27 90)
			(size 1.95 0.6)
			(layers "F.Cu" "F.Paste" "F.Mask")
			(roundrect_rratio 0.25)
			(net 7 "Net-(U1A-+)")
			(pinfunction "+")
			(pintype "input")
			(uuid "67ce26d2-a560-4ce2-aacf-9ee8508384ed")
		)
		(pad "4" smd roundrect
			(at -2.475 0 90)
			(size 1.95 0.6)
			(layers "F.Cu" "F.Paste" "F.Mask")
			(roundrect_rratio 0.25)
			(net 9 "+5V")
			(pinfunction "V+")
			(pintype "power_in")
			(uuid "9e3c446b-c34a-4b68-910e-9d1da491e51f")
		)
		(pad "5" smd roundrect
			(at -2.475 1.27 90)
			(size 1.95 0.6)
			(layers "F.Cu" "F.Paste" "F.Mask")
			(roundrect_rratio 0.25)
			(net 11 "unconnected-(U1B-+-Pad5)")
			(pinfunction "+")
			(pintype "input")
			(uuid "1cfd356c-4811-40e8-b7a1-57bf6ecb1c18")
		)
		(pad "6" smd roundrect
			(at -2.475 2.54 90)
			(size 1.95 0.6)
			(layers "F.Cu" "F.Paste" "F.Mask")
			(roundrect_rratio 0.25)
			(net 13 "unconnected-(U1B---Pad6)")
			(pinfunction "-")
			(pintype "input")
			(uuid "7574dc8e-8504-4adc-8090-782101b5144d")
		)
		(pad "7" smd roundrect
			(at -2.475 3.81 90)
			(size 1.95 0.6)
			(layers "F.Cu" "F.Paste" "F.Mask")
			(roundrect_rratio 0.25)
			(net 18 "unconnected-(U1-Pad7)")
			(pintype "output")
			(uuid "f7a7cc9b-f209-49dd-bf18-b73a9eced3bf")
		)
		(pad "8" smd roundrect
			(at 2.475 3.81 90)
			(size 1.95 0.6)
			(layers "F.Cu" "F.Paste" "F.Mask")
			(roundrect_rratio 0.25)
			(net 17 "unconnected-(U1-Pad8)")
			(pintype "output")
			(uuid "f6ee26d5-8177-447e-ad47-4fa7ec77c065")
		)
		(pad "9" smd roundrect
			(at 2.475 2.54 90)
			(size 1.95 0.6)
			(layers "F.Cu" "F.Paste" "F.Mask")
			(roundrect_rratio 0.25)
			(net 10 "unconnected-(U1C---Pad9)")
			(pinfunction "-")
			(pintype "input")
			(uuid "17152841-a58d-40df-beac-b2986ade0cfe")
		)
		(pad "10" smd roundrect
			(at 2.475 1.27 90)
			(size 1.95 0.6)
			(layers "F.Cu" "F.Paste" "F.Mask")
			(roundrect_rratio 0.25)
			(net 14 "unconnected-(U1C-+-Pad10)")
			(pinfunction "+")
			(pintype "input")
			(uuid "abaf0bb4-55f7-4a6f-9a75-ecfc6a4c238e")
		)
		(pad "11" smd roundrect
			(at 2.475 0 90)
			(size 1.95 0.6)
			(layers "F.Cu" "F.Paste" "F.Mask")
			(roundrect_rratio 0.25)
			(net 6 "GND")
			(pinfunction "V-")
			(pintype "power_in")
			(uuid "2024b1c4-c666-4613-a3e5-5bd926cb5d2b")
		)
		(pad "12" smd roundrect
			(at 2.475 -1.27 90)
			(size 1.95 0.6)
			(layers "F.Cu" "F.Paste" "F.Mask")
			(roundrect_rratio 0.25)
			(net 16 "unconnected-(U1D-+-Pad12)")
			(pinfunction "+")
			(pintype "input")
			(uuid "c7ffabe8-08e9-4ce4-bc38-13265aabc8fb")
		)
		(pad "13" smd roundrect
			(at 2.475 -2.54 90)
			(size 1.95 0.6)
			(layers "F.Cu" "F.Paste" "F.Mask")
			(roundrect_rratio 0.25)
			(net 12 "unconnected-(U1D---Pad13)")
			(pinfunction "-")
			(pintype "input")
			(uuid "5ccf94f9-2aa2-4c7e-8b0d-0873b9bb51f8")
		)
		(pad "14" smd roundrect
			(at 2.475 -3.81 90)
			(size 1.95 0.6)
			(layers "F.Cu" "F.Paste" "F.Mask")
			(roundrect_rratio 0.25)
			(net 15 "unconnected-(U1-Pad14)")
			(pintype "output")
			(uuid "c359c3a3-c48c-4cd6-a836-a791b3428dd3")
		)
		(model "${KICAD6_3DMODEL_DIR}/Package_SO.3dshapes/SOIC-14_3.9x8.7mm_P1.27mm.wrl"
			(offset
				(xyz 0 0 0)
			)
			(scale
				(xyz 1 1 1)
			)
			(rotate
				(xyz 0 0 0)
			)
		)
	)
	(footprint "Connector_PinHeader_2.54mm:PinHeader_1x04_P2.54mm_Vertical"
		(layer "F.Cu")
		(uuid "fec1bf92-b927-43e8-b5dd-f7ef5dc4750b")
		(at 69.1 67.37 -90)
		(descr "Through hole straight pin header, 1x04, 2.54mm pitch, single row")
		(tags "Through hole pin header THT 1x04 2.54mm single row")
		(property "Reference" "J1"
			(at 0 -2.33 -90)
			(layer "F.SilkS")
			(uuid "50866a98-74c3-4e5d-a274-0196f8609ff1")
			(effects
				(font
					(size 1 1)
					(thickness 0.15)
				)
			)
		)
		(property "Value" "Conn_01x04_Female"
			(at 0 9.95 -90)
			(layer "F.Fab")
			(uuid "563034a6-81f6-4ae2-b4c5-40e75558f286")
			(effects
				(font
					(size 1 1)
					(thickness 0.15)
				)
			)
		)
		(property "Footprint" "Connector_PinHeader_2.54mm:PinHeader_1x04_P2.54mm_Vertical"
			(at 0 0 -90)
			(unlocked yes)
			(layer "F.Fab")
			(hide yes)
			(uuid "0a09a717-bf44-4df4-a692-d9779c33259d")
			(effects
				(font
					(size 1.27 1.27)
				)
			)
		)
		(property "Datasheet" ""
			(at 0 0 -90)
			(unlocked yes)
			(layer "F.Fab")
			(hide yes)
			(uuid "192ab327-beac-4bac-8a24-69adf17b03c7")
			(effects
				(font
					(size 1.27 1.27)
				)
			)
		)
		(property "Description" "Generic connector, single row, 01x04, script generated (kicad-library-utils/schlib/autogen/connector/)"
			(at 0 0 -90)
			(unlocked yes)
			(layer "F.Fab")
			(hide yes)
			(uuid "2c0ec98c-6246-4f55-980b-76a55052d41a")
			(effects
				(font
					(size 1.27 1.27)
				)
			)
		)
		(property ki_fp_filters "Connector*:*_1x??_*")
		(path "/80778b92-3e46-42dd-89b6-153dd43f934b")
		(sheetname "Root")
		(sheetfile "UV-LED-source.kicad_sch")
		(attr through_hole)
		(fp_line
			(start -1.33 8.95)
			(end 1.33 8.95)
			(stroke
				(width 0.12)
				(type solid)
			)
			(layer "F.SilkS")
			(uuid "893d9e07-e5ce-4aa2-aa48-5bbc27e62015")
		)
		(fp_line
			(start -1.33 1.27)
			(end -1.33 8.95)
			(stroke
				(width 0.12)
				(type solid)
			)
			(layer "F.SilkS")
			(uuid "353dc14d-bbb7-46a5-bd18-afd84ce64b5e")
		)
		(fp_line
			(start -1.33 1.27)
			(end 1.33 1.27)
			(stroke
				(width 0.12)
				(type solid)
			)
			(layer "F.SilkS")
			(uuid "32e7ade3-441c-4707-8689-aa545d8f199d")
		)
		(fp_line
			(start 1.33 1.27)
			(end 1.33 8.95)
			(stroke
				(width 0.12)
				(type solid)
			)
			(layer "F.SilkS")
			(uuid "8ff2db34-539b-4600-99bb-19812fcd8813")
		)
		(fp_line
			(start -1.33 0)
			(end -1.33 -1.33)
			(stroke
				(width 0.12)
				(type solid)
			)
			(layer "F.SilkS")
			(uuid "c22d671f-ba31-4e04-8477-bcc320efa9ab")
		)
		(fp_line
			(start -1.33 -1.33)
			(end 0 -1.33)
			(stroke
				(width 0.12)
				(type solid)
			)
			(layer "F.SilkS")
			(uuid "96b553ab-95fc-4d3e-b050-6f298610a537")
		)
		(fp_line
			(start -1.8 9.4)
			(end 1.8 9.4)
			(stroke
				(width 0.05)
				(type solid)
			)
			(layer "F.CrtYd")
			(uuid "29d2363a-e292-419d-a7b8-4235e4bcdc1f")
		)
		(fp_line
			(start 1.8 9.4)
			(end 1.8 -1.8)
			(stroke
				(width 0.05)
				(type solid)
			)
			(layer "F.CrtYd")
			(uuid "8aec664a-70df-4ab6-9aa6-38f01f8462de")
		)
		(fp_line
			(start -1.8 -1.8)
			(end -1.8 9.4)
			(stroke
				(width 0.05)
				(type solid)
			)
			(layer "F.CrtYd")
			(uuid "922971b6-9db4-411f-80c5-d70678e66de8")
		)
		(fp_line
			(start 1.8 -1.8)
			(end -1.8 -1.8)
			(stroke
				(width 0.05)
				(type solid)
			)
			(layer "F.CrtYd")
			(uuid "94845fa1-02ea-43ce-b211-137af036ce59")
		)
		(fp_line
			(start -1.27 8.89)
			(end -1.27 -0.635)
			(stroke
				(width 0.1)
				(type solid)
			)
			(layer "F.Fab")
			(uuid "c04ca978-4304-43d9-becf-5043c462ce55")
		)
		(fp_line
			(start 1.27 8.89)
			(end -1.27 8.89)
			(stroke
				(width 0.1)
				(type solid)
			)
			(layer "F.Fab")
			(uuid "e3aa000e-d4ec-4b9e-930a-0e77b68f6ac5")
		)
		(fp_line
			(start -1.27 -0.635)
			(end -0.635 -1.27)
			(stroke
				(width 0.1)
				(type solid)
			)
			(layer "F.Fab")
			(uuid "b8527de3-baf8-4b0c-96b8-0521f40b4ace")
		)
		(fp_line
			(start -0.635 -1.27)
			(end 1.27 -1.27)
			(stroke
				(width 0.1)
				(type solid)
			)
			(layer "F.Fab")
			(uuid "e759693f-421f-4076-8ac0-f73ef6854075")
		)
		(fp_line
			(start 1.27 -1.27)
			(end 1.27 8.89)
			(stroke
				(width 0.1)
				(type solid)
			)
			(layer "F.Fab")
			(uuid "ded60a5e-9234-43ca-a7b5-6f06976fb83b")
		)
		(fp_text user "${REFERENCE}"
			(at 0 3.81 0)
			(layer "F.Fab")
			(uuid "500275cf-3e33-4b40-a82b-b41db8f42c9b")
			(effects
				(font
					(size 1 1)
					(thickness 0.15)
				)
			)
		)
		(pad "1" thru_hole rect
			(at 0 0 270)
			(size 1.7 1.7)
			(drill 1)
			(layers "*.Cu" "*.Mask")
			(remove_unused_layers no)
			(net 8 "V_LED_CONTROL")
			(pinfunction "Pin_1")
			(pintype "passive")
			(uuid "a0145859-e8a3-4b28-ab83-36f71836c2a4")
		)
		(pad "2" thru_hole oval
			(at 0 2.54 270)
			(size 1.7 1.7)
			(drill 1)
			(layers "*.Cu" "*.Mask")
			(remove_unused_layers no)
			(net 1 "+7VS")
			(pinfunction "Pin_2")
			(pintype "passive")
			(uuid "a99324df-39f7-402f-ac32-6b85c004141e")
		)
		(pad "3" thru_hole oval
			(at 0 5.08 270)
			(size 1.7 1.7)
			(drill 1)
			(layers "*.Cu" "*.Mask")
			(remove_unused_layers no)
			(net 9 "+5V")
			(pinfunction "Pin_3")
			(pintype "passive")
			(uuid "4a31886b-3862-429c-8dab-06e44a09f213")
		)
		(pad "4" thru_hole oval
			(at 0 7.62 270)
			(size 1.7 1.7)
			(drill 1)
			(layers "*.Cu" "*.Mask")
			(remove_unused_layers no)
			(net 6 "GND")
			(pinfunction "Pin_4")
			(pintype "passive")
			(uuid "e6da46bd-58cb-407d-961d-4e26ee0141d9")
		)
		(model "${KICAD6_3DMODEL_DIR}/Connector_PinHeader_2.54mm.3dshapes/PinHeader_1x04_P2.54mm_Vertical.wrl"
			(offset
				(xyz 0 0 0)
			)
			(scale
				(xyz 1 1 1)
			)
			(rotate
				(xyz 0 0 0)
			)
		)
	)
	(gr_rect
		(start 49.98 38.12)
		(end 80.91 69.15)
		(stroke
			(width 0.1)
			(type default)
		)
		(fill none)
		(layer "Edge.Cuts")
		(uuid "12da6f01-62e3-4eec-a0bd-a342ab2c343c")
	)
	(gr_text "LED_CTRL"
		(at 72.517 57.277 0)
		(layer "B.SilkS")
		(uuid "49346e0e-c093-4250-9d37-7d63dfa509ee")
		(effects
			(font
				(size 1 1)
				(thickness 0.15)
			)
			(justify left bottom mirror)
		)
	)
	(gr_text "7V5"
		(at 72.644 55.245 0)
		(layer "B.SilkS")
		(uuid "cb771bb3-8e58-46a8-b8ba-82c9aef825c4")
		(effects
			(font
				(size 1 1)
				(thickness 0.15)
			)
			(justify left bottom mirror)
		)
	)
	(gr_text "GND"
		(at 72.80206 51.272558 0)
		(layer "B.SilkS")
		(uuid "cd04a10d-190a-4d31-8bbd-6e35db8340f8")
		(effects
			(font
				(size 1 1)
				(thickness 0.15)
			)
			(justify left bottom mirror)
		)
	)
	(gr_text "5V"
		(at 72.691012 53.447512 0)
		(layer "B.SilkS")
		(uuid "d7d56413-d19e-497e-adb8-41a76d0ed5ac")
		(effects
			(font
				(size 1 1)
				(thickness 0.15)
			)
			(justify left bottom mirror)
		)
	)
	(gr_text "GND"
		(at 61.94 65.169998 90)
		(layer "F.SilkS")
		(uuid "3f1f47c3-9972-48bc-9344-c2093e05b56d")
		(effects
			(font
				(size 1 1)
				(thickness 0.15)
			)
			(justify left bottom)
		)
	)
	(gr_text "5V"
		(at 64.6 65.1 90)
		(layer "F.SilkS")
		(uuid "5221a73f-a207-4605-a3f2-737a4d583500")
		(effects
			(font
				(size 1 1)
				(thickness 0.15)
			)
			(justify left bottom)
		)
	)
	(gr_text "uva_v0.1"
		(at 72.898 46.355 0)
		(layer "F.SilkS")
		(uuid "840d7bde-cd89-4451-a2bb-782f371af1ec")
		(effects
			(font
				(size 1 1)
				(thickness 0.15)
			)
			(justify left bottom)
		)
	)
	(gr_text "LED_CTRL"
		(at 69.88 64.93 90)
		(layer "F.SilkS")
		(uuid "d46e80eb-b92c-4048-a06e-898df73604e0")
		(effects
			(font
				(size 1 1)
				(thickness 0.15)
			)
			(justify left bottom)
		)
	)
	(gr_text "7V5"
		(at 67.15 65.04 90)
		(layer "F.SilkS")
		(uuid "e5a3c5fd-2150-416e-af4d-6f7c0aa7e0b6")
		(effects
			(font
				(size 1 1)
				(thickness 0.15)
			)
			(justify left bottom)
		)
	)
	(segment
		(start 68.27 54.61)
		(end 67.11 53.45)
		(width 0.5)
		(layer "F.Cu")
		(net 1)
		(uuid "26a910b1-0da2-45b7-94f2-e2a087e7b54a")
	)
	(segment
		(start 67.11 66.82)
		(end 66.56 67.37)
		(width 0.5)
		(layer "F.Cu")
		(net 1)
		(uuid "56aaf069-5111-4982-9be2-471d2ddb2c89")
	)
	(segment
		(start 68.834 54.61)
		(end 68.27 54.61)
		(width 0.5)
		(layer "F.Cu")
		(net 1)
		(uuid "7f7309db-d598-433d-a9e4-5a342da961f8")
	)
	(segment
		(start 67.11 53.45)
		(end 67.11 66.82)
		(width 0.5)
		(layer "F.Cu")
		(net 1)
		(uuid "a089f0ce-ff35-468b-8721-9ce1895d0991")
	)
	(via
		(at 68.834 54.61)
		(size 0.8)
		(drill 0.4)
		(layers "F.Cu" "B.Cu")
		(net 1)
		(uuid "3f17fd88-71a3-49bc-8601-c41bfe301ddb")
	)
	(segment
		(start 73.99 54.65)
		(end 68.874 54.65)
		(width 0.5)
		(layer "B.Cu")
		(net 1)
		(uuid "2b4a82c1-6097-44a5-be01-beafcd8f60b6")
	)
	(segment
		(start 68.874 54.65)
		(end 68.834 54.61)
		(width 0.5)
		(layer "B.Cu")
		(net 1)
		(uuid "85e3c138-fe2f-4655-a1ed-d416c67a3942")
	)
	(segment
		(start 64.135 48.514)
		(end 64.31 48.689)
		(width 0.5)
		(layer "F.Cu")
		(net 2)
		(uuid "1fd8b4bd-c05d-404f-bef8-95ef20e70efd")
	)
	(segment
		(start 58.114 47.55)
		(end 58.166 47.498)
		(width 0.5)
		(layer "F.Cu")
		(net 2)
		(uuid "4e1985ba-3c37-40a5-be65-6911154ece51")
	)
	(segment
		(start 64.31 48.689)
		(end 64.31 53.45)
		(width 0.5)
		(layer "F.Cu")
		(net 2)
		(uuid "95693be2-cf32-41a4-ae75-7893f28df112")
	)
	(segment
		(start 56.14 47.55)
		(end 58.114 47.55)
		(width 0.5)
		(layer "F.Cu")
		(net 2)
		(uuid "c0a4fbdb-1d86-4232-9f2f-8776854896c9")
	)
	(via
		(at 64.135 48.514)
		(size 0.8)
		(drill 0.4)
		(layers "F.Cu" "B.Cu")
		(net 2)
		(uuid "0f256f79-940c-4638-b166-87d5864cd3b9")
	)
	(via
		(at 58.166 47.498)
		(size 0.8)
		(drill 0.4)
		(layers "F.Cu" "B.Cu")
		(net 2)
		(uuid "ddd59a5d-12ea-454f-8404-e90d83926151")
	)
	(segment
		(start 58.674 48.006)
		(end 63.627 48.006)
		(width 0.5)
		(layer "B.Cu")
		(net 2)
		(uuid "a1d21f1f-af73-4983-b921-8a4adc24176d")
	)
	(segment
		(start 58.166 47.498)
		(end 58.674 48.006)
		(width 0.5)
		(layer "B.Cu")
		(net 2)
		(uuid "ac1a763d-5a6e-4049-9f46-7596524060c8")
	)
	(segment
		(start 63.627 48.006)
		(end 64.135 48.514)
		(width 0.5)
		(layer "B.Cu")
		(net 2)
		(uuid "b90c9643-de13-4470-9a10-38c7c90c7b8e")
	)
	(segment
		(start 54.265 46.6)
		(end 54.265 45.43)
		(width 0.5)
		(layer "F.Cu")
		(net 3)
		(uuid "21544f3a-50cf-4753-9b20-abb49ca693e5")
	)
	(segment
		(start 51.825 46.6)
		(end 51.816 46.609)
		(width 0.5)
		(layer "F.Cu")
		(net 3)
		(uuid "22b346e7-7083-4c60-afd7-e15fe71d2773")
	)
	(segment
		(start 51.816 49.53)
		(end 52.08 49.794)
		(width 0.5)
		(layer "F.Cu")
		(net 3)
		(uuid "2e12f5fa-acce-4c7c-a2a6-81ff41bfa3c7")
	)
	(segment
		(start 54.265 45.43)
		(end 55.499 44.196)
		(width 0.5)
		(layer "F.Cu")
		(net 3)
		(uuid "55eec254-2a29-488b-b803-cf8e5a71040c")
	)
	(segment
		(start 51.816 46.609)
		(end 51.816 49.53)
		(width 0.5)
		(layer "F.Cu")
		(net 3)
		(uuid "7b48174d-8655-4976-9057-c3f8ea2da2d8")
	)
	(segment
		(start 52.08 49.794)
		(end 52.08 51.88)
		(width 0.5)
		(layer "F.Cu")
		(net 3)
		(uuid "a15a2aeb-cede-41d7-8544-a5574f9259c4")
	)
	(segment
		(start 62.865 44.069)
		(end 62.865 45.6)
		(width 0.5)
		(layer "F.Cu")
		(net 3)
		(uuid "b1df87a1-ad9b-4cc2-aebb-e302ed218fda")
	)
	(segment
		(start 62.865 45.6)
		(end 62.96 45.695)
		(width 0.5)
		(layer "F.Cu")
		(net 3)
		(uuid "c85609a8-e9d1-4e23-98e6-d7388ebb8205")
	)
	(segment
		(start 54.265 46.6)
		(end 51.825 46.6)
		(width 0.5)
		(layer "F.Cu")
		(net 3)
		(uuid "e5c8e2af-8ddb-41c0-a3b2-56f13e4fa017")
	)
	(via
		(at 62.865 44.069)
		(size 0.8)
		(drill 0.4)
		(layers "F.Cu" "B.Cu")
		(net 3)
		(uuid "6ee5a5e2-0e50-4646-93a9-8058dc458885")
	)
	(via
		(at 55.499 44.196)
		(size 0.8)
		(drill 0.4)
		(layers "F.Cu" "B.Cu")
		(net 3)
		(uuid "f95b3646-a1ba-4b50-8887-5ebbdbbe8407")
	)
	(segment
		(start 62.738 43.942)
		(end 62.865 44.069)
		(width 0.5)
		(layer "B.Cu")
		(net 3)
		(uuid "1b2edbf0-dcab-4480-b9c0-53bacd852b06")
	)
	(segment
		(start 56.388 44.196)
		(end 56.642 43.942)
		(width 0.5)
		(layer "B.Cu")
		(net 3)
		(uuid "28f69dff-ee08-429d-befa-0adf1a4ad49d")
	)
	(segment
		(start 61.087 43.942)
		(end 62.738 43.942)
		(width 0.5)
		(layer "B.Cu")
		(net 3)
		(uuid "896fe4d2-87e8-4e8a-9b57-cad009654bc4")
	)
	(segment
		(start 55.499 44.196)
		(end 56.388 44.196)
		(width 0.5)
		(layer "B.Cu")
		(net 3)
		(uuid "9f26364c-ece2-4d33-b231-46d30e1b96be")
	)
	(segment
		(start 56.642 43.942)
		(end 61.087 43.942)
		(width 0.5)
		(layer "B.Cu")
		(net 3)
		(uuid "dd66557e-8184-43f9-81e3-77a1cf1af6e6")
	)
	(segment
		(start 54.265 48.5)
		(end 54.265 49.693)
		(width 0.5)
		(layer "F.Cu")
		(net 4)
		(uuid "01b95112-b880-42fb-9d92-db54ced452f5")
	)
	(segment
		(start 54.356 49.784)
		(end 56.388 49.784)
		(width 0.5)
		(layer "F.Cu")
		(net 4)
		(uuid "5935c2e7-03bb-495e-98dc-4acd84e543fa")
	)
	(segment
		(start 56.49 49.886)
		(end 56.49 51.9)
		(width 0.5)
		(layer "F.Cu")
		(net 4)
		(uuid "9825214e-966b-41c6-b0c7-1fa0fd90e75b")
	)
	(segment
		(start 54.265 49.693)
		(end 54.356 49.784)
		(width 0.5)
		(layer "F.Cu")
		(net 4)
		(uuid "dfbf3fb9-6625-4bc0-bbed-be39b11f12a6")
	)
	(segment
		(start 56.388 49.784)
		(end 56.49 49.886)
		(width 0.5)
		(layer "F.Cu")
		(net 4)
		(uuid "dfec460c-01aa-4967-9f01-709120a3b42b")
	)
	(segment
		(start 58.42 49.53)
		(end 58.42 51.83)
		(width 0.5)
		(layer "F.Cu")
		(net 5)
		(uuid "a0e9bef4-52ec-42d2-9b14-fc8a49b459c9")
	)
	(segment
		(start 61.69 49.054)
		(end 61.468 49.276)
		(width 0.5)
		(layer "F.Cu")
		(net 5)
		(uuid "ed59f558-05ab-492c-b4dc-98bce5539572")
	)
	(segment
		(start 58.42 51.83)
		(end 58.49 51.9)
		(width 0.5)
		(layer "F.Cu")
		(net 5)
		(uuid "f598c091-8d13-4dcc-bdd9-4599b3d62edc")
	)
	(segment
		(start 61.69 45.695)
		(end 61.69 49.054)
		(width 0.5)
		(layer "F.Cu")
		(net 5)
		(uuid "f9974ec5-303f-45d0-8a23-ebf0f4414385")
	)
	(via
		(at 58.42 49.53)
		(size 0.8)
		(drill 0.4)
		(layers "F.Cu" "B.Cu")
		(net 5)
		(uuid "61569d26-4ffa-44d6-a2fe-a100f7680b2c")
	)
	(via
		(at 61.468 49.276)
		(size 0.8)
		(drill 0.4)
		(layers "F.Cu" "B.Cu")
		(net 5)
		(uuid "6b131452-d04c-44d4-94d1-a6ab61c47e84")
	)
	(segment
		(start 61.468 49.276)
		(end 58.674 49.276)
		(width 0.5)
		(layer "B.Cu")
		(net 5)
		(uuid "4d2cfabc-2f9b-4f17-ba7f-cbd15b5345a9")
	)
	(segment
		(start 58.674 49.276)
		(end 58.42 49.53)
		(width 0.5)
		(layer "B.Cu")
		(net 5)
		(uuid "67c72dc7-958f-4018-9d9f-7fb5d5912fcd")
	)
	(segment
		(start 59.817 43.561)
		(end 59.817 53.848)
		(width 0.5)
		(layer "F.Cu")
		(net 6)
		(uuid "1741c95a-df94-4697-bba0-3d6888d30a16")
	)
	(segment
		(start 61.214 61.341)
		(end 61.48 61.607)
		(width 0.5)
		(layer "F.Cu")
		(net 6)
		(uuid "2c0107b3-3d93-48de-a16d-6b3f9d64c129")
	)
	(segment
		(start 54.102 53.848)
		(end 54.102 51.902)
		(width 0.5)
		(layer "F.Cu")
		(net 6)
		(uuid "2d67c4f1-1101-47fc-999b-41172fa821b4")
	)
	(segment
		(start 54.102 51.902)
		(end 54.08 51.88)
		(width 0.5)
		(layer "F.Cu")
		(net 6)
		(uuid "36d5a7ef-d776-4e56-9c58-c843df2eefd8")
	)
	(segment
		(start 54.102 53.848)
		(end 54.102 55.948)
		(width 0.5)
		(layer "F.Cu")
		(net 6)
		(uuid "491b3aad-6ab3-4e7a-9c8d-262d1985ad3c")
	)
	(segment
		(start 65.5 42.64)
		(end 65.659 42.799)
		(width 0.5)
		(layer "F.Cu")
		(net 6)
		(uuid "4f3ce8d9-a1af-4071-bad3-00909020dda4")
	)
	(segment
		(start 54.1 55.95)
		(end 54.1 60.704)
		(width 0.5)
		(layer "F.Cu")
		(net 6)
		(uuid "68296e2e-1dc4-40b5-84cf-524f8ef79016")
	)
	(segment
		(start 59.817 42.799)
		(end 59.817 43.561)
		(width 0.5)
		(layer "F.Cu")
		(net 6)
		(uuid "8c146961-96c2-4e33-a524-dfaabb3f6515")
	)
	(segment
		(start 61.48 61.607)
		(end 61.48 67.37)
		(width 0.5)
		(layer "F.Cu")
		(net 6)
		(uuid "8ed8fa53-7671-4de3-ad3a-4e10e81378a7")
	)
	(segment
		(start 72.898 42.926)
		(end 73.99 44.018)
		(width 0.5)
		(layer "F.Cu")
		(net 6)
		(uuid "97bd538b-089a-48cc-b234-6b0dfa21f8cd")
	)
	(segment
		(start 54.102 55.948)
		(end 54.1 55.95)
		(width 0.5)
		(layer "F.Cu")
		(net 6)
		(uuid "aa6f4a9a-e434-4f7f-9f88-d63193994472")
	)
	(segment
		(start 54.1 60.704)
		(end 54.61 61.214)
		(width 0.5)
		(layer "F.Cu")
		(net 6)
		(uuid "b1e718f7-277e-400f-81f1-6f77ac63f1b2")
	)
	(segment
		(start 73.99 44.018)
		(end 73.99 50.65)
		(width 0.5)
		(layer "F.Cu")
		(net 6)
		(uuid "b3416cb9-4285-4eea-b9d6-a9b5fb3dfa8d")
	)
	(segment
		(start 65.5 40.745)
		(end 65.5 42.64)
		(width 0.5)
		(layer "F.Cu")
		(net 6)
		(uuid "e75f74e9-ed97-4eb5-b72d-351fc368b455")
	)
	(via
		(at 65.659 42.799)
		(size 0.8)
		(drill 0.4)
		(layers "F.Cu" "B.Cu")
		(net 6)
		(uuid "0bf72e14-27e1-4b46-a289-da260a455784")
	)
	(via
		(at 54.61 61.214)
		(size 0.8)
		(drill 0.4)
		(layers "F.Cu" "B.Cu")
		(net 6)
		(uuid "4be804eb-3bb7-43e7-b8c9-b61f4c05bacf")
	)
	(via
		(at 54.102 53.848)
		(size 0.8)
		(drill 0.4)
		(layers "F.Cu" "B.Cu")
		(net 6)
		(uuid "5280b62c-6ac4-4c64-8287-9aa5679d21a9")
	)
	(via
		(at 61.214 61.341)
		(size 0.8)
		(drill 0.4)
		(layers "F.Cu" "B.Cu")
		(net 6)
		(uuid "5b0d24d4-e3dc-4743-9e75-64e6c0f74c3e")
	)
	(via
		(at 72.898 42.926)
		(size 0.8)
		(drill 0.4)
		(layers "F.Cu" "B.Cu")
		(net 6)
		(uuid "a85a8890-c13c-4779-8974-21c80235a92b")
	)
	(via
		(at 59.817 42.799)
		(size 0.8)
		(drill 0.4)
		(layers "F.Cu" "B.Cu")
		(net 6)
		(uuid "bc8f9055-105b-4a28-bea1-0237345ad8e4")
	)
	(via
		(at 59.817 53.848)
		(size 0.8)
		(drill 0.4)
		(layers "F.Cu" "B.Cu")
		(net 6)
		(uuid "d54f6aa5-6940-414d-b838-650f49624ea2")
	)
	(segment
		(start 65.659 42.799)
		(end 72.771 42.799)
		(width 0.5)
		(layer "B.Cu")
		(net 6)
		(uuid "01223e6e-31dd-4a80-a97a-abbad3350f8b")
	)
	(segment
		(start 65.659 42.799)
		(end 59.817 42.799)
		(width 0.5)
		(layer "B.Cu")
		(net 6)
		(uuid "1d904c26-bbca-499e-a8c7-73e816327bef")
	)
	(segment
		(start 72.771 42.799)
		(end 72.898 42.926)
		(width 0.5)
		(layer "B.Cu")
		(net 6)
		(uuid "2062e804-39fe-465b-848a-226427565c79")
	)
	(segment
		(start 58.166 53.848)
		(end 54.102 53.848)
		(width 0.5)
		(layer "B.Cu")
		(net 6)
		(uuid "455a00d7-5066-42b9-a7f4-9d7e6d9e748d")
	)
	(segment
		(start 54.61 61.214)
		(end 61.087 61.214)
		(width 0.5)
		(layer "B.Cu")
		(net 6)
		(uuid "81a88fe9-cb6c-4306-b99c-aee4c86b797e")
	)
	(segment
		(start 61.087 61.214)
		(end 61.214 61.341)
		(width 0.5)
		(layer "B.Cu")
		(net 6)
		(uuid "dad8b981-f689-4021-97c6-304f90d8fd7e")
	)
	(segment
		(start 59.817 53.848)
		(end 58.166 53.848)
		(width 0.5)
		(layer "B.Cu")
		(net 6)
		(uuid "e8553662-86f1-431c-a07c-d888773b62f0")
	)
	(segment
		(start 62.738 48.26)
		(end 62.738 50.165)
		(width 0.5)
		(layer "F.Cu")
		(net 7)
		(uuid "1252af53-29ec-4b9b-b3ac-66c9c783cc8c")
	)
	(segment
		(start 62.738 58.166)
		(end 62.357 58.547)
		(width 0.5)
		(layer "F.Cu")
		(net 7)
		(uuid "1e09b05e-2393-4851-b23d-7b5b412f8bde")
	)
	(segment
		(start 63.373 47.625)
		(end 62.738 48.26)
		(width 0.5)
		(layer "F.Cu")
		(net 7)
		(uuid "3955cd81-ac90-496f-9bb5-41b42fda645b")
	)
	(segment
		(start 56.515 58.293)
		(end 56.515 56.095)
		(width 0.5)
		(layer "F.Cu")
		(net 7)
		(uuid "5b455125-3938-4e33-afa8-c5954631306c")
	)
	(segment
		(start 56.515 56.095)
		(end 56.63 55.98)
		(width 0.5)
		(layer "F.Cu")
		(net 7)
		(uuid "7546659b-31a3-45e6-85de-7ffdbe3238fa")
	)
	(segment
		(start 64.23 45.695)
		(end 64.23 46.768)
		(width 0.5)
		(layer "F.Cu")
		(net 7)
		(uuid "86699847-3adc-4cac-b7b2-91bff81bcb60")
	)
	(segment
		(start 52.1 58.196)
		(end 52.324 58.42)
		(width 0.5)
		(layer "F.Cu")
		(net 7)
		(uuid "890c1cd6-2082-4888-85ee-368d7f7613ff")
	)
	(segment
		(start 64.23 46.768)
		(end 63.373 47.625)
		(width 0.5)
		(layer "F.Cu")
		(net 7)
		(uuid "d530724e-a60f-4d36-98b2-92bd6525de60")
	)
	(segment
		(start 52.1 55.95)
		(end 52.1 58.196)
		(width 0.5)
		(layer "F.Cu")
		(net 7)
		(uuid "dbd79ff4-4a16-4dc6-af53-6d5d2cab229f")
	)
	(segment
		(start 62.738 50.165)
		(end 62.738 58.166)
		(width 0.5)
		(layer "F.Cu")
		(net 7)
		(uuid "dec83705-9948-4cad-b881-7576c47cc188")
	)
	(via
		(at 56.515 58.293)
		(size 0.8)
		(drill 0.4)
		(layers "F.Cu" "B.Cu")
		(net 7)
		(uuid "30a6a18c-189c-42b7-97a3-fdf0433072b1")
	)
	(via
		(at 62.357 58.547)
		(size 0.8)
		(drill 0.4)
		(layers "F.Cu" "B.Cu")
		(net 7)
		(uuid "76f23317-c7cb-4e97-97fa-825e8afa0055")
	)
	(via
		(at 52.324 58.42)
		(size 0.8)
		(drill 0.4)
		(layers "F.Cu" "B.Cu")
		(net 7)
		(uuid "9dbd3499-f444-47ea-bd9e-8c8154b95315")
	)
	(segment
		(start 62.357 58.547)
		(end 56.769 58.547)
		(width 0.5)
		(layer "B.Cu")
		(net 7)
		(uuid "45fcbee3-998f-43a9-8086-156a098b9475")
	)
	(segment
		(start 56.769 58.547)
		(end 56.515 58.293)
		(width 0.5)
		(layer "B.Cu")
		(net 7)
		(uuid "58f987cc-e42e-4ec9-b9e1-7ec2e870384e")
	)
	(segment
		(start 52.324 58.42)
		(end 56.388 58.42)
		(width 0.5)
		(layer "B.Cu")
		(net 7)
		(uuid "7409bf55-a198-4acd-8551-0335bf57c5cb")
	)
	(segment
		(start 56.388 58.42)
		(end 56.515 58.293)
		(width 0.5)
		(layer "B.Cu")
		(net 7)
		(uuid "da7f07cc-94be-46a4-898e-140cd02da4c2")
	)
	(segment
		(start 69.088 59.309)
		(end 69.1 59.321)
		(width 0.5)
		(layer "F.Cu")
		(net 8)
		(uuid "03270c5b-eed7-40c5-a917-5f19f41fcd86")
	)
	(segment
		(start 59.165 56.515)
		(end 58.63 55.98)
		(width 0.5)
		(layer "F.Cu")
		(net 8)
		(uuid "256c39bf-ca3b-4b32-9b5a-12ee35d6250b")
	)
	(segment
		(start 73.99 56.65)
		(end 73.99 58.75)
		(width 0.5)
		(layer "F.Cu")
		(net 8)
		(uuid "2916d5b5-439c-4e56-96bf-2aba188c6546")
	)
	(segment
		(start 69.1 59.321)
		(end 69.1 67.37)
		(width 0.5)
		(layer "F.Cu")
		(net 8)
		(uuid "4cf40bb3-7fe0-47db-aa2e-60a838f2de4e")
	)
	(segment
		(start 60.706 56.515)
		(end 59.165 56.515)
		(width 0.5)
		(layer "F.Cu")
		(net 8)
		(uuid "add7fde0-4916-45b6-a672-27a21d23d40f")
	)
	(segment
		(start 73.99 58.75)
		(end 74.041 58.801)
		(width 0.5)
		(layer "F.Cu")
		(net 8)
		(uuid "db29187c-2ca7-4bca-97b6-c663ad76f524")
	)
	(via
		(at 74.041 58.801)
		(size 0.8)
		(drill 0.4)
		(layers "F.Cu" "B.Cu")
		(net 8)
		(uuid "1cd67b4d-8e8c-439e-bed2-fbde6a34c0c8")
	)
	(via
		(at 60.706 56.515)
		(size 0.8)
		(drill 0.4)
		(layers "F.Cu" "B.Cu")
		(net 8)
		(uuid "40c0140b-4f8b-4ab8-9f6c-0ed16c61ab5a")
	)
	(via
		(at 69.088 59.309)
		(size 0.8)
		(drill 0.4)
		(layers "F.Cu" "B.Cu")
		(net 8)
		(uuid "f7470614-29c1-4ac3-a18c-73b9ed16a5ad")
	)
	(segment
		(start 74.041 58.801)
		(end 73.914 58.928)
		(width 0.5)
		(layer "B.Cu")
		(net 8)
		(uuid "069c0f05-59d6-4d20-88b9-27ed7a57c794")
	)
	(segment
		(start 69.469 58.928)
		(end 69.088 59.309)
		(width 0.5)
		(layer "B.Cu")
		(net 8)
		(uuid "148423d6-e2ad-4959-aca5-49235b965393")
	)
	(segment
		(start 73.99 56.65)
		(end 60.841 56.65)
		(width 0.5)
		(layer "B.Cu")
		(net 8)
		(uuid "2cbcab30-a2a8-45a5-85ba-fc0ad9a58991")
	)
	(segment
		(start 60.841 56.65)
		(end 60.706 56.515)
		(width 0.5)
		(layer "B.Cu")
		(net 8)
		(uuid "462b08b9-0a58-4cce-96a4-67f1068cf340")
	)
	(segment
		(start 73.914 58.928)
		(end 69.469 58.928)
		(width 0.5)
		(layer "B.Cu")
		(net 8)
		(uuid "a264d5c5-9380-478a-a3c8-e2981bdbdd5a")
	)
	(segment
		(start 68.707 48.26)
		(end 68.707 52.451)
		(width 0.5)
		(layer "F.Cu")
		(net 9)
		(uuid "1f2f98bf-aa8f-4a5c-91ab-cbaccb33cfa1")
	)
	(segment
		(start 76.327 60.452)
		(end 76.327 52.832)
		(width 0.5)
		(layer "F.Cu")
		(net 9)
		(uuid "4bdba82f-2c8e-4107-8dec-ea076f169d3a")
	)
	(segment
		(start 65.5 47.974)
		(end 65.659 48.133)
		(width 0.5)
		(layer "F.Cu")
		(net 9)
		(uuid "7cae2e70-98a6-409f-826c-821442bb1a89")
	)
	(segment
		(start 76.327 52.832)
		(end 76.2 52.705)
		(width 0.5)
		(layer "F.Cu")
		(net 9)
		(uuid "8a8e7920-b8f3-4256-9482-11ab60d297c7")
	)
	(segment
		(start 64.02 62.218)
		(end 64.135 62.103)
		(width 0.5)
		(layer "F.Cu")
		(net 9)
		(uuid "8ba1d8b1-ae7d-4825-a494-24d0e589e8ca")
	)
	(segment
		(start 68.707 52.451)
		(end 69.088 52.832)
		(width 0.5)
		(layer "F.Cu")
		(net 9)
		(uuid "9c570d56-fefb-4e29-8c7f-b6e8ddf171fe")
	)
	(segment
		(start 64.02 67.37)
		(end 64.02 62.218)
		(width 0.5)
		(layer "F.Cu")
		(net 9)
		(uuid "d56b3e97-ba0f-42b7-a490-7cf6db94aba3")
	)
	(segment
		(start 65.5 45.695)
		(end 65.5 47.974)
		(width 0.5)
		(layer "F.Cu")
		(net 9)
		(uuid "d99031b5-1131-4e3b-9fdb-d0f2f8c86b3e")
	)
	(via
		(at 68.707 48.26)
		(size 0.8)
		(drill 0.4)
		(layers "F.Cu" "B.Cu")
		(net 9)
		(uuid "436269db-8454-42a8-b79e-47a82e17b126")
	)
	(via
		(at 76.2 52.705)
		(size 0.8)
		(drill 0.4)
		(layers "F.Cu" "B.Cu")
		(net 9)
		(uuid "581df7ff-62f6-4c7b-97e2-37c35839da61")
	)
	(via
		(at 69.088 52.832)
		(size 0.8)
		(drill 0.4)
		(layers "F.Cu" "B.Cu")
		(net 9)
		(uuid "84382090-f185-4bba-9ef7-a4249d2c0833")
	)
	(via
		(at 64.135 62.103)
		(size 0.8)
		(drill 0.4)
		(layers "F.Cu" "B.Cu")
		(net 9)
		(uuid "844f0d26-def5-48f0-ae2d-ef3c92a5c76b")
	)
	(via
		(at 76.327 60.452)
		(size 0.8)
		(drill 0.4)
		(layers "F.Cu" "B.Cu")
		(net 9)
		(uuid "b641769d-07d7-40bb-bdad-ca5269a6b1aa")
	)
	(via
		(at 65.659 48.133)
		(size 0.8)
		(drill 0.4)
		(layers "F.Cu" "B.Cu")
		(net 9)
		(uuid "d665d6ae-a876-4c14-a5de-52724459f4af")
	)
	(segment
		(start 76.2 52.705)
		(end 74.045 52.705)
		(width 0.5)
		(layer "B.Cu")
		(net 9)
		(uuid "00371409-96ba-4dd0-8913-a6f9ce17c4f0")
	)
	(segment
		(start 74.676 62.103)
		(end 76.327 60.452)
		(width 0.5)
		(layer "B.Cu")
		(net 9)
		(uuid "1db07691-ddcb-4bce-a26a-fa3717dbd31e")
	)
	(segment
		(start 73.808 52.832)
		(end 73.99 52.65)
		(width 0.5)
		(layer "B.Cu")
		(net 9)
		(uuid "3482521d-a9f7-4ad6-ae4a-70dd97d850f8")
	)
	(segment
		(start 64.135 62.103)
		(end 74.676 62.103)
		(width 0.5)
		(layer "B.Cu")
		(net 9)
		(uuid "383e0d75-f500-4ed5-ba7b-95a7048c7c19")
	)
	(segment
		(start 74.045 52.705)
		(end 73.99 52.65)
		(width 0.5)
		(layer "B.Cu")
		(net 9)
		(uuid "756f0b7f-49a7-4477-b7f3-6c5cd378a768")
	)
	(segment
		(start 65.659 48.133)
		(end 68.58 48.133)
		(width 0.5)
		(layer "B.Cu")
		(net 9)
		(uuid "78639454-82a4-4ee3-b217-0329ef7d3547")
	)
	(segment
		(start 69.088 52.832)
		(end 73.808 52.832)
		(width 0.5)
		(layer "B.Cu")
		(net 9)
		(uuid "cca75d5c-0f33-435f-b711-48addd1e72dc")
	)
	(segment
		(start 68.58 48.133)
		(end 68.707 48.26)
		(width 0.5)
		(layer "B.Cu")
		(net 9)
		(uuid "faccbe77-546a-4d1a-84a1-c848585e520b")
	)
)