(kicad_pcb
	(version 20240108)
	(generator "pcbnew")
	(generator_version "8.0")
	(general
		(thickness 1.6)
		(legacy_teardrops no)
	)
	(paper "A4")
	(layers
		(0 "F.Cu" signal)
		(31 "B.Cu" signal)
		(32 "B.Adhes" user "B.Adhesive")
		(33 "F.Adhes" user "F.Adhesive")
		(34 "B.Paste" user)
		(35 "F.Paste" user)
		(36 "B.SilkS" user "B.Silkscreen")
		(37 "F.SilkS" user "F.Silkscreen")
		(38 "B.Mask" user)
		(39 "F.Mask" user)
		(40 "Dwgs.User" user "User.Drawings")
		(41 "Cmts.User" user "User.Comments")
		(42 "Eco1.User" user "User.Eco1")
		(43 "Eco2.User" user "User.Eco2")
		(44 "Edge.Cuts" user)
		(45 "Margin" user)
		(46 "B.CrtYd" user "B.Courtyard")
		(47 "F.CrtYd" user "F.Courtyard")
		(48 "B.Fab" user)
		(49 "F.Fab" user)
		(50 "User.1" user)
		(51 "User.2" user)
		(52 "User.3" user)
		(53 "User.4" user)
		(54 "User.5" user)
		(55 "User.6" user)
		(56 "User.7" user)
		(57 "User.8" user)
		(58 "User.9" user)
	)
	(setup
		(pad_to_mask_clearance 0)
		(allow_soldermask_bridges_in_footprints no)
		(pcbplotparams
			(layerselection 0x00010fc_ffffffff)
			(plot_on_all_layers_selection 0x0000000_00000000)
			(disableapertmacros no)
			(usegerberextensions no)
			(usegerberattributes yes)
			(usegerberadvancedattributes yes)
			(creategerberjobfile yes)
			(dashed_line_dash_ratio 12.000000)
			(dashed_line_gap_ratio 3.000000)
			(svgprecision 4)
			(plotframeref no)
			(viasonmask no)
			(mode 1)
			(useauxorigin no)
			(hpglpennumber 1)
			(hpglpenspeed 20)
			(hpglpendiameter 15.000000)
			(pdf_front_fp_property_popups yes)
			(pdf_back_fp_property_popups yes)
			(dxfpolygonmode yes)
			(dxfimperialunits yes)
			(dxfusepcbnewfont yes)
			(psnegative no)
			(psa4output no)
			(plotreference yes)
			(plotvalue yes)
			(plotfptext yes)
			(plotinvisibletext no)
			(sketchpadsonfab no)
			(subtractmaskfromsilk no)
			(outputformat 1)
			(mirror no)
			(drillshape 0)
			(scaleselection 1)
			(outputdirectory "gerbers/")
		)
	)
	(net 0 "")
	(gr_line
		(start 159.79 91.56)
		(end 159.79 83.56)
		(stroke
			(width 0.001)
			(type default)
		)
		(layer "Edge.Cuts")
		(uuid "0463f4cc-aede-4bbe-9cf6-1c607a0ae35d")
	)
	(gr_line
		(start 157.79 91.56)
		(end 159.79 91.56)
		(stroke
			(width 0.001)
			(type default)
		)
		(layer "Edge.Cuts")
		(uuid "09fcfffe-669c-4134-9629-844eacf375e4")
	)
	(gr_line
		(start 101.69 100.76)
		(end 157.79 100.76)
		(stroke
			(width 0.001)
			(type default)
		)
		(layer "Edge.Cuts")
		(uuid "0d5f4987-ac08-4bca-89ab-e4b681cf06e1")
	)
	(gr_line
		(start 99.69 91.56)
		(end 101.69 91.56)
		(stroke
			(width 0.001)
			(type default)
		)
		(layer "Edge.Cuts")
		(uuid "1df91906-e182-4323-b0be-34f05e1c32c7")
	)
	(gr_line
		(start 157.79 74.36)
		(end 101.69 74.36)
		(stroke
			(width 0.001)
			(type default)
		)
		(layer "Edge.Cuts")
		(uuid "30f5f88e-aaf1-498c-903c-ba17375919a8")
	)
	(gr_line
		(start 159.79 83.56)
		(end 157.79 83.56)
		(stroke
			(width 0.001)
			(type default)
		)
		(layer "Edge.Cuts")
		(uuid "68d74d98-41d3-49a8-94b9-bf4c4f159c5f")
	)
	(gr_line
		(start 99.69 83.56)
		(end 99.69 91.56)
		(stroke
			(width 0.001)
			(type default)
		)
		(layer "Edge.Cuts")
		(uuid "b6b96305-1cdb-42ef-83ab-950b8b2eb2c5")
	)
	(gr_line
		(start 157.79 83.56)
		(end 157.79 74.36)
		(stroke
			(width 0.001)
			(type default)
		)
		(layer "Edge.Cuts")
		(uuid "bfc1cb94-228b-4f00-ba1d-9ae127e152cd")
	)
	(gr_line
		(start 101.69 74.36)
		(end 101.69 83.56)
		(stroke
			(width 0.001)
			(type default)
		)
		(layer "Edge.Cuts")
		(uuid "c1923d9c-a74b-4de8-97c8-d3ee20ecf93a")
	)
	(gr_line
		(start 101.69 91.56)
		(end 101.69 100.76)
		(stroke
			(width 0.001)
			(type default)
		)
		(layer "Edge.Cuts")
		(uuid "d838b11d-8274-4ddf-a0e2-809b78ef0aec")
	)
	(gr_line
		(start 157.79 100.76)
		(end 157.79 91.56)
		(stroke
			(width 0.001)
			(type default)
		)
		(layer "Edge.Cuts")
		(uuid "db1a9b29-ed2f-4674-90bc-58c4ec9ffb36")
	)
	(gr_line
		(start 101.69 83.56)
		(end 99.69 83.56)
		(stroke
			(width 0.001)
			(type default)
		)
		(layer "Edge.Cuts")
		(uuid "ec56c327-ac3a-4a83-bac9-802d297453d4")
	)
	(zone
		(net 0)
		(net_name "")
		(layer "F.Cu")
		(uuid "95625a9f-39bd-4546-8b9c-c8cae59b944d")
		(hatch edge 0.5)
		(connect_pads
			(clearance 0.5)
		)
		(min_thickness 0.25)
		(filled_areas_thickness no)
		(fill
			(thermal_gap 0.5)
			(thermal_bridge_width 0.5)
			(island_removal_mode 1)
			(island_area_min 10)
		)
		(polygon
			(pts
				(xy 157.3 74.92) (xy 157.35 74.97) (xy 157.35 100.33) (xy 102.09 100.33) (xy 102.28 100.52) (xy 102.28 74.92)
			)
		)
	)
	(zone
		(net 0)
		(net_name "")
		(layer "B.Cu")
		(uuid "7694ccbb-a1c9-45fc-a1c8-88ca84214d49")
		(hatch edge 0.5)
		(priority 1)
		(connect_pads
			(clearance 0.5)
		)
		(min_thickness 0.25)
		(filled_areas_thickness no)
		(fill
			(thermal_gap 0.5)
			(thermal_bridge_width 0.5)
			(island_removal_mode 1)
			(island_area_min 10)
		)
		(polygon
			(pts
				(xy 102.29 74.92) (xy 156.39 74.92) (xy 157.35 75.88) (xy 157.35 100.33) (xy 102.09 100.33) (xy 102.29 100.53)
			)
		)
	)
	(group ""
		(uuid "5d16b15f-54a1-48af-b978-f16cd3070ed1")
		(members "0463f4cc-aede-4bbe-9cf6-1c607a0ae35d" "09fcfffe-669c-4134-9629-844eacf375e4"
			"0d5f4987-ac08-4bca-89ab-e4b681cf06e1" "1df91906-e182-4323-b0be-34f05e1c32c7"
			"30f5f88e-aaf1-498c-903c-ba17375919a8" "68d74d98-41d3-49a8-94b9-bf4c4f159c5f"
			"b6b96305-1cdb-42ef-83ab-950b8b2eb2c5" "bfc1cb94-228b-4f00-ba1d-9ae127e152cd"
			"c1923d9c-a74b-4de8-97c8-d3ee20ecf93a" "d838b11d-8274-4ddf-a0e2-809b78ef0aec"
			"db1a9b29-ed2f-4674-90bc-58c4ec9ffb36" "ec56c327-ac3a-4a83-bac9-802d297453d4"
		)
	)
)