0.168
0.168
0.163
0.167
0.164
0.166
0.164
0.165
0.164
0.167
0.166
0.164
0.168
0.167
0.164
0.164
0.166
0.164
0.164
0.168
0.169
0.168
0.164
0.164
0.165
0.167
0.164
0.169
0.166
0.165
0.168
0.167
0.167
0.164
0.166
0.164
0.167
0.164
0.167
0.167
0.167
0.168
0.167
0.167
0.167
0.165
0.167
0.168
0.171
0.167
0.166
0.171
0.171
0.169
0.165
0.168
0.168
0.164
0.168
0.167
0.171
0.167
0.169
0.166
0.168
0.164
0.167
0.163
0.168
0.169
0.167
0.168
0.176
0.169
0.169
0.169
0.167
0.166
0.164
0.167
0.168
0.167
0.168
0.167
0.168
0.167
0.163
0.165
0.164
0.166
0.166
0.165
0.166
0.165
0.167
0.165
0.168
0.167
0.172
0.165
0.168
0.167
0.165
0.168
0.168
0.166
0.165
0.167
0.168
0.168
0.167
0.168
0.167
0.168
0.168
0.165
0.165
0.166
0.168
0.168
0.169
0.167
0.164
0.165
0.169
0.160
0.168
0.165
0.168
0.165
0.178
0.168
0.166
0.168
0.165
0.166
0.163
0.164
0.169
0.166
0.164
0.165
0.166
0.165
0.165
0.164
0.164
0.166
0.168
0.165
0.169
0.162
0.169
0.168
0.168
0.173
0.167
0.166
0.168
0.167
0.164
0.167
0.166
0.164
0.167
0.164
0.167
0.168
0.164
0.168
0.164
0.168
0.165
0.165
0.164
0.167
0.166
0.165
0.168
0.167
0.166
0.165
0.166
0.164
0.165
0.166
0.165
0.167
0.167
0.162
0.163
0.168
0.164
0.170
0.168
0.165
0.166
0.166
0.165
0.169
0.166
0.168
0.165
0.168
0.168
0.168
0.180
0.165
0.168
0.166
0.167
0.164
0.168
0.168
0.168
0.167
0.165
0.164
0.166
0.168
0.168
0.169
0.176
0.164
0.166
0.164
0.167
0.160
0.163
0.167
0.168
0.168
0.164
0.168
0.164
0.165
0.164
0.168
0.167
0.164
0.164
0.169
0.165
0.164
0.164
0.166
0.167
0.164
0.166
0.167
0.169
0.166
0.169
0.166
0.168
0.169
0.167
0.166
0.168
0.164
0.167
0.167
0.163
0.164
0.165
0.168
0.167
0.165
0.166
0.171
0.165
0.170
0.171
0.169
0.164
0.168
0.169
0.169
0.168
0.168
0.166
0.164
0.164
0.168
0.166
0.165
0.167
0.168
0.168
0.168
0.168
0.169
0.165
0.164
0.167
0.164
0.164
0.167
0.168
0.165
0.166
0.165
0.164
0.166
0.167
0.167
0.169
0.168
0.168
0.164
0.168
0.168
0.165
0.164
0.168
0.166
0.166
0.166
0.165
0.166
0.160
0.160
0.168
0.166
0.168
0.166
0.164
0.166
0.166
0.162
0.164
0.168
0.164
0.164
0.164
0.168
0.168
0.168
0.168
0.168
0.164
0.167
0.167
0.164
0.165
0.170
0.163
0.166
0.168
0.165
0.174
0.166
0.165
0.171
0.166
0.166
0.171
0.171
0.171
0.168
0.166
0.165
0.167
0.168
0.169
0.164
0.168
0.164
0.166
0.164
0.165
0.166
0.164
0.169
0.164
0.168
0.166
0.167
0.165
0.164
0.166
0.168
0.164
0.164
0.165
0.168
0.168
0.166
0.163
0.165
0.167
0.166
0.167
0.164
0.165
0.168
0.164
0.164
0.164
0.165
0.167
0.168
0.164
0.166
0.166
0.168
0.164
0.165
0.166
0.168
0.164
0.171
0.164
0.169
0.166
0.167
0.166
0.169
0.168
0.164
0.165
0.165
0.167
0.173
0.168
0.166
0.168
0.166
0.166
0.166
0.167
0.165
0.168
0.168
0.164
0.169
0.168
0.167
0.164
0.168
0.172
0.166
0.166
0.166
0.165
0.165
0.168
0.160
0.168
0.168
0.166
0.165
0.168
0.167
0.164
0.165
0.165
0.168
0.168
0.165
0.168
0.164
0.164
0.165
0.167
0.166
0.164
0.165
0.162
0.166
0.162
0.168
0.165
0.167
0.164
0.166
0.168
0.167
0.164
0.163
0.167
0.163
0.168
0.168
0.166
0.166
0.166
0.165
0.165
0.164
0.166
0.168
0.165
0.167
0.165
0.168
0.167
0.166
0.166
0.168
0.165
0.168
0.169
0.166
0.167
0.164
0.166
0.168
0.168
0.171
0.164
0.166
0.166
0.164
0.165
0.175
0.171
0.167
0.169
0.165
0.166
0.168
0.166
0.168
0.171
0.164
0.166
0.163
0.164
0.169
0.164
0.165
0.166
0.168
0.168
0.168
0.167
0.164
0.164
0.168
0.168
0.166
0.174
0.168
0.165
0.164
0.166
0.168
0.169
0.171
0.168
0.164
0.168
0.167
0.167
0.168
0.164
0.169
0.166
0.168
0.164
0.165
0.168
0.166
0.166
0.168
0.166
0.165
0.168
0.168
0.168
0.165
0.168
0.165
0.168
0.165
0.165
0.168
0.169
0.181
0.165
0.166
0.164
0.167
0.166
0.167
0.168
0.166
0.164
0.172
0.165
0.164
0.167
0.164
0.165
0.166
0.165
0.171
0.165
0.166
0.168
0.165
0.171
0.166
0.164
0.166
0.165
0.167
0.165
0.168
0.167
0.168
0.165
0.168
0.166
0.168
0.167
0.167
0.168
0.164
0.171
0.168
0.165
0.168
0.166
0.166
0.169
0.168
0.170
0.166
0.171
0.164
0.168
0.166
0.165
0.163
0.168
0.171
0.171
0.166
0.166
0.164
0.168
0.168
0.168
0.165
0.165
0.165
0.172
0.168
0.169
0.167
0.166
0.166
0.165
0.164
0.164
0.168
0.165
0.164
0.166
0.164
0.164
0.167
0.164
0.166
0.168
0.166
0.164
0.165
0.164
0.164
0.165
0.164
0.166
0.169
0.166
0.165
0.164
0.168
0.162
0.171
0.166
0.168
0.164
0.165
0.165
0.167
0.166
0.168
0.168
0.165
0.165
0.169
0.168
0.169
0.164
0.168
0.168
0.167
0.164
0.169
0.169
0.174
0.168
0.164
0.168
0.164
0.167
0.168
0.165
0.172
0.165
0.168
0.171
0.168
0.163
0.168
0.165
0.162
0.166
0.168
0.168
0.166
0.165
0.165
0.166
0.167
0.166
0.164
0.166
0.164
0.164
0.165
0.169
0.166
0.165
0.165
0.165
0.166
0.160
0.164
0.168
0.162
0.168
0.168
0.167
0.166
0.164
0.166
0.173
0.168
0.169
0.165
0.163
0.167
0.164
0.169
0.168
0.174
0.168
0.168
0.167
0.168
0.166
0.164
0.168
0.165
0.166
0.166
0.164
0.164
0.168
0.167
0.168
0.163
0.165
0.168
0.166
0.165
0.166
0.164
0.169
0.166
0.168
0.164
0.164
0.167
0.165
0.167
0.167
0.168
0.167
0.165
0.166
0.164
0.164
0.169
0.165
0.167
0.168
0.164
0.168
0.170
0.166
0.167
0.168
0.167
0.168
0.169
0.167
0.166
0.164
0.164
0.169
0.172
0.165
0.168
0.167
0.168
0.168
0.167
0.172
0.168
0.168
0.166
0.164
0.164
0.166
0.167
0.166
0.165
0.169
0.166
0.168
0.164
0.168
0.164
0.167
0.164
0.164
0.169
0.168
0.164
0.169
0.167
0.170
0.165
0.166
0.164
0.165
0.165
0.168
0.164
0.165
0.164
0.165
0.167
0.168
0.168
0.167
0.177
0.168
0.168
0.165
0.165
0.166
0.168
0.165
0.164
0.164
0.164
0.164
0.165
0.165
0.166
0.164
0.168
0.166
0.166
0.166
0.168
0.167
0.168
0.167
0.168
0.169
0.167
0.164
0.169
0.166
0.164
0.169
0.170
0.168
0.164
0.166
0.168
0.171
0.165
0.163
0.171
0.166
0.171
0.164
0.165
0.164
0.167
0.168
0.168
0.165
0.164
0.167
0.165
0.168
0.162
0.164
0.166
0.164
0.165
0.166
0.167
0.164
0.164
0.167
0.180
0.165
0.168
0.164
0.164
0.166
0.168
0.165
0.168
0.164
0.168
0.164
0.165
0.163
0.172
0.165
0.165
0.165
0.168
0.164
0.167
0.167
0.166
0.166
0.169
0.168
0.168
0.164
0.172
0.168
0.165
0.167
0.168
0.168
0.167
0.167
0.166
0.166
0.168
0.164
0.168
0.168
0.164
0.169
0.165
0.168
0.166
0.167
0.166
0.168
0.167
0.169
0.164
0.164
0.168
0.166
0.165
0.166
0.169
0.165
0.167
0.168
0.168
0.167
0.167
0.166
0.166
0.167
0.164
0.166
0.162
0.163
0.167
0.164
