0.428
0.433
0.431
0.430
0.431
0.434
0.431
0.433
0.431
0.432
0.428
0.429
0.431
0.432
0.439
0.432
0.432
0.436
0.432
0.432
0.432
0.435
0.428
0.430
0.430
0.432
0.435
0.433
0.430
0.432
0.431
0.432
0.431
0.432
0.433
0.433
0.433
0.435
0.431
0.430
0.430
0.431
0.430
0.433
0.432
0.433
0.429
0.427
0.432
0.431
0.431
0.429
0.433
0.427
0.431
0.432
0.432
0.433
0.430
0.430
0.432
0.432
0.430
0.429
0.429
0.434
0.432
0.432
0.433
0.430
0.430
0.432
0.433
0.430
0.432
0.428
0.433
0.429
0.433
0.433
0.430
0.434
0.434
0.429
0.431
0.432
0.429
0.433
0.431
0.430
0.430
0.431
0.431
0.430
0.431
0.433
0.432
0.431
0.431
0.435
0.432
0.434
0.429
0.430
0.429
0.429
0.431
0.432
0.432
0.431
0.429
0.432
0.432
0.432
0.429
0.434
0.431
0.427
0.433
0.434
0.442
0.431
0.438
0.429
0.433
0.434
0.433
0.433
0.431
0.433
0.432
0.435
0.433
0.432
0.432
0.430
0.434
0.429
0.435
0.432
0.429
0.437
0.433
0.430
0.432
0.427
0.431
0.433
0.433
0.431
0.433
0.431
0.433
0.429
0.432
0.430
0.431
0.433
0.428
0.429
0.429
0.429
0.433
0.437
0.430
0.430
0.430
0.433
0.432
0.430
0.432
0.431
0.433
0.432
0.430
0.429
0.430
0.432
0.431
0.428
0.430
0.432
0.431
0.435
0.429
0.429
0.430
0.430
0.435
0.438
0.433
0.433
0.433
0.429
0.433
0.431
0.435
0.433
0.429
0.433
0.431
0.432
0.430
0.433
0.434
0.431
0.431
0.433
0.432
0.436
0.433
0.431
0.429
0.432
0.433
0.433
0.433
0.432
0.433
0.431
0.433
0.432
0.431
0.432
0.434
0.431
0.429
0.433
0.432
0.431
0.435
0.433
0.432
0.433
0.433
0.432
0.430
0.432
0.432
0.436
0.431
0.429
0.432
0.429
0.429
0.432
0.429
0.433
0.432
0.434
0.429
0.430
0.433
0.433
0.431
0.434
0.436
0.430
0.428
0.432
0.432
0.432
0.446
0.431
0.432
0.434
0.432
0.432
0.432
0.432
0.432
0.428
0.428
0.432
0.431
0.432
0.430
0.436
0.431
0.430
0.431
0.434
0.433
0.433
0.433
0.433
0.432
0.433
0.432
0.432
0.433
0.435
0.433
0.434
0.433
0.433
0.431
0.433
0.432
0.433
0.431
0.433
0.430
0.435
0.433
0.435
0.435
0.436
0.432
0.434
0.431
0.434
0.436
0.433
0.433
0.430
0.431
0.433
0.433
0.435
0.433
0.430
0.429
0.433
0.432
0.435
0.435
0.432
0.435
0.433
0.433
0.434
0.432
0.431
0.428
0.429
0.433
0.429
0.430
0.432
0.432
0.433
0.437
0.430
0.432
0.433
0.431
0.429
0.433
0.435
0.437
0.435
0.433
0.429
0.431
0.430
0.433
0.435
0.431
0.431
0.429
0.432
0.430
0.432
0.431
0.430
0.432
0.428
0.429
0.433
0.430
0.429
0.432
0.432
0.433
0.433
0.433
0.432
0.431
0.433
0.431
0.431
0.432
0.428
0.433
0.434
0.434
0.433
0.431
0.429
0.432
0.433
0.431
0.434
0.429
0.433
0.432
0.434
0.433
0.430
0.430
0.435
0.435
0.433
0.432
0.432
0.433
0.431
0.432
0.434
0.431
0.431
0.435
0.431
0.432
0.433
0.429
0.434
0.438
0.429
0.432
0.432
0.433
0.431
0.429
0.428
0.431
0.433
0.433
0.428
0.432
0.431
0.429
0.430
0.431
0.426
0.433
0.432
0.432
0.433
0.433
0.431
0.432
0.431
0.430
0.435
0.435
0.433
0.431
0.430
0.435
0.430
0.433
0.433
0.431
0.431
0.432
0.433
0.431
0.433
0.433
0.433
0.439
0.429
0.429
0.433
0.431
0.433
0.432
0.433
0.432
0.430
0.433
0.431
0.433
0.433
0.433
0.430
0.433
0.431
0.429
0.433
0.433
0.430
0.435
0.432
0.433
0.430
0.432
0.432
0.431
0.435
0.433
0.428
0.432
0.433
0.433
0.435
0.432
0.429
0.433
0.434
0.433
0.431
0.433
0.433
0.431
0.438
0.433
0.433
0.432
0.430
0.433
0.433
0.431
0.434
0.432
0.428
0.433
0.432
0.431
0.432
0.428
0.433
0.429
0.432
0.432
0.432
0.433
0.431
0.431
0.437
0.433
0.433
0.433
0.428
0.429
0.431
0.431
0.430
0.434
0.433
0.431
0.433
0.431
0.436
0.432
0.428
0.435
0.431
0.437
0.430
0.432
0.435
0.434
0.430
0.435
0.433
0.431
0.431
0.427
0.433
0.429
0.431
0.431
0.431
0.432
0.432
0.436
0.434
0.439
0.431
0.431
0.431
0.431
0.429
0.430
0.433
0.429
0.432
0.433
0.429
0.433
0.429
0.431
0.431
0.435
0.429
0.435
0.432
0.431
0.435
0.432
0.432
0.431
0.433
0.429
0.431
0.429
0.433
0.435
0.429
0.433
0.429
0.433
0.430
0.434
0.435
0.430
0.431
0.432
0.431
0.434
0.433
0.433
0.433
0.435
0.432
0.435
0.434
0.433
0.431
0.433
0.431
0.433
0.433
0.433
0.433
0.437
0.431
0.433
0.430
0.431
0.433
0.430
0.433
0.432
0.432
0.431
0.433
0.432
0.428
0.435
0.431
0.433
0.437
0.431
0.435
0.441
0.436
0.435
0.428
0.433
0.432
0.433
0.434
0.432
0.432
0.430
0.434
0.431
0.432
0.432
0.430
0.430
0.431
0.432
0.432
0.432
0.429
0.435
0.432
0.431
0.432
0.430
0.435
0.433
0.432
0.435
0.433
0.429
0.433
0.436
0.430
0.437
0.433
0.431
0.433
0.434
0.436
0.432
0.433
0.429
0.429
0.433
0.433
0.433
0.431
0.433
0.435
0.433
0.431
0.430
0.433
0.435
0.432
0.433
0.429
0.431
0.431
0.438
0.433
0.433
0.433
0.433
0.429
0.435
0.432
0.432
0.432
0.433
0.429
0.430
0.428
0.431
0.430
0.429
0.432
0.431
0.431
0.433
0.429
0.429
0.429
0.432
0.432
0.433
0.432
0.432
0.429
0.429
0.433
0.430
0.431
0.430
0.437
0.429
0.432
0.431
0.433
0.433
0.432
0.428
0.432
0.431
0.432
0.435
0.429
0.431
0.431
0.432
0.433
0.435
0.431
0.435
0.433
0.433
0.432
0.432
0.434
0.431
0.434
0.433
0.430
0.432
0.432
0.432
0.433
0.433
0.431
0.438
0.428
0.435
0.431
0.435
0.432
0.432
0.429
0.433
0.433
0.433
0.433
0.431
0.433
0.438
0.433
0.431
0.433
0.430
0.434
0.435
0.435
0.431
0.430
0.433
0.432
0.428
0.430
0.425
0.432
0.425
0.421
0.422
0.416
0.412
0.417
0.411
0.410
0.421
0.415
0.419
0.419
0.425
0.425
0.428
0.429
0.429
0.431
0.428
0.431
0.433
0.432
0.433
0.431
0.431
0.433
0.431
0.433
0.430
0.437
0.430
0.434
0.435
0.442
0.430
0.431
0.435
0.434
0.436
0.433
0.433
0.429
0.433
0.428
0.431
0.430
0.435
0.431
0.433
0.432
0.432
0.433
0.433
0.431
0.431
0.435
0.433
0.434
0.433
0.433
0.434
0.433
0.431
0.433
0.432
0.434
0.434
0.433
0.433
0.432
0.435
0.446
0.433
0.435
0.431
0.431
0.433
0.432
0.432
0.433
0.435
0.433
0.432
0.433
0.433
0.430
0.429
0.433
0.425
0.431
0.439
0.433
0.429
0.434
0.431
0.430
0.432
0.432
0.431
0.431
0.431
0.433
0.433
0.432
0.432
0.433
0.433
0.432
0.432
0.431
0.434
0.433
0.432
0.432
0.432
0.429
0.434
0.433
0.433
0.435
0.437
0.433
0.433
0.431
0.431
0.435
0.430
0.435
0.433
0.433
0.435
0.434
0.430
0.432
0.429
0.433
0.431
0.432
0.435
0.433
0.433
0.434
0.435
0.433
0.433
0.437
0.432
0.431
0.435
0.433
0.433
0.433
0.431
0.432
0.433
0.432
0.431
0.431
0.432
0.429
0.431
0.431
0.432
0.433
0.435
0.429
0.434
0.433
0.432
0.433
0.433
0.432
0.431
0.429
0.436
0.431
0.432
0.430
0.438
0.435
0.432
0.433
0.433
0.432
0.435
0.435
0.434
0.431
0.432
