0.357
0.356
0.363
0.353
0.355
0.358
0.359
0.357
0.354
0.354
0.359
0.354
0.355
0.355
0.353
0.355
0.358
0.350
0.359
0.354
0.356
0.358
0.355
0.355
0.353
0.354
0.354
0.355
0.356
0.357
0.357
0.355
0.357
0.358
0.356
0.355
0.355
0.356
0.354
0.355
0.354
0.356
0.357
0.356
0.353
0.359
0.354
0.354
0.354
0.354
0.356
0.354
0.354
0.361
0.363
0.359
0.358
0.359
0.358
0.358
0.354
0.358
0.356
0.347
0.356
0.357
0.357
0.352
0.357
0.354
0.356
0.355
0.359
0.357
0.358
0.357
0.354
0.354
0.356
0.357
0.357
0.358
0.357
0.355
0.362
0.358
0.357
0.358
0.355
0.355
0.355
0.355
0.355
0.357
0.354
0.359
0.358
0.355
0.358
0.359
0.354
0.359
0.358
0.358
0.354
0.355
0.354
0.355
0.359
0.354
0.354
0.355
0.355
0.357
0.357
0.358
0.357
0.356
0.354
0.352
0.358
0.355
0.357
0.355
0.359
0.352
0.355
0.352
0.354
0.359
0.354
0.358
0.354
0.358
0.361
0.358
0.354
0.356
0.357
0.357
0.358
0.359
0.357
0.357
0.359
0.353
0.356
0.355
0.354
0.358
0.358
0.357
0.354
0.354
0.358
0.361
0.354
0.355
0.356
0.355
0.356
0.354
0.356
0.355
0.354
0.356
0.357
0.354
0.356
0.361
0.356
0.359
0.355
0.359
0.359
0.354
0.355
0.356
0.354
0.358
0.354
0.357
0.354
0.355
0.357
0.356
0.353
0.358
0.354
0.358
0.358
0.356
0.359
0.357
0.358
0.355
0.355
0.355
0.355
0.358
0.359
0.359
0.354
0.355
0.355
0.354
0.357
0.354
0.358
0.352
0.358
0.356
0.356
0.354
0.355
0.356
0.355
0.354
0.352
0.371
0.358
0.355
0.355
0.358
0.359
0.355
0.358
0.361
0.353
0.355
0.354
0.356
0.358
0.358
0.356
0.359
0.358
0.354
0.357
0.358
0.356
0.355
0.359
0.354
0.359
0.363
0.356
0.354
0.359
0.360
0.358
0.361
0.354
0.356
0.357
0.355
0.357
0.357
0.359
0.354
0.358
0.354
0.354
0.355
0.361
0.359
0.355
0.358
0.354
0.354
0.356
0.359
0.357
0.358
0.354
0.356
0.358
0.355
0.355
0.358
0.355
0.356
0.356
0.354
0.358
0.359
0.355
0.357
0.354
0.358
0.358
0.353
0.356
0.357
0.357
0.357
0.361
0.359
0.357
0.354
0.356
0.355
0.356
0.357
0.355
0.354
0.356
0.356
0.362
0.357
0.355
0.358
0.355
0.356
0.359
0.358
0.357
0.356
0.357
0.358
0.354
0.357
0.358
0.359
0.357
0.356
0.356
0.358
0.352
0.357
0.358
0.357
0.354
0.357
0.354
0.356
0.356
0.354
0.358
0.357
0.356
0.354
0.356
0.354
0.358
0.355
0.355
0.347
0.359
0.358
0.359
0.357
0.370
0.354
0.353
0.356
0.354
0.354
0.355
0.359
0.358
0.354
0.353
0.359
0.354
0.357
0.354
0.355
0.358
0.357
0.358
0.354
0.354
0.357
0.358
0.357
0.359
0.358
0.354
0.354
0.356
0.355
0.355
0.357
0.355
0.357
0.358
0.358
0.363
0.355
0.359
0.357
0.355
0.360
0.359
0.358
0.359
0.355
0.357
0.359
0.357
0.356
0.354
0.359
0.354
0.358
0.353
0.357
0.356
0.356
0.357
0.354
0.359
0.359
0.354
0.355
0.363
0.358
0.356
0.355
0.356
0.354
0.359
0.354
0.356
0.353
0.352
0.361
0.357
0.356
0.354
0.354
0.354
0.357
0.356
0.356
0.356
0.358
0.357
0.356
0.360
0.354
0.358
0.357
0.354
0.355
0.358
0.354
0.357
0.355
0.355
0.355
0.354
0.357
0.358
0.359
0.355
0.359
0.354
0.355
0.358
0.363
0.358
0.355
0.355
0.359
0.361
0.358
0.355
0.356
0.356
0.354
0.361
0.357
0.355
0.354
0.354
0.359
0.359
0.363
0.359
0.355
0.359
0.357
0.361
0.356
0.357
0.357
0.354
0.358
0.359
0.356
0.356
0.358
0.355
0.358
0.356
0.357
0.355
0.354
0.354
0.357
0.358
0.354
0.356
0.357
0.356
0.354
0.355
0.354
0.359
0.358
0.357
0.358
0.357
0.357
0.359
0.354
0.355
0.355
0.357
0.369
0.359
0.359
0.354
0.353
0.354
0.355
0.354
0.355
0.357
0.358
0.356
0.358
0.357
0.355
0.356
0.357
0.355
0.356
0.358
0.357
0.356
0.362
0.355
0.356
0.354
0.355
0.354
0.359
0.354
0.356
0.358
0.358
0.354
0.356
0.355
0.358
0.362
0.354
0.358
0.356
0.355
0.354
0.358
0.358
0.354
0.346
0.354
0.357
0.359
0.358
0.354
0.360
0.358
0.354
0.358
0.354
0.353
0.355
0.355
0.358
0.359
0.357
0.357
0.354
0.358
0.354
0.355
0.354
0.354
0.357
0.357
0.354
0.358
0.358
0.356
0.358
0.359
0.355
0.357
0.357
0.357
0.358
0.354
0.356
0.355
0.357
0.354
0.358
0.356
0.358
0.354
0.354
0.359
0.354
0.359
0.358
0.357
0.357
0.357
0.358
0.355
0.353
0.358
0.355
0.352
0.355
0.351
0.358
0.354
0.356
0.357
0.354
0.353
0.354
0.355
0.356
0.358
0.361
0.357
0.352
0.355
0.355
0.356
0.359
0.356
0.358
0.355
0.354
0.354
0.359
0.358
0.357
0.358
0.359
0.357
0.363
0.358
0.359
0.358
0.358
0.357
0.354
0.359
0.359
0.355
0.356
0.355
0.356
0.359
0.359
0.357
0.356
0.357
0.356
0.358
0.354
0.354
0.357
0.359
0.355
0.356
0.354
0.355
0.355
0.357
0.358
0.356
0.354
0.353
0.356
0.357
0.359
0.354
0.358
0.359
0.358
0.359
0.357
0.354
0.354
0.358
0.357
0.356
0.356
0.358
0.358
0.356
0.355
0.358
0.357
0.357
0.358
0.357
0.358
0.358
0.359
0.358
0.358
0.354
0.359
0.363
0.358
0.356
0.358
0.359
0.356
0.357
0.357
0.354
0.364
0.357
0.358
0.356
0.358
0.359
0.357
0.354
0.358
0.356
0.361
0.356
0.357
0.358
0.358
0.355
0.355
0.362
0.359
0.357
0.357
0.355
0.358
0.354
0.355
0.354
0.358
0.354
0.357
0.361
0.352
0.356
0.359
0.355
0.355
0.357
0.357
0.358
0.356
0.354
0.357
0.354
0.355
0.358
0.358
0.355
0.357
0.358
0.356
0.357
0.354
0.363
0.357
0.359
0.359
0.361
0.354
0.359
0.356
0.359
0.356
0.354
0.356
0.352
0.359
0.360
0.355
0.360
0.354
0.357
0.357
0.358
0.357
0.358
0.357
0.357
0.359
0.357
0.358
0.358
0.355
0.356
0.358
0.356
0.359
0.357
0.358
0.355
0.356
0.355
0.356
0.354
0.355
0.356
0.355
0.354
0.354
0.356
0.357
0.353
0.354
0.354
0.357
0.358
0.355
0.358
0.358
0.358
0.356
0.354
0.358
0.356
0.358
0.359
0.358
0.360
0.359
0.354
0.354
0.361
0.359
0.355
0.358
0.357
0.353
0.358
0.358
0.357
0.357
0.359
0.362
0.358
0.357
0.355
0.358
0.354
0.359
0.358
0.357
0.359
0.353
0.354
0.361
0.359
0.361
0.354
0.359
0.354
0.359
0.356
0.360
0.356
0.354
0.354
0.359
0.354
0.357
0.359
0.354
0.356
0.356
0.359
0.359
0.359
0.356
0.355
0.355
0.354
0.354
0.353
0.357
0.356
0.359
0.357
0.356
0.364
0.357
0.358
0.354
0.354
0.350
0.356
0.359
0.359
0.358
0.357
0.362
0.357
0.356
0.356
0.361
0.354
0.355
0.354
0.361
0.361
0.355
0.353
0.359
0.357
0.354
0.361
0.355
0.359
0.355
0.357
0.356
0.358
0.359
0.357
0.359
0.357
0.355
0.357
0.358
0.357
0.356
0.358
0.357
0.359
0.354
0.354
0.358
0.356
0.354
0.358
0.356
0.359
0.357
0.359
0.354
0.358
0.354
0.359
0.359
0.355
0.358
0.357
0.352
0.354
0.357
0.356
0.354
0.354
0.358
0.358
0.358
0.357
0.361
0.355
0.359
0.356
0.359
0.358
0.358
0.358
0.357
0.358
0.357
0.355
0.356
0.355
0.354
0.354
0.357
0.359
0.357
0.359
