<?xml version="1.0" encoding="UTF-8" standalone="no"?>
<!-- Created with Inkscape (http://www.inkscape.org/) -->

<svg
   width="210mm"
   height="297mm"
   viewBox="0 0 210 297"
   version="1.1"
   id="svg731629"
   inkscape:version="1.1.2 (0a00cf5339, 2022-02-04)"
   sodipodi:docname="block_diagram.svg"
   xmlns:inkscape="http://www.inkscape.org/namespaces/inkscape"
   xmlns:sodipodi="http://sodipodi.sourceforge.net/DTD/sodipodi-0.dtd"
   xmlns="http://www.w3.org/2000/svg"
   xmlns:svg="http://www.w3.org/2000/svg">
  <sodipodi:namedview
     id="namedview731631"
     pagecolor="#ffffff"
     bordercolor="#666666"
     borderopacity="1.0"
     inkscape:pageshadow="2"
     inkscape:pageopacity="0.0"
     inkscape:pagecheckerboard="0"
     inkscape:document-units="mm"
     showgrid="false"
     inkscape:snap-global="false"
     inkscape:zoom="2.1921501"
     inkscape:cx="270.28259"
     inkscape:cy="329.12893"
     inkscape:window-width="1846"
     inkscape:window-height="1016"
     inkscape:window-x="74"
     inkscape:window-y="27"
     inkscape:window-maximized="1"
     inkscape:current-layer="layer1" />
  <defs
     id="defs731626" />
  <g
     inkscape:label="Layer 1"
     inkscape:groupmode="layer"
     id="layer1">
    <rect
       style="fill:#b3b3b3;stroke:#000000;stroke-width:0.047417"
       id="rect731712"
       width="5.3254313"
       height="10.51188"
       x="49.760368"
       y="66.97303" />
    <rect
       style="fill:#b3b3b3;stroke:#000000;stroke-width:0.048345"
       id="rect731712-1"
       width="5.3245034"
       height="10.929262"
       x="84.744804"
       y="65.679329" />
    <rect
       style="fill:#b3b3b3;stroke:#000000;stroke-width:0.346104"
       id="rect731712-1-2"
       width="30.949816"
       height="96.365822"
       x="-132.18182"
       y="32.31377"
       transform="rotate(-90)" />
    <text
       xml:space="preserve"
       style="font-style:normal;font-weight:normal;font-size:4.07472px;line-height:1.25;font-family:sans-serif;fill:#000000;fill-opacity:1;stroke:none;stroke-width:0.101868"
       x="41.461044"
       y="64.739952"
       id="text733126"><tspan
         sodipodi:role="line"
         id="tspan733124"
         style="stroke-width:0.101868"
         x="41.461044"
         y="64.739952">emitter</tspan></text>
    <text
       xml:space="preserve"
       style="font-style:normal;font-weight:normal;font-size:4.07472px;line-height:1.25;font-family:sans-serif;fill:#000000;fill-opacity:1;stroke:none;stroke-width:0.101868"
       x="107.02095"
       y="48.63979"
       id="text733126-3"><tspan
         sodipodi:role="line"
         id="tspan733124-2"
         style="stroke-width:0.101868"
         x="107.02095"
         y="48.63979">cover</tspan></text>
    <text
       xml:space="preserve"
       style="font-style:normal;font-weight:normal;font-size:4.07472px;line-height:1.25;font-family:sans-serif;fill:#000000;fill-opacity:1;stroke:none;stroke-width:0.101868"
       x="107.88004"
       y="71.363197"
       id="text733126-3-7"><tspan
         sodipodi:role="line"
         id="tspan733124-2-3"
         style="stroke-width:0.101868"
         x="107.88004"
         y="71.363197">enclosure</tspan></text>
    <text
       xml:space="preserve"
       style="font-style:normal;font-weight:normal;font-size:4.07472px;line-height:1.25;font-family:sans-serif;fill:#000000;fill-opacity:1;stroke:none;stroke-width:0.101868"
       x="62.816486"
       y="48.939106"
       id="text733126-7"><tspan
         sodipodi:role="line"
         id="tspan733124-4"
         style="stroke-width:0.101868"
         x="62.816486"
         y="48.939106">cuvette</tspan></text>
    <text
       xml:space="preserve"
       style="font-style:normal;font-weight:normal;font-size:4.07472px;line-height:1.25;font-family:sans-serif;fill:#000000;fill-opacity:1;stroke:none;stroke-width:0.101868"
       x="64.098946"
       y="99.584007"
       id="text733126-2"><tspan
         sodipodi:role="line"
         id="tspan733124-8"
         style="stroke-width:0.101868"
         x="64.098946"
         y="99.584007">control</tspan></text>
    <text
       xml:space="preserve"
       style="font-style:normal;font-weight:normal;font-size:4.07472px;line-height:1.25;font-family:sans-serif;fill:#000000;fill-opacity:1;stroke:none;stroke-width:0.101868"
       x="81.466713"
       y="64.14357"
       id="text733126-0"><tspan
         sodipodi:role="line"
         id="tspan733124-3"
         style="stroke-width:0.101868"
         x="81.466713"
         y="64.14357">detector</tspan></text>
    <rect
       style="fill:#b3b3b3;stroke:#000000;stroke-width:0.0707184"
       id="rect738732"
       width="11.334362"
       height="36.057533"
       x="64.052025"
       y="50.44817" />
    <rect
       style="fill:#ffffff;stroke:#000000;stroke-width:0.0819"
       id="rect731712-6"
       width="7.5049181"
       height="22.25301"
       x="-112.96601"
       y="36.113895"
       transform="rotate(-90)" />
    <text
       xml:space="preserve"
       style="font-style:normal;font-weight:normal;font-size:4.07472px;line-height:1.25;font-family:sans-serif;fill:#000000;fill-opacity:1;stroke:none;stroke-width:0.101868"
       x="38.211452"
       y="111.06888"
       id="text733126-2-3"><tspan
         sodipodi:role="line"
         id="tspan733124-8-8"
         style="stroke-width:0.101868"
         x="38.211452"
         y="111.06888">oscillator</tspan></text>
    <rect
       style="fill:#ffffff;stroke:#000000;stroke-width:0.0819"
       id="rect731712-6-9"
       width="7.5049181"
       height="22.25301"
       x="-118.68769"
       y="62.193741"
       transform="rotate(-90)" />
    <text
       xml:space="preserve"
       style="font-style:normal;font-weight:normal;font-size:4.07472px;line-height:1.25;font-family:sans-serif;fill:#000000;fill-opacity:1;stroke:none;stroke-width:0.101868"
       x="66.513062"
       y="116.58464"
       id="text733126-2-3-7"><tspan
         sodipodi:role="line"
         id="tspan733124-8-8-5"
         style="stroke-width:0.101868"
         x="66.513062"
         y="116.58464">feather</tspan></text>
    <rect
       style="fill:#ffffff;stroke:#000000;stroke-width:0.0819"
       id="rect731712-6-9-8"
       width="7.5049181"
       height="22.25301"
       x="-129.70663"
       y="47.381489"
       transform="rotate(-90)" />
    <text
       xml:space="preserve"
       style="font-style:normal;font-weight:normal;font-size:4.07472px;line-height:1.25;font-family:sans-serif;fill:#000000;fill-opacity:1;stroke:none;stroke-width:0.101868"
       x="50.787231"
       y="127.20947"
       id="text733126-2-3-7-0"><tspan
         sodipodi:role="line"
         id="tspan733124-8-8-5-9"
         style="stroke-width:0.101868"
         x="50.787231"
         y="127.20947">buttons</tspan></text>
    <text
       xml:space="preserve"
       style="font-style:normal;font-weight:normal;font-size:4.07472px;line-height:1.25;font-family:sans-serif;fill:#000000;fill-opacity:1;stroke:none;stroke-width:0.101868"
       x="-2.7995656"
       y="59.58411"
       id="text733126-2-3-7-0-5"
       transform="rotate(-9.1651875)"><tspan
         sodipodi:role="line"
         id="tspan733124-8-8-5-9-2"
         style="stroke-width:0.101868"
         x="-2.7995656"
         y="59.58411">'fridge switch'</tspan></text>
    <rect
       style="fill:#ffffff;stroke:#000000;stroke-width:0.0803148"
       id="rect731712-6-9-1"
       width="7.5065031"
       height="21.395439"
       x="-116.91789"
       y="8.0323811"
       transform="rotate(-90)" />
    <text
       xml:space="preserve"
       style="font-style:normal;font-weight:normal;font-size:4.07472px;line-height:1.25;font-family:sans-serif;fill:#000000;fill-opacity:1;stroke:none;stroke-width:0.101868"
       x="10.310804"
       y="114.60451"
       id="text733126-2-3-7-3"><tspan
         sodipodi:role="line"
         id="tspan733124-8-8-5-7"
         style="stroke-width:0.101868"
         x="10.310804"
         y="114.60451">5V input</tspan></text>
    <rect
       style="fill:#ffffff;stroke:#000000;stroke-width:0.106509"
       id="rect731712-6-4"
       width="7.480309"
       height="37.759071"
       x="-113.58337"
       y="89.738976"
       transform="rotate(-90)" />
    <text
       xml:space="preserve"
       style="font-style:normal;font-weight:normal;font-size:4.07472px;line-height:1.25;font-family:sans-serif;fill:#000000;fill-opacity:1;stroke:none;stroke-width:0.101868"
       x="91.749352"
       y="111.25123"
       id="text733126-2-3-9"><tspan
         sodipodi:role="line"
         id="tspan733124-8-8-7"
         style="stroke-width:0.101868"
         x="91.749352"
         y="111.25123">boost 5V to 7.5V</tspan></text>
    <rect
       style="fill:none;stroke:#000000;stroke-width:0.35689;stroke-miterlimit:4;stroke-dasharray:none"
       id="rect744635"
       width="68.082382"
       height="37.247082"
       x="36.157162"
       y="54.143444" />
    <rect
       style="fill:none;stroke:#000000;stroke-width:0.212438;stroke-miterlimit:4;stroke-dasharray:none"
       id="rect744635-1"
       width="68.22683"
       height="13.169428"
       x="35.979275"
       y="40.797283" />
    <rect
       style="fill:#ffffff;stroke:#000000;stroke-width:0.256759;stroke-miterlimit:4;stroke-dasharray:none"
       id="rect745116"
       width="2.512589"
       height="24.879154"
       x="51.154331"
       y="77.607597" />
    <rect
       style="fill:#ffffff;stroke:#000000;stroke-width:0.259455;stroke-miterlimit:4;stroke-dasharray:none"
       id="rect745116-0"
       width="2.5098932"
       height="25.431641"
       x="86.342827"
       y="76.883362" />
  </g>
</svg>
