  0
SECTION
  2
BLOCKS
  0
ENDSEC
  0
SECTION
  2
ENTITIES
  0
LINE
  8
0
 10
30.05
 20
-10
 11
-30.05
 21
-10
  0
LINE
  8
0
 10
-30.05
 20
-10
 11
-30.05
 21
-50.8
  0
LINE
  8
0
 10
-30.05
 20
-50.8
 11
30.05
 21
-50.8
  0
LINE
  8
0
 10
30.05
 20
-50.8
 11
30.05
 21
-10
  0
LINE
  8
0
 10
-13.1067
 20
-18.6966
 11
-13.2131
 21
-18.6866
  0
LINE
  8
0
 10
-13.2131
 20
-18.6866
 11
-13.3185
 21
-18.6699
  0
LINE
  8
0
 10
-13.3185
 20
-18.6699
 11
-13.4228
 21
-18.6466
  0
LINE
  8
0
 10
-13.4228
 20
-18.6466
 11
-13.5253
 21
-18.6168
  0
LINE
  8
0
 10
-13.5253
 20
-18.6168
 11
-13.6258
 21
-18.5806
  0
LINE
  8
0
 10
-13.6258
 20
-18.5806
 11
-13.7238
 21
-18.5382
  0
LINE
  8
0
 10
-13.7238
 20
-18.5382
 11
-13.819
 21
-18.4897
  0
LINE
  8
0
 10
-13.819
 20
-18.4897
 11
-13.9109
 21
-18.4353
  0
LINE
  8
0
 10
-13.9109
 20
-18.4353
 11
-13.9992
 21
-18.3753
  0
LINE
  8
0
 10
-13.9992
 20
-18.3753
 11
-14.0836
 21
-18.3099
  0
LINE
  8
0
 10
-14.0836
 20
-18.3099
 11
-14.1637
 21
-18.2392
  0
LINE
  8
0
 10
-14.1637
 20
-18.2392
 11
-14.2392
 21
-18.1637
  0
LINE
  8
0
 10
-14.2392
 20
-18.1637
 11
-14.3099
 21
-18.0836
  0
LINE
  8
0
 10
-14.3099
 20
-18.0836
 11
-14.3753
 21
-17.9992
  0
LINE
  8
0
 10
-14.3753
 20
-17.9992
 11
-14.4353
 21
-17.9109
  0
LINE
  8
0
 10
-14.4353
 20
-17.9109
 11
-14.4897
 21
-17.819
  0
LINE
  8
0
 10
-14.4897
 20
-17.819
 11
-14.5382
 21
-17.7238
  0
LINE
  8
0
 10
-14.5382
 20
-17.7238
 11
-14.5806
 21
-17.6258
  0
LINE
  8
0
 10
-14.5806
 20
-17.6258
 11
-14.6168
 21
-17.5253
  0
LINE
  8
0
 10
-14.6168
 20
-17.5253
 11
-14.6466
 21
-17.4228
  0
LINE
  8
0
 10
-14.6466
 20
-17.4228
 11
-14.6699
 21
-17.3185
  0
LINE
  8
0
 10
-14.6699
 20
-17.3185
 11
-14.6866
 21
-17.2131
  0
LINE
  8
0
 10
-14.6866
 20
-17.2131
 11
-14.6966
 21
-17.1067
  0
LINE
  8
0
 10
-14.6966
 20
-17.1067
 11
-14.7
 21
-17
  0
LINE
  8
0
 10
-14.7
 20
-17
 11
-14.6966
 21
-16.8932
  0
LINE
  8
0
 10
-14.6966
 20
-16.8932
 11
-14.6866
 21
-16.7869
  0
LINE
  8
0
 10
-14.6866
 20
-16.7869
 11
-14.6699
 21
-16.6814
  0
LINE
  8
0
 10
-14.6699
 20
-16.6814
 11
-14.6466
 21
-16.5772
  0
LINE
  8
0
 10
-14.6466
 20
-16.5772
 11
-14.6168
 21
-16.4747
  0
LINE
  8
0
 10
-14.6168
 20
-16.4747
 11
-14.5806
 21
-16.3742
  0
LINE
  8
0
 10
-14.5806
 20
-16.3742
 11
-14.5382
 21
-16.2762
  0
LINE
  8
0
 10
-14.5382
 20
-16.2762
 11
-14.4897
 21
-16.181
  0
LINE
  8
0
 10
-14.4897
 20
-16.181
 11
-14.4353
 21
-16.0891
  0
LINE
  8
0
 10
-14.4353
 20
-16.0891
 11
-14.3753
 21
-16.0008
  0
LINE
  8
0
 10
-14.3753
 20
-16.0008
 11
-14.3099
 21
-15.9164
  0
LINE
  8
0
 10
-14.3099
 20
-15.9164
 11
-14.2392
 21
-15.8363
  0
LINE
  8
0
 10
-14.2392
 20
-15.8363
 11
-14.1637
 21
-15.7607
  0
LINE
  8
0
 10
-14.1637
 20
-15.7607
 11
-14.0836
 21
-15.6901
  0
LINE
  8
0
 10
-14.0836
 20
-15.6901
 11
-13.9992
 21
-15.6247
  0
LINE
  8
0
 10
-13.9992
 20
-15.6247
 11
-13.9109
 21
-15.5646
  0
LINE
  8
0
 10
-13.9109
 20
-15.5646
 11
-13.819
 21
-15.5103
  0
LINE
  8
0
 10
-13.819
 20
-15.5103
 11
-13.7238
 21
-15.4618
  0
LINE
  8
0
 10
-13.7238
 20
-15.4618
 11
-13.6258
 21
-15.4194
  0
LINE
  8
0
 10
-13.6258
 20
-15.4194
 11
-13.5253
 21
-15.3832
  0
LINE
  8
0
 10
-13.5253
 20
-15.3832
 11
-13.4228
 21
-15.3534
  0
LINE
  8
0
 10
-13.4228
 20
-15.3534
 11
-13.3185
 21
-15.3301
  0
LINE
  8
0
 10
-13.3185
 20
-15.3301
 11
-13.2131
 21
-15.3134
  0
LINE
  8
0
 10
-13.2131
 20
-15.3134
 11
-13.1067
 21
-15.3033
  0
LINE
  8
0
 10
-13.1067
 20
-15.3033
 11
-13
 21
-15.3
  0
LINE
  8
0
 10
-13
 20
-15.3
 11
-12.8932
 21
-15.3033
  0
LINE
  8
0
 10
-12.8932
 20
-15.3033
 11
-12.7869
 21
-15.3134
  0
LINE
  8
0
 10
-12.7869
 20
-15.3134
 11
-12.6814
 21
-15.3301
  0
LINE
  8
0
 10
-12.6814
 20
-15.3301
 11
-12.5772
 21
-15.3534
  0
LINE
  8
0
 10
-12.5772
 20
-15.3534
 11
-12.4747
 21
-15.3832
  0
LINE
  8
0
 10
-12.4747
 20
-15.3832
 11
-12.3742
 21
-15.4194
  0
LINE
  8
0
 10
-12.3742
 20
-15.4194
 11
-12.2762
 21
-15.4618
  0
LINE
  8
0
 10
-12.2762
 20
-15.4618
 11
-12.181
 21
-15.5103
  0
LINE
  8
0
 10
-12.181
 20
-15.5103
 11
-12.0891
 21
-15.5646
  0
LINE
  8
0
 10
-12.0891
 20
-15.5646
 11
-12.0008
 21
-15.6247
  0
LINE
  8
0
 10
-12.0008
 20
-15.6247
 11
-11.9164
 21
-15.6901
  0
LINE
  8
0
 10
-11.9164
 20
-15.6901
 11
-11.8363
 21
-15.7607
  0
LINE
  8
0
 10
-11.8363
 20
-15.7607
 11
-11.7607
 21
-15.8363
  0
LINE
  8
0
 10
-11.7607
 20
-15.8363
 11
-11.6901
 21
-15.9164
  0
LINE
  8
0
 10
-11.6901
 20
-15.9164
 11
-11.6247
 21
-16.0008
  0
LINE
  8
0
 10
-11.6247
 20
-16.0008
 11
-11.5646
 21
-16.0891
  0
LINE
  8
0
 10
-11.5646
 20
-16.0891
 11
-11.5103
 21
-16.181
  0
LINE
  8
0
 10
-11.5103
 20
-16.181
 11
-11.4618
 21
-16.2762
  0
LINE
  8
0
 10
-11.4618
 20
-16.2762
 11
-11.4194
 21
-16.3742
  0
LINE
  8
0
 10
-11.4194
 20
-16.3742
 11
-11.3832
 21
-16.4747
  0
LINE
  8
0
 10
-11.3832
 20
-16.4747
 11
-11.3534
 21
-16.5772
  0
LINE
  8
0
 10
-11.3534
 20
-16.5772
 11
-11.3301
 21
-16.6814
  0
LINE
  8
0
 10
-11.3301
 20
-16.6814
 11
-11.3134
 21
-16.7869
  0
LINE
  8
0
 10
-11.3134
 20
-16.7869
 11
-11.3033
 21
-16.8932
  0
LINE
  8
0
 10
-11.3033
 20
-16.8932
 11
-11.3
 21
-17
  0
LINE
  8
0
 10
-11.3
 20
-17
 11
-11.3033
 21
-17.1067
  0
LINE
  8
0
 10
-11.3033
 20
-17.1067
 11
-11.3134
 21
-17.2131
  0
LINE
  8
0
 10
-11.3134
 20
-17.2131
 11
-11.3301
 21
-17.3185
  0
LINE
  8
0
 10
-11.3301
 20
-17.3185
 11
-11.3534
 21
-17.4228
  0
LINE
  8
0
 10
-11.3534
 20
-17.4228
 11
-11.3832
 21
-17.5253
  0
LINE
  8
0
 10
-11.3832
 20
-17.5253
 11
-11.4194
 21
-17.6258
  0
LINE
  8
0
 10
-11.4194
 20
-17.6258
 11
-11.4618
 21
-17.7238
  0
LINE
  8
0
 10
-11.4618
 20
-17.7238
 11
-11.5103
 21
-17.819
  0
LINE
  8
0
 10
-11.5103
 20
-17.819
 11
-11.5646
 21
-17.9109
  0
LINE
  8
0
 10
-11.5646
 20
-17.9109
 11
-11.6247
 21
-17.9992
  0
LINE
  8
0
 10
-11.6247
 20
-17.9992
 11
-11.6901
 21
-18.0836
  0
LINE
  8
0
 10
-11.6901
 20
-18.0836
 11
-11.7607
 21
-18.1637
  0
LINE
  8
0
 10
-11.7607
 20
-18.1637
 11
-11.8363
 21
-18.2392
  0
LINE
  8
0
 10
-11.8363
 20
-18.2392
 11
-11.9164
 21
-18.3099
  0
LINE
  8
0
 10
-11.9164
 20
-18.3099
 11
-12.0008
 21
-18.3753
  0
LINE
  8
0
 10
-12.0008
 20
-18.3753
 11
-12.0891
 21
-18.4353
  0
LINE
  8
0
 10
-12.0891
 20
-18.4353
 11
-12.181
 21
-18.4897
  0
LINE
  8
0
 10
-12.181
 20
-18.4897
 11
-12.2762
 21
-18.5382
  0
LINE
  8
0
 10
-12.2762
 20
-18.5382
 11
-12.3742
 21
-18.5806
  0
LINE
  8
0
 10
-12.3742
 20
-18.5806
 11
-12.4747
 21
-18.6168
  0
LINE
  8
0
 10
-12.4747
 20
-18.6168
 11
-12.5772
 21
-18.6466
  0
LINE
  8
0
 10
-12.5772
 20
-18.6466
 11
-12.6814
 21
-18.6699
  0
LINE
  8
0
 10
-12.6814
 20
-18.6699
 11
-12.7869
 21
-18.6866
  0
LINE
  8
0
 10
-12.7869
 20
-18.6866
 11
-12.8932
 21
-18.6966
  0
LINE
  8
0
 10
-12.8932
 20
-18.6966
 11
-13
 21
-18.7
  0
LINE
  8
0
 10
-13
 20
-18.7
 11
-13.1067
 21
-18.6966
  0
LINE
  8
0
 10
12.8932
 20
-18.6966
 11
12.7869
 21
-18.6866
  0
LINE
  8
0
 10
12.7869
 20
-18.6866
 11
12.6814
 21
-18.6699
  0
LINE
  8
0
 10
12.6814
 20
-18.6699
 11
12.5772
 21
-18.6466
  0
LINE
  8
0
 10
12.5772
 20
-18.6466
 11
12.4747
 21
-18.6168
  0
LINE
  8
0
 10
12.4747
 20
-18.6168
 11
12.3742
 21
-18.5806
  0
LINE
  8
0
 10
12.3742
 20
-18.5806
 11
12.2762
 21
-18.5382
  0
LINE
  8
0
 10
12.2762
 20
-18.5382
 11
12.181
 21
-18.4897
  0
LINE
  8
0
 10
12.181
 20
-18.4897
 11
12.0891
 21
-18.4353
  0
LINE
  8
0
 10
12.0891
 20
-18.4353
 11
12.0008
 21
-18.3753
  0
LINE
  8
0
 10
12.0008
 20
-18.3753
 11
11.9164
 21
-18.3099
  0
LINE
  8
0
 10
11.9164
 20
-18.3099
 11
11.8363
 21
-18.2392
  0
LINE
  8
0
 10
11.8363
 20
-18.2392
 11
11.7607
 21
-18.1637
  0
LINE
  8
0
 10
11.7607
 20
-18.1637
 11
11.6901
 21
-18.0836
  0
LINE
  8
0
 10
11.6901
 20
-18.0836
 11
11.6247
 21
-17.9992
  0
LINE
  8
0
 10
11.6247
 20
-17.9992
 11
11.5646
 21
-17.9109
  0
LINE
  8
0
 10
11.5646
 20
-17.9109
 11
11.5103
 21
-17.819
  0
LINE
  8
0
 10
11.5103
 20
-17.819
 11
11.4618
 21
-17.7238
  0
LINE
  8
0
 10
11.4618
 20
-17.7238
 11
11.4194
 21
-17.6258
  0
LINE
  8
0
 10
11.4194
 20
-17.6258
 11
11.3832
 21
-17.5253
  0
LINE
  8
0
 10
11.3832
 20
-17.5253
 11
11.3534
 21
-17.4228
  0
LINE
  8
0
 10
11.3534
 20
-17.4228
 11
11.3301
 21
-17.3185
  0
LINE
  8
0
 10
11.3301
 20
-17.3185
 11
11.3134
 21
-17.2131
  0
LINE
  8
0
 10
11.3134
 20
-17.2131
 11
11.3033
 21
-17.1067
  0
LINE
  8
0
 10
11.3033
 20
-17.1067
 11
11.3
 21
-17
  0
LINE
  8
0
 10
11.3
 20
-17
 11
11.3033
 21
-16.8932
  0
LINE
  8
0
 10
11.3033
 20
-16.8932
 11
11.3134
 21
-16.7869
  0
LINE
  8
0
 10
11.3134
 20
-16.7869
 11
11.3301
 21
-16.6814
  0
LINE
  8
0
 10
11.3301
 20
-16.6814
 11
11.3534
 21
-16.5772
  0
LINE
  8
0
 10
11.3534
 20
-16.5772
 11
11.3832
 21
-16.4747
  0
LINE
  8
0
 10
11.3832
 20
-16.4747
 11
11.4194
 21
-16.3742
  0
LINE
  8
0
 10
11.4194
 20
-16.3742
 11
11.4618
 21
-16.2762
  0
LINE
  8
0
 10
11.4618
 20
-16.2762
 11
11.5103
 21
-16.181
  0
LINE
  8
0
 10
11.5103
 20
-16.181
 11
11.5646
 21
-16.0891
  0
LINE
  8
0
 10
11.5646
 20
-16.0891
 11
11.6247
 21
-16.0008
  0
LINE
  8
0
 10
11.6247
 20
-16.0008
 11
11.6901
 21
-15.9164
  0
LINE
  8
0
 10
11.6901
 20
-15.9164
 11
11.7607
 21
-15.8363
  0
LINE
  8
0
 10
11.7607
 20
-15.8363
 11
11.8363
 21
-15.7607
  0
LINE
  8
0
 10
11.8363
 20
-15.7607
 11
11.9164
 21
-15.6901
  0
LINE
  8
0
 10
11.9164
 20
-15.6901
 11
12.0008
 21
-15.6247
  0
LINE
  8
0
 10
12.0008
 20
-15.6247
 11
12.0891
 21
-15.5646
  0
LINE
  8
0
 10
12.0891
 20
-15.5646
 11
12.181
 21
-15.5103
  0
LINE
  8
0
 10
12.181
 20
-15.5103
 11
12.2762
 21
-15.4618
  0
LINE
  8
0
 10
12.2762
 20
-15.4618
 11
12.3742
 21
-15.4194
  0
LINE
  8
0
 10
12.3742
 20
-15.4194
 11
12.4747
 21
-15.3832
  0
LINE
  8
0
 10
12.4747
 20
-15.3832
 11
12.5772
 21
-15.3534
  0
LINE
  8
0
 10
12.5772
 20
-15.3534
 11
12.6814
 21
-15.3301
  0
LINE
  8
0
 10
12.6814
 20
-15.3301
 11
12.7869
 21
-15.3134
  0
LINE
  8
0
 10
12.7869
 20
-15.3134
 11
12.8932
 21
-15.3033
  0
LINE
  8
0
 10
12.8932
 20
-15.3033
 11
13
 21
-15.3
  0
LINE
  8
0
 10
13
 20
-15.3
 11
13.1067
 21
-15.3033
  0
LINE
  8
0
 10
13.1067
 20
-15.3033
 11
13.2131
 21
-15.3134
  0
LINE
  8
0
 10
13.2131
 20
-15.3134
 11
13.3185
 21
-15.3301
  0
LINE
  8
0
 10
13.3185
 20
-15.3301
 11
13.4228
 21
-15.3534
  0
LINE
  8
0
 10
13.4228
 20
-15.3534
 11
13.5253
 21
-15.3832
  0
LINE
  8
0
 10
13.5253
 20
-15.3832
 11
13.6258
 21
-15.4194
  0
LINE
  8
0
 10
13.6258
 20
-15.4194
 11
13.7238
 21
-15.4618
  0
LINE
  8
0
 10
13.7238
 20
-15.4618
 11
13.819
 21
-15.5103
  0
LINE
  8
0
 10
13.819
 20
-15.5103
 11
13.9109
 21
-15.5646
  0
LINE
  8
0
 10
13.9109
 20
-15.5646
 11
13.9992
 21
-15.6247
  0
LINE
  8
0
 10
13.9992
 20
-15.6247
 11
14.0836
 21
-15.6901
  0
LINE
  8
0
 10
14.0836
 20
-15.6901
 11
14.1637
 21
-15.7607
  0
LINE
  8
0
 10
14.1637
 20
-15.7607
 11
14.2392
 21
-15.8363
  0
LINE
  8
0
 10
14.2392
 20
-15.8363
 11
14.3099
 21
-15.9164
  0
LINE
  8
0
 10
14.3099
 20
-15.9164
 11
14.3753
 21
-16.0008
  0
LINE
  8
0
 10
14.3753
 20
-16.0008
 11
14.4353
 21
-16.0891
  0
LINE
  8
0
 10
14.4353
 20
-16.0891
 11
14.4897
 21
-16.181
  0
LINE
  8
0
 10
14.4897
 20
-16.181
 11
14.5382
 21
-16.2762
  0
LINE
  8
0
 10
14.5382
 20
-16.2762
 11
14.5806
 21
-16.3742
  0
LINE
  8
0
 10
14.5806
 20
-16.3742
 11
14.6168
 21
-16.4747
  0
LINE
  8
0
 10
14.6168
 20
-16.4747
 11
14.6466
 21
-16.5772
  0
LINE
  8
0
 10
14.6466
 20
-16.5772
 11
14.6699
 21
-16.6814
  0
LINE
  8
0
 10
14.6699
 20
-16.6814
 11
14.6866
 21
-16.7869
  0
LINE
  8
0
 10
14.6866
 20
-16.7869
 11
14.6966
 21
-16.8932
  0
LINE
  8
0
 10
14.6966
 20
-16.8932
 11
14.7
 21
-17
  0
LINE
  8
0
 10
14.7
 20
-17
 11
14.6966
 21
-17.1067
  0
LINE
  8
0
 10
14.6966
 20
-17.1067
 11
14.6866
 21
-17.2131
  0
LINE
  8
0
 10
14.6866
 20
-17.2131
 11
14.6699
 21
-17.3185
  0
LINE
  8
0
 10
14.6699
 20
-17.3185
 11
14.6466
 21
-17.4228
  0
LINE
  8
0
 10
14.6466
 20
-17.4228
 11
14.6168
 21
-17.5253
  0
LINE
  8
0
 10
14.6168
 20
-17.5253
 11
14.5806
 21
-17.6258
  0
LINE
  8
0
 10
14.5806
 20
-17.6258
 11
14.5382
 21
-17.7238
  0
LINE
  8
0
 10
14.5382
 20
-17.7238
 11
14.4897
 21
-17.819
  0
LINE
  8
0
 10
14.4897
 20
-17.819
 11
14.4353
 21
-17.9109
  0
LINE
  8
0
 10
14.4353
 20
-17.9109
 11
14.3753
 21
-17.9992
  0
LINE
  8
0
 10
14.3753
 20
-17.9992
 11
14.3099
 21
-18.0836
  0
LINE
  8
0
 10
14.3099
 20
-18.0836
 11
14.2392
 21
-18.1637
  0
LINE
  8
0
 10
14.2392
 20
-18.1637
 11
14.1637
 21
-18.2392
  0
LINE
  8
0
 10
14.1637
 20
-18.2392
 11
14.0836
 21
-18.3099
  0
LINE
  8
0
 10
14.0836
 20
-18.3099
 11
13.9992
 21
-18.3753
  0
LINE
  8
0
 10
13.9992
 20
-18.3753
 11
13.9109
 21
-18.4353
  0
LINE
  8
0
 10
13.9109
 20
-18.4353
 11
13.819
 21
-18.4897
  0
LINE
  8
0
 10
13.819
 20
-18.4897
 11
13.7238
 21
-18.5382
  0
LINE
  8
0
 10
13.7238
 20
-18.5382
 11
13.6258
 21
-18.5806
  0
LINE
  8
0
 10
13.6258
 20
-18.5806
 11
13.5253
 21
-18.6168
  0
LINE
  8
0
 10
13.5253
 20
-18.6168
 11
13.4228
 21
-18.6466
  0
LINE
  8
0
 10
13.4228
 20
-18.6466
 11
13.3185
 21
-18.6699
  0
LINE
  8
0
 10
13.3185
 20
-18.6699
 11
13.2131
 21
-18.6866
  0
LINE
  8
0
 10
13.2131
 20
-18.6866
 11
13.1067
 21
-18.6966
  0
LINE
  8
0
 10
13.1067
 20
-18.6966
 11
13
 21
-18.7
  0
LINE
  8
0
 10
13
 20
-18.7
 11
12.8932
 21
-18.6966
  0
LINE
  8
0
 10
-22.3567
 20
-18.7566
 11
-22.4631
 21
-18.7466
  0
LINE
  8
0
 10
-22.4631
 20
-18.7466
 11
-22.5685
 21
-18.7299
  0
LINE
  8
0
 10
-22.5685
 20
-18.7299
 11
-22.6728
 21
-18.7066
  0
LINE
  8
0
 10
-22.6728
 20
-18.7066
 11
-22.7753
 21
-18.6768
  0
LINE
  8
0
 10
-22.7753
 20
-18.6768
 11
-22.8758
 21
-18.6406
  0
LINE
  8
0
 10
-22.8758
 20
-18.6406
 11
-22.9738
 21
-18.5982
  0
LINE
  8
0
 10
-22.9738
 20
-18.5982
 11
-23.069
 21
-18.5497
  0
LINE
  8
0
 10
-23.069
 20
-18.5497
 11
-23.1609
 21
-18.4953
  0
LINE
  8
0
 10
-23.1609
 20
-18.4953
 11
-23.2492
 21
-18.4353
  0
LINE
  8
0
 10
-23.2492
 20
-18.4353
 11
-23.3336
 21
-18.3699
  0
LINE
  8
0
 10
-23.3336
 20
-18.3699
 11
-23.4137
 21
-18.2992
  0
LINE
  8
0
 10
-23.4137
 20
-18.2992
 11
-23.4892
 21
-18.2237
  0
LINE
  8
0
 10
-23.4892
 20
-18.2237
 11
-23.5599
 21
-18.1436
  0
LINE
  8
0
 10
-23.5599
 20
-18.1436
 11
-23.6253
 21
-18.0592
  0
LINE
  8
0
 10
-23.6253
 20
-18.0592
 11
-23.6853
 21
-17.9709
  0
LINE
  8
0
 10
-23.6853
 20
-17.9709
 11
-23.7397
 21
-17.879
  0
LINE
  8
0
 10
-23.7397
 20
-17.879
 11
-23.7882
 21
-17.7838
  0
LINE
  8
0
 10
-23.7882
 20
-17.7838
 11
-23.8306
 21
-17.6858
  0
LINE
  8
0
 10
-23.8306
 20
-17.6858
 11
-23.8668
 21
-17.5853
  0
LINE
  8
0
 10
-23.8668
 20
-17.5853
 11
-23.8966
 21
-17.4828
  0
LINE
  8
0
 10
-23.8966
 20
-17.4828
 11
-23.9199
 21
-17.3785
  0
LINE
  8
0
 10
-23.9199
 20
-17.3785
 11
-23.9366
 21
-17.2731
  0
LINE
  8
0
 10
-23.9366
 20
-17.2731
 11
-23.9466
 21
-17.1667
  0
LINE
  8
0
 10
-23.9466
 20
-17.1667
 11
-23.95
 21
-17.06
  0
LINE
  8
0
 10
-23.95
 20
-17.06
 11
-23.9466
 21
-16.9532
  0
LINE
  8
0
 10
-23.9466
 20
-16.9532
 11
-23.9366
 21
-16.8469
  0
LINE
  8
0
 10
-23.9366
 20
-16.8469
 11
-23.9199
 21
-16.7414
  0
LINE
  8
0
 10
-23.9199
 20
-16.7414
 11
-23.8966
 21
-16.6372
  0
LINE
  8
0
 10
-23.8966
 20
-16.6372
 11
-23.8668
 21
-16.5347
  0
LINE
  8
0
 10
-23.8668
 20
-16.5347
 11
-23.8306
 21
-16.4342
  0
LINE
  8
0
 10
-23.8306
 20
-16.4342
 11
-23.7882
 21
-16.3362
  0
LINE
  8
0
 10
-23.7882
 20
-16.3362
 11
-23.7397
 21
-16.241
  0
LINE
  8
0
 10
-23.7397
 20
-16.241
 11
-23.6853
 21
-16.1491
  0
LINE
  8
0
 10
-23.6853
 20
-16.1491
 11
-23.6253
 21
-16.0608
  0
LINE
  8
0
 10
-23.6253
 20
-16.0608
 11
-23.5599
 21
-15.9764
  0
LINE
  8
0
 10
-23.5599
 20
-15.9764
 11
-23.4892
 21
-15.8963
  0
LINE
  8
0
 10
-23.4892
 20
-15.8963
 11
-23.4137
 21
-15.8207
  0
LINE
  8
0
 10
-23.4137
 20
-15.8207
 11
-23.3336
 21
-15.7501
  0
LINE
  8
0
 10
-23.3336
 20
-15.7501
 11
-23.2492
 21
-15.6847
  0
LINE
  8
0
 10
-23.2492
 20
-15.6847
 11
-23.1609
 21
-15.6246
  0
LINE
  8
0
 10
-23.1609
 20
-15.6246
 11
-23.069
 21
-15.5703
  0
LINE
  8
0
 10
-23.069
 20
-15.5703
 11
-22.9738
 21
-15.5218
  0
LINE
  8
0
 10
-22.9738
 20
-15.5218
 11
-22.8758
 21
-15.4794
  0
LINE
  8
0
 10
-22.8758
 20
-15.4794
 11
-22.7753
 21
-15.4432
  0
LINE
  8
0
 10
-22.7753
 20
-15.4432
 11
-22.6728
 21
-15.4134
  0
LINE
  8
0
 10
-22.6728
 20
-15.4134
 11
-22.5685
 21
-15.3901
  0
LINE
  8
0
 10
-22.5685
 20
-15.3901
 11
-22.4631
 21
-15.3734
  0
LINE
  8
0
 10
-22.4631
 20
-15.3734
 11
-22.3567
 21
-15.3633
  0
LINE
  8
0
 10
-22.3567
 20
-15.3633
 11
-22.25
 21
-15.36
  0
LINE
  8
0
 10
-22.25
 20
-15.36
 11
-22.1432
 21
-15.3633
  0
LINE
  8
0
 10
-22.1432
 20
-15.3633
 11
-22.0369
 21
-15.3734
  0
LINE
  8
0
 10
-22.0369
 20
-15.3734
 11
-21.9314
 21
-15.3901
  0
LINE
  8
0
 10
-21.9314
 20
-15.3901
 11
-21.8272
 21
-15.4134
  0
LINE
  8
0
 10
-21.8272
 20
-15.4134
 11
-21.7247
 21
-15.4432
  0
LINE
  8
0
 10
-21.7247
 20
-15.4432
 11
-21.6242
 21
-15.4794
  0
LINE
  8
0
 10
-21.6242
 20
-15.4794
 11
-21.5262
 21
-15.5218
  0
LINE
  8
0
 10
-21.5262
 20
-15.5218
 11
-21.431
 21
-15.5703
  0
LINE
  8
0
 10
-21.431
 20
-15.5703
 11
-21.3391
 21
-15.6246
  0
LINE
  8
0
 10
-21.3391
 20
-15.6246
 11
-21.2508
 21
-15.6847
  0
LINE
  8
0
 10
-21.2508
 20
-15.6847
 11
-21.1664
 21
-15.7501
  0
LINE
  8
0
 10
-21.1664
 20
-15.7501
 11
-21.0863
 21
-15.8207
  0
LINE
  8
0
 10
-21.0863
 20
-15.8207
 11
-21.0107
 21
-15.8963
  0
LINE
  8
0
 10
-21.0107
 20
-15.8963
 11
-20.9401
 21
-15.9764
  0
LINE
  8
0
 10
-20.9401
 20
-15.9764
 11
-20.8747
 21
-16.0608
  0
LINE
  8
0
 10
-20.8747
 20
-16.0608
 11
-20.8146
 21
-16.1491
  0
LINE
  8
0
 10
-20.8146
 20
-16.1491
 11
-20.7603
 21
-16.241
  0
LINE
  8
0
 10
-20.7603
 20
-16.241
 11
-20.7118
 21
-16.3362
  0
LINE
  8
0
 10
-20.7118
 20
-16.3362
 11
-20.6694
 21
-16.4342
  0
LINE
  8
0
 10
-20.6694
 20
-16.4342
 11
-20.6332
 21
-16.5347
  0
LINE
  8
0
 10
-20.6332
 20
-16.5347
 11
-20.6034
 21
-16.6372
  0
LINE
  8
0
 10
-20.6034
 20
-16.6372
 11
-20.5801
 21
-16.7414
  0
LINE
  8
0
 10
-20.5801
 20
-16.7414
 11
-20.5634
 21
-16.8469
  0
LINE
  8
0
 10
-20.5634
 20
-16.8469
 11
-20.5533
 21
-16.9532
  0
LINE
  8
0
 10
-20.5533
 20
-16.9532
 11
-20.55
 21
-17.06
  0
LINE
  8
0
 10
-20.55
 20
-17.06
 11
-20.5533
 21
-17.1667
  0
LINE
  8
0
 10
-20.5533
 20
-17.1667
 11
-20.5634
 21
-17.2731
  0
LINE
  8
0
 10
-20.5634
 20
-17.2731
 11
-20.5801
 21
-17.3785
  0
LINE
  8
0
 10
-20.5801
 20
-17.3785
 11
-20.6034
 21
-17.4828
  0
LINE
  8
0
 10
-20.6034
 20
-17.4828
 11
-20.6332
 21
-17.5853
  0
LINE
  8
0
 10
-20.6332
 20
-17.5853
 11
-20.6694
 21
-17.6858
  0
LINE
  8
0
 10
-20.6694
 20
-17.6858
 11
-20.7118
 21
-17.7838
  0
LINE
  8
0
 10
-20.7118
 20
-17.7838
 11
-20.7603
 21
-17.879
  0
LINE
  8
0
 10
-20.7603
 20
-17.879
 11
-20.8146
 21
-17.9709
  0
LINE
  8
0
 10
-20.8146
 20
-17.9709
 11
-20.8747
 21
-18.0592
  0
LINE
  8
0
 10
-20.8747
 20
-18.0592
 11
-20.9401
 21
-18.1436
  0
LINE
  8
0
 10
-20.9401
 20
-18.1436
 11
-21.0107
 21
-18.2237
  0
LINE
  8
0
 10
-21.0107
 20
-18.2237
 11
-21.0863
 21
-18.2992
  0
LINE
  8
0
 10
-21.0863
 20
-18.2992
 11
-21.1664
 21
-18.3699
  0
LINE
  8
0
 10
-21.1664
 20
-18.3699
 11
-21.2508
 21
-18.4353
  0
LINE
  8
0
 10
-21.2508
 20
-18.4353
 11
-21.3391
 21
-18.4953
  0
LINE
  8
0
 10
-21.3391
 20
-18.4953
 11
-21.431
 21
-18.5497
  0
LINE
  8
0
 10
-21.431
 20
-18.5497
 11
-21.5262
 21
-18.5982
  0
LINE
  8
0
 10
-21.5262
 20
-18.5982
 11
-21.6242
 21
-18.6406
  0
LINE
  8
0
 10
-21.6242
 20
-18.6406
 11
-21.7247
 21
-18.6768
  0
LINE
  8
0
 10
-21.7247
 20
-18.6768
 11
-21.8272
 21
-18.7066
  0
LINE
  8
0
 10
-21.8272
 20
-18.7066
 11
-21.9314
 21
-18.7299
  0
LINE
  8
0
 10
-21.9314
 20
-18.7299
 11
-22.0369
 21
-18.7466
  0
LINE
  8
0
 10
-22.0369
 20
-18.7466
 11
-22.1432
 21
-18.7566
  0
LINE
  8
0
 10
-22.1432
 20
-18.7566
 11
-22.25
 21
-18.76
  0
LINE
  8
0
 10
-22.25
 20
-18.76
 11
-22.3567
 21
-18.7566
  0
LINE
  8
0
 10
22.1432
 20
-18.7566
 11
22.0369
 21
-18.7466
  0
LINE
  8
0
 10
22.0369
 20
-18.7466
 11
21.9314
 21
-18.7299
  0
LINE
  8
0
 10
21.9314
 20
-18.7299
 11
21.8272
 21
-18.7066
  0
LINE
  8
0
 10
21.8272
 20
-18.7066
 11
21.7247
 21
-18.6768
  0
LINE
  8
0
 10
21.7247
 20
-18.6768
 11
21.6242
 21
-18.6406
  0
LINE
  8
0
 10
21.6242
 20
-18.6406
 11
21.5262
 21
-18.5982
  0
LINE
  8
0
 10
21.5262
 20
-18.5982
 11
21.431
 21
-18.5497
  0
LINE
  8
0
 10
21.431
 20
-18.5497
 11
21.3391
 21
-18.4953
  0
LINE
  8
0
 10
21.3391
 20
-18.4953
 11
21.2508
 21
-18.4353
  0
LINE
  8
0
 10
21.2508
 20
-18.4353
 11
21.1664
 21
-18.3699
  0
LINE
  8
0
 10
21.1664
 20
-18.3699
 11
21.0863
 21
-18.2992
  0
LINE
  8
0
 10
21.0863
 20
-18.2992
 11
21.0107
 21
-18.2237
  0
LINE
  8
0
 10
21.0107
 20
-18.2237
 11
20.9401
 21
-18.1436
  0
LINE
  8
0
 10
20.9401
 20
-18.1436
 11
20.8747
 21
-18.0592
  0
LINE
  8
0
 10
20.8747
 20
-18.0592
 11
20.8146
 21
-17.9709
  0
LINE
  8
0
 10
20.8146
 20
-17.9709
 11
20.7603
 21
-17.879
  0
LINE
  8
0
 10
20.7603
 20
-17.879
 11
20.7118
 21
-17.7838
  0
LINE
  8
0
 10
20.7118
 20
-17.7838
 11
20.6694
 21
-17.6858
  0
LINE
  8
0
 10
20.6694
 20
-17.6858
 11
20.6332
 21
-17.5853
  0
LINE
  8
0
 10
20.6332
 20
-17.5853
 11
20.6034
 21
-17.4828
  0
LINE
  8
0
 10
20.6034
 20
-17.4828
 11
20.5801
 21
-17.3785
  0
LINE
  8
0
 10
20.5801
 20
-17.3785
 11
20.5634
 21
-17.2731
  0
LINE
  8
0
 10
20.5634
 20
-17.2731
 11
20.5533
 21
-17.1667
  0
LINE
  8
0
 10
20.5533
 20
-17.1667
 11
20.55
 21
-17.06
  0
LINE
  8
0
 10
20.55
 20
-17.06
 11
20.5533
 21
-16.9532
  0
LINE
  8
0
 10
20.5533
 20
-16.9532
 11
20.5634
 21
-16.8469
  0
LINE
  8
0
 10
20.5634
 20
-16.8469
 11
20.5801
 21
-16.7414
  0
LINE
  8
0
 10
20.5801
 20
-16.7414
 11
20.6034
 21
-16.6372
  0
LINE
  8
0
 10
20.6034
 20
-16.6372
 11
20.6332
 21
-16.5347
  0
LINE
  8
0
 10
20.6332
 20
-16.5347
 11
20.6694
 21
-16.4342
  0
LINE
  8
0
 10
20.6694
 20
-16.4342
 11
20.7118
 21
-16.3362
  0
LINE
  8
0
 10
20.7118
 20
-16.3362
 11
20.7603
 21
-16.241
  0
LINE
  8
0
 10
20.7603
 20
-16.241
 11
20.8146
 21
-16.1491
  0
LINE
  8
0
 10
20.8146
 20
-16.1491
 11
20.8747
 21
-16.0608
  0
LINE
  8
0
 10
20.8747
 20
-16.0608
 11
20.9401
 21
-15.9764
  0
LINE
  8
0
 10
20.9401
 20
-15.9764
 11
21.0107
 21
-15.8963
  0
LINE
  8
0
 10
21.0107
 20
-15.8963
 11
21.0863
 21
-15.8207
  0
LINE
  8
0
 10
21.0863
 20
-15.8207
 11
21.1664
 21
-15.7501
  0
LINE
  8
0
 10
21.1664
 20
-15.7501
 11
21.2508
 21
-15.6847
  0
LINE
  8
0
 10
21.2508
 20
-15.6847
 11
21.3391
 21
-15.6246
  0
LINE
  8
0
 10
21.3391
 20
-15.6246
 11
21.431
 21
-15.5703
  0
LINE
  8
0
 10
21.431
 20
-15.5703
 11
21.5262
 21
-15.5218
  0
LINE
  8
0
 10
21.5262
 20
-15.5218
 11
21.6242
 21
-15.4794
  0
LINE
  8
0
 10
21.6242
 20
-15.4794
 11
21.7247
 21
-15.4432
  0
LINE
  8
0
 10
21.7247
 20
-15.4432
 11
21.8272
 21
-15.4134
  0
LINE
  8
0
 10
21.8272
 20
-15.4134
 11
21.9314
 21
-15.3901
  0
LINE
  8
0
 10
21.9314
 20
-15.3901
 11
22.0369
 21
-15.3734
  0
LINE
  8
0
 10
22.0369
 20
-15.3734
 11
22.1432
 21
-15.3633
  0
LINE
  8
0
 10
22.1432
 20
-15.3633
 11
22.25
 21
-15.36
  0
LINE
  8
0
 10
22.25
 20
-15.36
 11
22.3567
 21
-15.3633
  0
LINE
  8
0
 10
22.3567
 20
-15.3633
 11
22.4631
 21
-15.3734
  0
LINE
  8
0
 10
22.4631
 20
-15.3734
 11
22.5685
 21
-15.3901
  0
LINE
  8
0
 10
22.5685
 20
-15.3901
 11
22.6728
 21
-15.4134
  0
LINE
  8
0
 10
22.6728
 20
-15.4134
 11
22.7753
 21
-15.4432
  0
LINE
  8
0
 10
22.7753
 20
-15.4432
 11
22.8758
 21
-15.4794
  0
LINE
  8
0
 10
22.8758
 20
-15.4794
 11
22.9738
 21
-15.5218
  0
LINE
  8
0
 10
22.9738
 20
-15.5218
 11
23.069
 21
-15.5703
  0
LINE
  8
0
 10
23.069
 20
-15.5703
 11
23.1609
 21
-15.6246
  0
LINE
  8
0
 10
23.1609
 20
-15.6246
 11
23.2492
 21
-15.6847
  0
LINE
  8
0
 10
23.2492
 20
-15.6847
 11
23.3336
 21
-15.7501
  0
LINE
  8
0
 10
23.3336
 20
-15.7501
 11
23.4137
 21
-15.8207
  0
LINE
  8
0
 10
23.4137
 20
-15.8207
 11
23.4892
 21
-15.8963
  0
LINE
  8
0
 10
23.4892
 20
-15.8963
 11
23.5599
 21
-15.9764
  0
LINE
  8
0
 10
23.5599
 20
-15.9764
 11
23.6253
 21
-16.0608
  0
LINE
  8
0
 10
23.6253
 20
-16.0608
 11
23.6853
 21
-16.1491
  0
LINE
  8
0
 10
23.6853
 20
-16.1491
 11
23.7397
 21
-16.241
  0
LINE
  8
0
 10
23.7397
 20
-16.241
 11
23.7882
 21
-16.3362
  0
LINE
  8
0
 10
23.7882
 20
-16.3362
 11
23.8306
 21
-16.4342
  0
LINE
  8
0
 10
23.8306
 20
-16.4342
 11
23.8668
 21
-16.5347
  0
LINE
  8
0
 10
23.8668
 20
-16.5347
 11
23.8966
 21
-16.6372
  0
LINE
  8
0
 10
23.8966
 20
-16.6372
 11
23.9199
 21
-16.7414
  0
LINE
  8
0
 10
23.9199
 20
-16.7414
 11
23.9366
 21
-16.8469
  0
LINE
  8
0
 10
23.9366
 20
-16.8469
 11
23.9466
 21
-16.9532
  0
LINE
  8
0
 10
23.9466
 20
-16.9532
 11
23.95
 21
-17.06
  0
LINE
  8
0
 10
23.95
 20
-17.06
 11
23.9466
 21
-17.1667
  0
LINE
  8
0
 10
23.9466
 20
-17.1667
 11
23.9366
 21
-17.2731
  0
LINE
  8
0
 10
23.9366
 20
-17.2731
 11
23.9199
 21
-17.3785
  0
LINE
  8
0
 10
23.9199
 20
-17.3785
 11
23.8966
 21
-17.4828
  0
LINE
  8
0
 10
23.8966
 20
-17.4828
 11
23.8668
 21
-17.5853
  0
LINE
  8
0
 10
23.8668
 20
-17.5853
 11
23.8306
 21
-17.6858
  0
LINE
  8
0
 10
23.8306
 20
-17.6858
 11
23.7882
 21
-17.7838
  0
LINE
  8
0
 10
23.7882
 20
-17.7838
 11
23.7397
 21
-17.879
  0
LINE
  8
0
 10
23.7397
 20
-17.879
 11
23.6853
 21
-17.9709
  0
LINE
  8
0
 10
23.6853
 20
-17.9709
 11
23.6253
 21
-18.0592
  0
LINE
  8
0
 10
23.6253
 20
-18.0592
 11
23.5599
 21
-18.1436
  0
LINE
  8
0
 10
23.5599
 20
-18.1436
 11
23.4892
 21
-18.2237
  0
LINE
  8
0
 10
23.4892
 20
-18.2237
 11
23.4137
 21
-18.2992
  0
LINE
  8
0
 10
23.4137
 20
-18.2992
 11
23.3336
 21
-18.3699
  0
LINE
  8
0
 10
23.3336
 20
-18.3699
 11
23.2492
 21
-18.4353
  0
LINE
  8
0
 10
23.2492
 20
-18.4353
 11
23.1609
 21
-18.4953
  0
LINE
  8
0
 10
23.1609
 20
-18.4953
 11
23.069
 21
-18.5497
  0
LINE
  8
0
 10
23.069
 20
-18.5497
 11
22.9738
 21
-18.5982
  0
LINE
  8
0
 10
22.9738
 20
-18.5982
 11
22.8758
 21
-18.6406
  0
LINE
  8
0
 10
22.8758
 20
-18.6406
 11
22.7753
 21
-18.6768
  0
LINE
  8
0
 10
22.7753
 20
-18.6768
 11
22.6728
 21
-18.7066
  0
LINE
  8
0
 10
22.6728
 20
-18.7066
 11
22.5685
 21
-18.7299
  0
LINE
  8
0
 10
22.5685
 20
-18.7299
 11
22.4631
 21
-18.7466
  0
LINE
  8
0
 10
22.4631
 20
-18.7466
 11
22.3567
 21
-18.7566
  0
LINE
  8
0
 10
22.3567
 20
-18.7566
 11
22.25
 21
-18.76
  0
LINE
  8
0
 10
22.25
 20
-18.76
 11
22.1432
 21
-18.7566
  0
LINE
  8
0
 10
-0.37674
 20
-35.9882
 11
-0.751999
 21
-35.9527
  0
LINE
  8
0
 10
-0.751999
 20
-35.9527
 11
-1.12428
 21
-35.8937
  0
LINE
  8
0
 10
-1.12428
 20
-35.8937
 11
-1.49213
 21
-35.8115
  0
LINE
  8
0
 10
-1.49213
 20
-35.8115
 11
-1.8541
 21
-35.7063
  0
LINE
  8
0
 10
-1.8541
 20
-35.7063
 11
-2.20874
 21
-35.5787
  0
LINE
  8
0
 10
-2.20874
 20
-35.5787
 11
-2.55467
 21
-35.429
  0
LINE
  8
0
 10
-2.55467
 20
-35.429
 11
-2.89052
 21
-35.2578
  0
LINE
  8
0
 10
-2.89052
 20
-35.2578
 11
-3.21495
 21
-35.066
  0
LINE
  8
0
 10
-3.21495
 20
-35.066
 11
-3.5267
 21
-34.8541
  0
LINE
  8
0
 10
-3.5267
 20
-34.8541
 11
-3.82454
 21
-34.6231
  0
LINE
  8
0
 10
-3.82454
 20
-34.6231
 11
-4.10727
 21
-34.3738
  0
LINE
  8
0
 10
-4.10727
 20
-34.3738
 11
-4.37381
 21
-34.1073
  0
LINE
  8
0
 10
-4.37381
 20
-34.1073
 11
-4.62308
 21
-33.8245
  0
LINE
  8
0
 10
-4.62308
 20
-33.8245
 11
-4.8541
 21
-33.5267
  0
LINE
  8
0
 10
-4.8541
 20
-33.5267
 11
-5.06596
 21
-33.215
  0
LINE
  8
0
 10
-5.06596
 20
-33.215
 11
-5.25783
 21
-32.8905
  0
LINE
  8
0
 10
-5.25783
 20
-32.8905
 11
-5.42896
 21
-32.5547
  0
LINE
  8
0
 10
-5.42896
 20
-32.5547
 11
-5.57864
 21
-32.2087
  0
LINE
  8
0
 10
-5.57864
 20
-32.2087
 11
-5.70633
 21
-31.8541
  0
LINE
  8
0
 10
-5.70633
 20
-31.8541
 11
-5.81149
 21
-31.4921
  0
LINE
  8
0
 10
-5.81149
 20
-31.4921
 11
-5.89372
 21
-31.1243
  0
LINE
  8
0
 10
-5.89372
 20
-31.1243
 11
-5.95268
 21
-30.752
  0
LINE
  8
0
 10
-5.95268
 20
-30.752
 11
-5.98816
 21
-30.3767
  0
LINE
  8
0
 10
-5.98816
 20
-30.3767
 11
-6
 21
-30
  0
LINE
  8
0
 10
-6
 20
-30
 11
-5.98816
 21
-29.6232
  0
LINE
  8
0
 10
-5.98816
 20
-29.6232
 11
-5.95268
 21
-29.248
  0
LINE
  8
0
 10
-5.95268
 20
-29.248
 11
-5.89372
 21
-28.8757
  0
LINE
  8
0
 10
-5.89372
 20
-28.8757
 11
-5.81149
 21
-28.5079
  0
LINE
  8
0
 10
-5.81149
 20
-28.5079
 11
-5.70633
 21
-28.1459
  0
LINE
  8
0
 10
-5.70633
 20
-28.1459
 11
-5.57864
 21
-27.7912
  0
LINE
  8
0
 10
-5.57864
 20
-27.7912
 11
-5.42896
 21
-27.4453
  0
LINE
  8
0
 10
-5.42896
 20
-27.4453
 11
-5.25783
 21
-27.1095
  0
LINE
  8
0
 10
-5.25783
 20
-27.1095
 11
-5.06596
 21
-26.785
  0
LINE
  8
0
 10
-5.06596
 20
-26.785
 11
-4.8541
 21
-26.4733
  0
LINE
  8
0
 10
-4.8541
 20
-26.4733
 11
-4.62308
 21
-26.1754
  0
LINE
  8
0
 10
-4.62308
 20
-26.1754
 11
-4.37381
 21
-25.8927
  0
LINE
  8
0
 10
-4.37381
 20
-25.8927
 11
-4.10727
 21
-25.6262
  0
LINE
  8
0
 10
-4.10727
 20
-25.6262
 11
-3.82454
 21
-25.3769
  0
LINE
  8
0
 10
-3.82454
 20
-25.3769
 11
-3.5267
 21
-25.1459
  0
LINE
  8
0
 10
-3.5267
 20
-25.1459
 11
-3.21495
 21
-24.934
  0
LINE
  8
0
 10
-3.21495
 20
-24.934
 11
-2.89052
 21
-24.7422
  0
LINE
  8
0
 10
-2.89052
 20
-24.7422
 11
-2.55467
 21
-24.571
  0
LINE
  8
0
 10
-2.55467
 20
-24.571
 11
-2.20874
 21
-24.4213
  0
LINE
  8
0
 10
-2.20874
 20
-24.4213
 11
-1.8541
 21
-24.2937
  0
LINE
  8
0
 10
-1.8541
 20
-24.2937
 11
-1.49213
 21
-24.1885
  0
LINE
  8
0
 10
-1.49213
 20
-24.1885
 11
-1.12428
 21
-24.1063
  0
LINE
  8
0
 10
-1.12428
 20
-24.1063
 11
-0.751999
 21
-24.0473
  0
LINE
  8
0
 10
-0.751999
 20
-24.0473
 11
-0.37674
 21
-24.0118
  0
LINE
  8
0
 10
-0.37674
 20
-24.0118
 11
0
 21
-24
  0
LINE
  8
0
 10
0
 20
-24
 11
0.37674
 21
-24.0118
  0
LINE
  8
0
 10
0.37674
 20
-24.0118
 11
0.751999
 21
-24.0473
  0
LINE
  8
0
 10
0.751999
 20
-24.0473
 11
1.12428
 21
-24.1063
  0
LINE
  8
0
 10
1.12428
 20
-24.1063
 11
1.49213
 21
-24.1885
  0
LINE
  8
0
 10
1.49213
 20
-24.1885
 11
1.8541
 21
-24.2937
  0
LINE
  8
0
 10
1.8541
 20
-24.2937
 11
2.20874
 21
-24.4213
  0
LINE
  8
0
 10
2.20874
 20
-24.4213
 11
2.55467
 21
-24.571
  0
LINE
  8
0
 10
2.55467
 20
-24.571
 11
2.89052
 21
-24.7422
  0
LINE
  8
0
 10
2.89052
 20
-24.7422
 11
3.21495
 21
-24.934
  0
LINE
  8
0
 10
3.21495
 20
-24.934
 11
3.5267
 21
-25.1459
  0
LINE
  8
0
 10
3.5267
 20
-25.1459
 11
3.82454
 21
-25.3769
  0
LINE
  8
0
 10
3.82454
 20
-25.3769
 11
4.10727
 21
-25.6262
  0
LINE
  8
0
 10
4.10727
 20
-25.6262
 11
4.37381
 21
-25.8927
  0
LINE
  8
0
 10
4.37381
 20
-25.8927
 11
4.62308
 21
-26.1754
  0
LINE
  8
0
 10
4.62308
 20
-26.1754
 11
4.8541
 21
-26.4733
  0
LINE
  8
0
 10
4.8541
 20
-26.4733
 11
5.06596
 21
-26.785
  0
LINE
  8
0
 10
5.06596
 20
-26.785
 11
5.25783
 21
-27.1095
  0
LINE
  8
0
 10
5.25783
 20
-27.1095
 11
5.42896
 21
-27.4453
  0
LINE
  8
0
 10
5.42896
 20
-27.4453
 11
5.57864
 21
-27.7912
  0
LINE
  8
0
 10
5.57864
 20
-27.7912
 11
5.70633
 21
-28.1459
  0
LINE
  8
0
 10
5.70633
 20
-28.1459
 11
5.81149
 21
-28.5079
  0
LINE
  8
0
 10
5.81149
 20
-28.5079
 11
5.89372
 21
-28.8757
  0
LINE
  8
0
 10
5.89372
 20
-28.8757
 11
5.95268
 21
-29.248
  0
LINE
  8
0
 10
5.95268
 20
-29.248
 11
5.98816
 21
-29.6232
  0
LINE
  8
0
 10
5.98816
 20
-29.6232
 11
6
 21
-30
  0
LINE
  8
0
 10
6
 20
-30
 11
5.98816
 21
-30.3767
  0
LINE
  8
0
 10
5.98816
 20
-30.3767
 11
5.95268
 21
-30.752
  0
LINE
  8
0
 10
5.95268
 20
-30.752
 11
5.89372
 21
-31.1243
  0
LINE
  8
0
 10
5.89372
 20
-31.1243
 11
5.81149
 21
-31.4921
  0
LINE
  8
0
 10
5.81149
 20
-31.4921
 11
5.70633
 21
-31.8541
  0
LINE
  8
0
 10
5.70633
 20
-31.8541
 11
5.57864
 21
-32.2087
  0
LINE
  8
0
 10
5.57864
 20
-32.2087
 11
5.42896
 21
-32.5547
  0
LINE
  8
0
 10
5.42896
 20
-32.5547
 11
5.25783
 21
-32.8905
  0
LINE
  8
0
 10
5.25783
 20
-32.8905
 11
5.06596
 21
-33.215
  0
LINE
  8
0
 10
5.06596
 20
-33.215
 11
4.8541
 21
-33.5267
  0
LINE
  8
0
 10
4.8541
 20
-33.5267
 11
4.62308
 21
-33.8245
  0
LINE
  8
0
 10
4.62308
 20
-33.8245
 11
4.37381
 21
-34.1073
  0
LINE
  8
0
 10
4.37381
 20
-34.1073
 11
4.10727
 21
-34.3738
  0
LINE
  8
0
 10
4.10727
 20
-34.3738
 11
3.82454
 21
-34.6231
  0
LINE
  8
0
 10
3.82454
 20
-34.6231
 11
3.5267
 21
-34.8541
  0
LINE
  8
0
 10
3.5267
 20
-34.8541
 11
3.21495
 21
-35.066
  0
LINE
  8
0
 10
3.21495
 20
-35.066
 11
2.89052
 21
-35.2578
  0
LINE
  8
0
 10
2.89052
 20
-35.2578
 11
2.55467
 21
-35.429
  0
LINE
  8
0
 10
2.55467
 20
-35.429
 11
2.20874
 21
-35.5787
  0
LINE
  8
0
 10
2.20874
 20
-35.5787
 11
1.8541
 21
-35.7063
  0
LINE
  8
0
 10
1.8541
 20
-35.7063
 11
1.49213
 21
-35.8115
  0
LINE
  8
0
 10
1.49213
 20
-35.8115
 11
1.12428
 21
-35.8937
  0
LINE
  8
0
 10
1.12428
 20
-35.8937
 11
0.751999
 21
-35.9527
  0
LINE
  8
0
 10
0.751999
 20
-35.9527
 11
0.37674
 21
-35.9882
  0
LINE
  8
0
 10
0.37674
 20
-35.9882
 11
0
 21
-36
  0
LINE
  8
0
 10
0
 20
-36
 11
-0.37674
 21
-35.9882
  0
LINE
  8
0
 10
-13.1067
 20
-44.6966
 11
-13.2131
 21
-44.6866
  0
LINE
  8
0
 10
-13.2131
 20
-44.6866
 11
-13.3185
 21
-44.6699
  0
LINE
  8
0
 10
-13.3185
 20
-44.6699
 11
-13.4228
 21
-44.6466
  0
LINE
  8
0
 10
-13.4228
 20
-44.6466
 11
-13.5253
 21
-44.6168
  0
LINE
  8
0
 10
-13.5253
 20
-44.6168
 11
-13.6258
 21
-44.5806
  0
LINE
  8
0
 10
-13.6258
 20
-44.5806
 11
-13.7238
 21
-44.5382
  0
LINE
  8
0
 10
-13.7238
 20
-44.5382
 11
-13.819
 21
-44.4897
  0
LINE
  8
0
 10
-13.819
 20
-44.4897
 11
-13.9109
 21
-44.4353
  0
LINE
  8
0
 10
-13.9109
 20
-44.4353
 11
-13.9992
 21
-44.3753
  0
LINE
  8
0
 10
-13.9992
 20
-44.3753
 11
-14.0836
 21
-44.3099
  0
LINE
  8
0
 10
-14.0836
 20
-44.3099
 11
-14.1637
 21
-44.2392
  0
LINE
  8
0
 10
-14.1637
 20
-44.2392
 11
-14.2392
 21
-44.1637
  0
LINE
  8
0
 10
-14.2392
 20
-44.1637
 11
-14.3099
 21
-44.0836
  0
LINE
  8
0
 10
-14.3099
 20
-44.0836
 11
-14.3753
 21
-43.9992
  0
LINE
  8
0
 10
-14.3753
 20
-43.9992
 11
-14.4353
 21
-43.9109
  0
LINE
  8
0
 10
-14.4353
 20
-43.9109
 11
-14.4897
 21
-43.819
  0
LINE
  8
0
 10
-14.4897
 20
-43.819
 11
-14.5382
 21
-43.7238
  0
LINE
  8
0
 10
-14.5382
 20
-43.7238
 11
-14.5806
 21
-43.6258
  0
LINE
  8
0
 10
-14.5806
 20
-43.6258
 11
-14.6168
 21
-43.5253
  0
LINE
  8
0
 10
-14.6168
 20
-43.5253
 11
-14.6466
 21
-43.4228
  0
LINE
  8
0
 10
-14.6466
 20
-43.4228
 11
-14.6699
 21
-43.3185
  0
LINE
  8
0
 10
-14.6699
 20
-43.3185
 11
-14.6866
 21
-43.2131
  0
LINE
  8
0
 10
-14.6866
 20
-43.2131
 11
-14.6966
 21
-43.1067
  0
LINE
  8
0
 10
-14.6966
 20
-43.1067
 11
-14.7
 21
-43
  0
LINE
  8
0
 10
-14.7
 20
-43
 11
-14.6966
 21
-42.8932
  0
LINE
  8
0
 10
-14.6966
 20
-42.8932
 11
-14.6866
 21
-42.7869
  0
LINE
  8
0
 10
-14.6866
 20
-42.7869
 11
-14.6699
 21
-42.6814
  0
LINE
  8
0
 10
-14.6699
 20
-42.6814
 11
-14.6466
 21
-42.5772
  0
LINE
  8
0
 10
-14.6466
 20
-42.5772
 11
-14.6168
 21
-42.4747
  0
LINE
  8
0
 10
-14.6168
 20
-42.4747
 11
-14.5806
 21
-42.3742
  0
LINE
  8
0
 10
-14.5806
 20
-42.3742
 11
-14.5382
 21
-42.2762
  0
LINE
  8
0
 10
-14.5382
 20
-42.2762
 11
-14.4897
 21
-42.181
  0
LINE
  8
0
 10
-14.4897
 20
-42.181
 11
-14.4353
 21
-42.0891
  0
LINE
  8
0
 10
-14.4353
 20
-42.0891
 11
-14.3753
 21
-42.0008
  0
LINE
  8
0
 10
-14.3753
 20
-42.0008
 11
-14.3099
 21
-41.9164
  0
LINE
  8
0
 10
-14.3099
 20
-41.9164
 11
-14.2392
 21
-41.8363
  0
LINE
  8
0
 10
-14.2392
 20
-41.8363
 11
-14.1637
 21
-41.7607
  0
LINE
  8
0
 10
-14.1637
 20
-41.7607
 11
-14.0836
 21
-41.6901
  0
LINE
  8
0
 10
-14.0836
 20
-41.6901
 11
-13.9992
 21
-41.6247
  0
LINE
  8
0
 10
-13.9992
 20
-41.6247
 11
-13.9109
 21
-41.5646
  0
LINE
  8
0
 10
-13.9109
 20
-41.5646
 11
-13.819
 21
-41.5103
  0
LINE
  8
0
 10
-13.819
 20
-41.5103
 11
-13.7238
 21
-41.4618
  0
LINE
  8
0
 10
-13.7238
 20
-41.4618
 11
-13.6258
 21
-41.4194
  0
LINE
  8
0
 10
-13.6258
 20
-41.4194
 11
-13.5253
 21
-41.3832
  0
LINE
  8
0
 10
-13.5253
 20
-41.3832
 11
-13.4228
 21
-41.3534
  0
LINE
  8
0
 10
-13.4228
 20
-41.3534
 11
-13.3185
 21
-41.3301
  0
LINE
  8
0
 10
-13.3185
 20
-41.3301
 11
-13.2131
 21
-41.3134
  0
LINE
  8
0
 10
-13.2131
 20
-41.3134
 11
-13.1067
 21
-41.3033
  0
LINE
  8
0
 10
-13.1067
 20
-41.3033
 11
-13
 21
-41.3
  0
LINE
  8
0
 10
-13
 20
-41.3
 11
-12.8932
 21
-41.3033
  0
LINE
  8
0
 10
-12.8932
 20
-41.3033
 11
-12.7869
 21
-41.3134
  0
LINE
  8
0
 10
-12.7869
 20
-41.3134
 11
-12.6814
 21
-41.3301
  0
LINE
  8
0
 10
-12.6814
 20
-41.3301
 11
-12.5772
 21
-41.3534
  0
LINE
  8
0
 10
-12.5772
 20
-41.3534
 11
-12.4747
 21
-41.3832
  0
LINE
  8
0
 10
-12.4747
 20
-41.3832
 11
-12.3742
 21
-41.4194
  0
LINE
  8
0
 10
-12.3742
 20
-41.4194
 11
-12.2762
 21
-41.4618
  0
LINE
  8
0
 10
-12.2762
 20
-41.4618
 11
-12.181
 21
-41.5103
  0
LINE
  8
0
 10
-12.181
 20
-41.5103
 11
-12.0891
 21
-41.5646
  0
LINE
  8
0
 10
-12.0891
 20
-41.5646
 11
-12.0008
 21
-41.6247
  0
LINE
  8
0
 10
-12.0008
 20
-41.6247
 11
-11.9164
 21
-41.6901
  0
LINE
  8
0
 10
-11.9164
 20
-41.6901
 11
-11.8363
 21
-41.7607
  0
LINE
  8
0
 10
-11.8363
 20
-41.7607
 11
-11.7607
 21
-41.8363
  0
LINE
  8
0
 10
-11.7607
 20
-41.8363
 11
-11.6901
 21
-41.9164
  0
LINE
  8
0
 10
-11.6901
 20
-41.9164
 11
-11.6247
 21
-42.0008
  0
LINE
  8
0
 10
-11.6247
 20
-42.0008
 11
-11.5646
 21
-42.0891
  0
LINE
  8
0
 10
-11.5646
 20
-42.0891
 11
-11.5103
 21
-42.181
  0
LINE
  8
0
 10
-11.5103
 20
-42.181
 11
-11.4618
 21
-42.2762
  0
LINE
  8
0
 10
-11.4618
 20
-42.2762
 11
-11.4194
 21
-42.3742
  0
LINE
  8
0
 10
-11.4194
 20
-42.3742
 11
-11.3832
 21
-42.4747
  0
LINE
  8
0
 10
-11.3832
 20
-42.4747
 11
-11.3534
 21
-42.5772
  0
LINE
  8
0
 10
-11.3534
 20
-42.5772
 11
-11.3301
 21
-42.6814
  0
LINE
  8
0
 10
-11.3301
 20
-42.6814
 11
-11.3134
 21
-42.7869
  0
LINE
  8
0
 10
-11.3134
 20
-42.7869
 11
-11.3033
 21
-42.8932
  0
LINE
  8
0
 10
-11.3033
 20
-42.8932
 11
-11.3
 21
-43
  0
LINE
  8
0
 10
-11.3
 20
-43
 11
-11.3033
 21
-43.1067
  0
LINE
  8
0
 10
-11.3033
 20
-43.1067
 11
-11.3134
 21
-43.2131
  0
LINE
  8
0
 10
-11.3134
 20
-43.2131
 11
-11.3301
 21
-43.3185
  0
LINE
  8
0
 10
-11.3301
 20
-43.3185
 11
-11.3534
 21
-43.4228
  0
LINE
  8
0
 10
-11.3534
 20
-43.4228
 11
-11.3832
 21
-43.5253
  0
LINE
  8
0
 10
-11.3832
 20
-43.5253
 11
-11.4194
 21
-43.6258
  0
LINE
  8
0
 10
-11.4194
 20
-43.6258
 11
-11.4618
 21
-43.7238
  0
LINE
  8
0
 10
-11.4618
 20
-43.7238
 11
-11.5103
 21
-43.819
  0
LINE
  8
0
 10
-11.5103
 20
-43.819
 11
-11.5646
 21
-43.9109
  0
LINE
  8
0
 10
-11.5646
 20
-43.9109
 11
-11.6247
 21
-43.9992
  0
LINE
  8
0
 10
-11.6247
 20
-43.9992
 11
-11.6901
 21
-44.0836
  0
LINE
  8
0
 10
-11.6901
 20
-44.0836
 11
-11.7607
 21
-44.1637
  0
LINE
  8
0
 10
-11.7607
 20
-44.1637
 11
-11.8363
 21
-44.2392
  0
LINE
  8
0
 10
-11.8363
 20
-44.2392
 11
-11.9164
 21
-44.3099
  0
LINE
  8
0
 10
-11.9164
 20
-44.3099
 11
-12.0008
 21
-44.3753
  0
LINE
  8
0
 10
-12.0008
 20
-44.3753
 11
-12.0891
 21
-44.4353
  0
LINE
  8
0
 10
-12.0891
 20
-44.4353
 11
-12.181
 21
-44.4897
  0
LINE
  8
0
 10
-12.181
 20
-44.4897
 11
-12.2762
 21
-44.5382
  0
LINE
  8
0
 10
-12.2762
 20
-44.5382
 11
-12.3742
 21
-44.5806
  0
LINE
  8
0
 10
-12.3742
 20
-44.5806
 11
-12.4747
 21
-44.6168
  0
LINE
  8
0
 10
-12.4747
 20
-44.6168
 11
-12.5772
 21
-44.6466
  0
LINE
  8
0
 10
-12.5772
 20
-44.6466
 11
-12.6814
 21
-44.6699
  0
LINE
  8
0
 10
-12.6814
 20
-44.6699
 11
-12.7869
 21
-44.6866
  0
LINE
  8
0
 10
-12.7869
 20
-44.6866
 11
-12.8932
 21
-44.6966
  0
LINE
  8
0
 10
-12.8932
 20
-44.6966
 11
-13
 21
-44.7
  0
LINE
  8
0
 10
-13
 20
-44.7
 11
-13.1067
 21
-44.6966
  0
LINE
  8
0
 10
12.8932
 20
-44.6966
 11
12.7869
 21
-44.6866
  0
LINE
  8
0
 10
12.7869
 20
-44.6866
 11
12.6814
 21
-44.6699
  0
LINE
  8
0
 10
12.6814
 20
-44.6699
 11
12.5772
 21
-44.6466
  0
LINE
  8
0
 10
12.5772
 20
-44.6466
 11
12.4747
 21
-44.6168
  0
LINE
  8
0
 10
12.4747
 20
-44.6168
 11
12.3742
 21
-44.5806
  0
LINE
  8
0
 10
12.3742
 20
-44.5806
 11
12.2762
 21
-44.5382
  0
LINE
  8
0
 10
12.2762
 20
-44.5382
 11
12.181
 21
-44.4897
  0
LINE
  8
0
 10
12.181
 20
-44.4897
 11
12.0891
 21
-44.4353
  0
LINE
  8
0
 10
12.0891
 20
-44.4353
 11
12.0008
 21
-44.3753
  0
LINE
  8
0
 10
12.0008
 20
-44.3753
 11
11.9164
 21
-44.3099
  0
LINE
  8
0
 10
11.9164
 20
-44.3099
 11
11.8363
 21
-44.2392
  0
LINE
  8
0
 10
11.8363
 20
-44.2392
 11
11.7607
 21
-44.1637
  0
LINE
  8
0
 10
11.7607
 20
-44.1637
 11
11.6901
 21
-44.0836
  0
LINE
  8
0
 10
11.6901
 20
-44.0836
 11
11.6247
 21
-43.9992
  0
LINE
  8
0
 10
11.6247
 20
-43.9992
 11
11.5646
 21
-43.9109
  0
LINE
  8
0
 10
11.5646
 20
-43.9109
 11
11.5103
 21
-43.819
  0
LINE
  8
0
 10
11.5103
 20
-43.819
 11
11.4618
 21
-43.7238
  0
LINE
  8
0
 10
11.4618
 20
-43.7238
 11
11.4194
 21
-43.6258
  0
LINE
  8
0
 10
11.4194
 20
-43.6258
 11
11.3832
 21
-43.5253
  0
LINE
  8
0
 10
11.3832
 20
-43.5253
 11
11.3534
 21
-43.4228
  0
LINE
  8
0
 10
11.3534
 20
-43.4228
 11
11.3301
 21
-43.3185
  0
LINE
  8
0
 10
11.3301
 20
-43.3185
 11
11.3134
 21
-43.2131
  0
LINE
  8
0
 10
11.3134
 20
-43.2131
 11
11.3033
 21
-43.1067
  0
LINE
  8
0
 10
11.3033
 20
-43.1067
 11
11.3
 21
-43
  0
LINE
  8
0
 10
11.3
 20
-43
 11
11.3033
 21
-42.8932
  0
LINE
  8
0
 10
11.3033
 20
-42.8932
 11
11.3134
 21
-42.7869
  0
LINE
  8
0
 10
11.3134
 20
-42.7869
 11
11.3301
 21
-42.6814
  0
LINE
  8
0
 10
11.3301
 20
-42.6814
 11
11.3534
 21
-42.5772
  0
LINE
  8
0
 10
11.3534
 20
-42.5772
 11
11.3832
 21
-42.4747
  0
LINE
  8
0
 10
11.3832
 20
-42.4747
 11
11.4194
 21
-42.3742
  0
LINE
  8
0
 10
11.4194
 20
-42.3742
 11
11.4618
 21
-42.2762
  0
LINE
  8
0
 10
11.4618
 20
-42.2762
 11
11.5103
 21
-42.181
  0
LINE
  8
0
 10
11.5103
 20
-42.181
 11
11.5646
 21
-42.0891
  0
LINE
  8
0
 10
11.5646
 20
-42.0891
 11
11.6247
 21
-42.0008
  0
LINE
  8
0
 10
11.6247
 20
-42.0008
 11
11.6901
 21
-41.9164
  0
LINE
  8
0
 10
11.6901
 20
-41.9164
 11
11.7607
 21
-41.8363
  0
LINE
  8
0
 10
11.7607
 20
-41.8363
 11
11.8363
 21
-41.7607
  0
LINE
  8
0
 10
11.8363
 20
-41.7607
 11
11.9164
 21
-41.6901
  0
LINE
  8
0
 10
11.9164
 20
-41.6901
 11
12.0008
 21
-41.6247
  0
LINE
  8
0
 10
12.0008
 20
-41.6247
 11
12.0891
 21
-41.5646
  0
LINE
  8
0
 10
12.0891
 20
-41.5646
 11
12.181
 21
-41.5103
  0
LINE
  8
0
 10
12.181
 20
-41.5103
 11
12.2762
 21
-41.4618
  0
LINE
  8
0
 10
12.2762
 20
-41.4618
 11
12.3742
 21
-41.4194
  0
LINE
  8
0
 10
12.3742
 20
-41.4194
 11
12.4747
 21
-41.3832
  0
LINE
  8
0
 10
12.4747
 20
-41.3832
 11
12.5772
 21
-41.3534
  0
LINE
  8
0
 10
12.5772
 20
-41.3534
 11
12.6814
 21
-41.3301
  0
LINE
  8
0
 10
12.6814
 20
-41.3301
 11
12.7869
 21
-41.3134
  0
LINE
  8
0
 10
12.7869
 20
-41.3134
 11
12.8932
 21
-41.3033
  0
LINE
  8
0
 10
12.8932
 20
-41.3033
 11
13
 21
-41.3
  0
LINE
  8
0
 10
13
 20
-41.3
 11
13.1067
 21
-41.3033
  0
LINE
  8
0
 10
13.1067
 20
-41.3033
 11
13.2131
 21
-41.3134
  0
LINE
  8
0
 10
13.2131
 20
-41.3134
 11
13.3185
 21
-41.3301
  0
LINE
  8
0
 10
13.3185
 20
-41.3301
 11
13.4228
 21
-41.3534
  0
LINE
  8
0
 10
13.4228
 20
-41.3534
 11
13.5253
 21
-41.3832
  0
LINE
  8
0
 10
13.5253
 20
-41.3832
 11
13.6258
 21
-41.4194
  0
LINE
  8
0
 10
13.6258
 20
-41.4194
 11
13.7238
 21
-41.4618
  0
LINE
  8
0
 10
13.7238
 20
-41.4618
 11
13.819
 21
-41.5103
  0
LINE
  8
0
 10
13.819
 20
-41.5103
 11
13.9109
 21
-41.5646
  0
LINE
  8
0
 10
13.9109
 20
-41.5646
 11
13.9992
 21
-41.6247
  0
LINE
  8
0
 10
13.9992
 20
-41.6247
 11
14.0836
 21
-41.6901
  0
LINE
  8
0
 10
14.0836
 20
-41.6901
 11
14.1637
 21
-41.7607
  0
LINE
  8
0
 10
14.1637
 20
-41.7607
 11
14.2392
 21
-41.8363
  0
LINE
  8
0
 10
14.2392
 20
-41.8363
 11
14.3099
 21
-41.9164
  0
LINE
  8
0
 10
14.3099
 20
-41.9164
 11
14.3753
 21
-42.0008
  0
LINE
  8
0
 10
14.3753
 20
-42.0008
 11
14.4353
 21
-42.0891
  0
LINE
  8
0
 10
14.4353
 20
-42.0891
 11
14.4897
 21
-42.181
  0
LINE
  8
0
 10
14.4897
 20
-42.181
 11
14.5382
 21
-42.2762
  0
LINE
  8
0
 10
14.5382
 20
-42.2762
 11
14.5806
 21
-42.3742
  0
LINE
  8
0
 10
14.5806
 20
-42.3742
 11
14.6168
 21
-42.4747
  0
LINE
  8
0
 10
14.6168
 20
-42.4747
 11
14.6466
 21
-42.5772
  0
LINE
  8
0
 10
14.6466
 20
-42.5772
 11
14.6699
 21
-42.6814
  0
LINE
  8
0
 10
14.6699
 20
-42.6814
 11
14.6866
 21
-42.7869
  0
LINE
  8
0
 10
14.6866
 20
-42.7869
 11
14.6966
 21
-42.8932
  0
LINE
  8
0
 10
14.6966
 20
-42.8932
 11
14.7
 21
-43
  0
LINE
  8
0
 10
14.7
 20
-43
 11
14.6966
 21
-43.1067
  0
LINE
  8
0
 10
14.6966
 20
-43.1067
 11
14.6866
 21
-43.2131
  0
LINE
  8
0
 10
14.6866
 20
-43.2131
 11
14.6699
 21
-43.3185
  0
LINE
  8
0
 10
14.6699
 20
-43.3185
 11
14.6466
 21
-43.4228
  0
LINE
  8
0
 10
14.6466
 20
-43.4228
 11
14.6168
 21
-43.5253
  0
LINE
  8
0
 10
14.6168
 20
-43.5253
 11
14.5806
 21
-43.6258
  0
LINE
  8
0
 10
14.5806
 20
-43.6258
 11
14.5382
 21
-43.7238
  0
LINE
  8
0
 10
14.5382
 20
-43.7238
 11
14.4897
 21
-43.819
  0
LINE
  8
0
 10
14.4897
 20
-43.819
 11
14.4353
 21
-43.9109
  0
LINE
  8
0
 10
14.4353
 20
-43.9109
 11
14.3753
 21
-43.9992
  0
LINE
  8
0
 10
14.3753
 20
-43.9992
 11
14.3099
 21
-44.0836
  0
LINE
  8
0
 10
14.3099
 20
-44.0836
 11
14.2392
 21
-44.1637
  0
LINE
  8
0
 10
14.2392
 20
-44.1637
 11
14.1637
 21
-44.2392
  0
LINE
  8
0
 10
14.1637
 20
-44.2392
 11
14.0836
 21
-44.3099
  0
LINE
  8
0
 10
14.0836
 20
-44.3099
 11
13.9992
 21
-44.3753
  0
LINE
  8
0
 10
13.9992
 20
-44.3753
 11
13.9109
 21
-44.4353
  0
LINE
  8
0
 10
13.9109
 20
-44.4353
 11
13.819
 21
-44.4897
  0
LINE
  8
0
 10
13.819
 20
-44.4897
 11
13.7238
 21
-44.5382
  0
LINE
  8
0
 10
13.7238
 20
-44.5382
 11
13.6258
 21
-44.5806
  0
LINE
  8
0
 10
13.6258
 20
-44.5806
 11
13.5253
 21
-44.6168
  0
LINE
  8
0
 10
13.5253
 20
-44.6168
 11
13.4228
 21
-44.6466
  0
LINE
  8
0
 10
13.4228
 20
-44.6466
 11
13.3185
 21
-44.6699
  0
LINE
  8
0
 10
13.3185
 20
-44.6699
 11
13.2131
 21
-44.6866
  0
LINE
  8
0
 10
13.2131
 20
-44.6866
 11
13.1067
 21
-44.6966
  0
LINE
  8
0
 10
13.1067
 20
-44.6966
 11
13
 21
-44.7
  0
LINE
  8
0
 10
13
 20
-44.7
 11
12.8932
 21
-44.6966
  0
LINE
  8
0
 10
-22.3567
 20
-45.4366
 11
-22.4631
 21
-45.4266
  0
LINE
  8
0
 10
-22.4631
 20
-45.4266
 11
-22.5685
 21
-45.4099
  0
LINE
  8
0
 10
-22.5685
 20
-45.4099
 11
-22.6728
 21
-45.3866
  0
LINE
  8
0
 10
-22.6728
 20
-45.3866
 11
-22.7753
 21
-45.3568
  0
LINE
  8
0
 10
-22.7753
 20
-45.3568
 11
-22.8758
 21
-45.3206
  0
LINE
  8
0
 10
-22.8758
 20
-45.3206
 11
-22.9738
 21
-45.2782
  0
LINE
  8
0
 10
-22.9738
 20
-45.2782
 11
-23.069
 21
-45.2297
  0
LINE
  8
0
 10
-23.069
 20
-45.2297
 11
-23.1609
 21
-45.1754
  0
LINE
  8
0
 10
-23.1609
 20
-45.1754
 11
-23.2492
 21
-45.1153
  0
LINE
  8
0
 10
-23.2492
 20
-45.1153
 11
-23.3336
 21
-45.0499
  0
LINE
  8
0
 10
-23.3336
 20
-45.0499
 11
-23.4137
 21
-44.9792
  0
LINE
  8
0
 10
-23.4137
 20
-44.9792
 11
-23.4892
 21
-44.9037
  0
LINE
  8
0
 10
-23.4892
 20
-44.9037
 11
-23.5599
 21
-44.8236
  0
LINE
  8
0
 10
-23.5599
 20
-44.8236
 11
-23.6253
 21
-44.7392
  0
LINE
  8
0
 10
-23.6253
 20
-44.7392
 11
-23.6853
 21
-44.6509
  0
LINE
  8
0
 10
-23.6853
 20
-44.6509
 11
-23.7397
 21
-44.559
  0
LINE
  8
0
 10
-23.7397
 20
-44.559
 11
-23.7882
 21
-44.4638
  0
LINE
  8
0
 10
-23.7882
 20
-44.4638
 11
-23.8306
 21
-44.3658
  0
LINE
  8
0
 10
-23.8306
 20
-44.3658
 11
-23.8668
 21
-44.2653
  0
LINE
  8
0
 10
-23.8668
 20
-44.2653
 11
-23.8966
 21
-44.1628
  0
LINE
  8
0
 10
-23.8966
 20
-44.1628
 11
-23.9199
 21
-44.0585
  0
LINE
  8
0
 10
-23.9199
 20
-44.0585
 11
-23.9366
 21
-43.9531
  0
LINE
  8
0
 10
-23.9366
 20
-43.9531
 11
-23.9466
 21
-43.8467
  0
LINE
  8
0
 10
-23.9466
 20
-43.8467
 11
-23.95
 21
-43.74
  0
LINE
  8
0
 10
-23.95
 20
-43.74
 11
-23.9466
 21
-43.6333
  0
LINE
  8
0
 10
-23.9466
 20
-43.6333
 11
-23.9366
 21
-43.5269
  0
LINE
  8
0
 10
-23.9366
 20
-43.5269
 11
-23.9199
 21
-43.4214
  0
LINE
  8
0
 10
-23.9199
 20
-43.4214
 11
-23.8966
 21
-43.3172
  0
LINE
  8
0
 10
-23.8966
 20
-43.3172
 11
-23.8668
 21
-43.2147
  0
LINE
  8
0
 10
-23.8668
 20
-43.2147
 11
-23.8306
 21
-43.1142
  0
LINE
  8
0
 10
-23.8306
 20
-43.1142
 11
-23.7882
 21
-43.0162
  0
LINE
  8
0
 10
-23.7882
 20
-43.0162
 11
-23.7397
 21
-42.921
  0
LINE
  8
0
 10
-23.7397
 20
-42.921
 11
-23.6853
 21
-42.8291
  0
LINE
  8
0
 10
-23.6853
 20
-42.8291
 11
-23.6253
 21
-42.7408
  0
LINE
  8
0
 10
-23.6253
 20
-42.7408
 11
-23.5599
 21
-42.6564
  0
LINE
  8
0
 10
-23.5599
 20
-42.6564
 11
-23.4892
 21
-42.5763
  0
LINE
  8
0
 10
-23.4892
 20
-42.5763
 11
-23.4137
 21
-42.5007
  0
LINE
  8
0
 10
-23.4137
 20
-42.5007
 11
-23.3336
 21
-42.4301
  0
LINE
  8
0
 10
-23.3336
 20
-42.4301
 11
-23.2492
 21
-42.3647
  0
LINE
  8
0
 10
-23.2492
 20
-42.3647
 11
-23.1609
 21
-42.3046
  0
LINE
  8
0
 10
-23.1609
 20
-42.3046
 11
-23.069
 21
-42.2503
  0
LINE
  8
0
 10
-23.069
 20
-42.2503
 11
-22.9738
 21
-42.2018
  0
LINE
  8
0
 10
-22.9738
 20
-42.2018
 11
-22.8758
 21
-42.1594
  0
LINE
  8
0
 10
-22.8758
 20
-42.1594
 11
-22.7753
 21
-42.1232
  0
LINE
  8
0
 10
-22.7753
 20
-42.1232
 11
-22.6728
 21
-42.0934
  0
LINE
  8
0
 10
-22.6728
 20
-42.0934
 11
-22.5685
 21
-42.0701
  0
LINE
  8
0
 10
-22.5685
 20
-42.0701
 11
-22.4631
 21
-42.0534
  0
LINE
  8
0
 10
-22.4631
 20
-42.0534
 11
-22.3567
 21
-42.0434
  0
LINE
  8
0
 10
-22.3567
 20
-42.0434
 11
-22.25
 21
-42.04
  0
LINE
  8
0
 10
-22.25
 20
-42.04
 11
-22.1432
 21
-42.0434
  0
LINE
  8
0
 10
-22.1432
 20
-42.0434
 11
-22.0369
 21
-42.0534
  0
LINE
  8
0
 10
-22.0369
 20
-42.0534
 11
-21.9314
 21
-42.0701
  0
LINE
  8
0
 10
-21.9314
 20
-42.0701
 11
-21.8272
 21
-42.0934
  0
LINE
  8
0
 10
-21.8272
 20
-42.0934
 11
-21.7247
 21
-42.1232
  0
LINE
  8
0
 10
-21.7247
 20
-42.1232
 11
-21.6242
 21
-42.1594
  0
LINE
  8
0
 10
-21.6242
 20
-42.1594
 11
-21.5262
 21
-42.2018
  0
LINE
  8
0
 10
-21.5262
 20
-42.2018
 11
-21.431
 21
-42.2503
  0
LINE
  8
0
 10
-21.431
 20
-42.2503
 11
-21.3391
 21
-42.3046
  0
LINE
  8
0
 10
-21.3391
 20
-42.3046
 11
-21.2508
 21
-42.3647
  0
LINE
  8
0
 10
-21.2508
 20
-42.3647
 11
-21.1664
 21
-42.4301
  0
LINE
  8
0
 10
-21.1664
 20
-42.4301
 11
-21.0863
 21
-42.5007
  0
LINE
  8
0
 10
-21.0863
 20
-42.5007
 11
-21.0107
 21
-42.5763
  0
LINE
  8
0
 10
-21.0107
 20
-42.5763
 11
-20.9401
 21
-42.6564
  0
LINE
  8
0
 10
-20.9401
 20
-42.6564
 11
-20.8747
 21
-42.7408
  0
LINE
  8
0
 10
-20.8747
 20
-42.7408
 11
-20.8146
 21
-42.8291
  0
LINE
  8
0
 10
-20.8146
 20
-42.8291
 11
-20.7603
 21
-42.921
  0
LINE
  8
0
 10
-20.7603
 20
-42.921
 11
-20.7118
 21
-43.0162
  0
LINE
  8
0
 10
-20.7118
 20
-43.0162
 11
-20.6694
 21
-43.1142
  0
LINE
  8
0
 10
-20.6694
 20
-43.1142
 11
-20.6332
 21
-43.2147
  0
LINE
  8
0
 10
-20.6332
 20
-43.2147
 11
-20.6034
 21
-43.3172
  0
LINE
  8
0
 10
-20.6034
 20
-43.3172
 11
-20.5801
 21
-43.4214
  0
LINE
  8
0
 10
-20.5801
 20
-43.4214
 11
-20.5634
 21
-43.5269
  0
LINE
  8
0
 10
-20.5634
 20
-43.5269
 11
-20.5533
 21
-43.6333
  0
LINE
  8
0
 10
-20.5533
 20
-43.6333
 11
-20.55
 21
-43.74
  0
LINE
  8
0
 10
-20.55
 20
-43.74
 11
-20.5533
 21
-43.8467
  0
LINE
  8
0
 10
-20.5533
 20
-43.8467
 11
-20.5634
 21
-43.9531
  0
LINE
  8
0
 10
-20.5634
 20
-43.9531
 11
-20.5801
 21
-44.0585
  0
LINE
  8
0
 10
-20.5801
 20
-44.0585
 11
-20.6034
 21
-44.1628
  0
LINE
  8
0
 10
-20.6034
 20
-44.1628
 11
-20.6332
 21
-44.2653
  0
LINE
  8
0
 10
-20.6332
 20
-44.2653
 11
-20.6694
 21
-44.3658
  0
LINE
  8
0
 10
-20.6694
 20
-44.3658
 11
-20.7118
 21
-44.4638
  0
LINE
  8
0
 10
-20.7118
 20
-44.4638
 11
-20.7603
 21
-44.559
  0
LINE
  8
0
 10
-20.7603
 20
-44.559
 11
-20.8146
 21
-44.6509
  0
LINE
  8
0
 10
-20.8146
 20
-44.6509
 11
-20.8747
 21
-44.7392
  0
LINE
  8
0
 10
-20.8747
 20
-44.7392
 11
-20.9401
 21
-44.8236
  0
LINE
  8
0
 10
-20.9401
 20
-44.8236
 11
-21.0107
 21
-44.9037
  0
LINE
  8
0
 10
-21.0107
 20
-44.9037
 11
-21.0863
 21
-44.9792
  0
LINE
  8
0
 10
-21.0863
 20
-44.9792
 11
-21.1664
 21
-45.0499
  0
LINE
  8
0
 10
-21.1664
 20
-45.0499
 11
-21.2508
 21
-45.1153
  0
LINE
  8
0
 10
-21.2508
 20
-45.1153
 11
-21.3391
 21
-45.1754
  0
LINE
  8
0
 10
-21.3391
 20
-45.1754
 11
-21.431
 21
-45.2297
  0
LINE
  8
0
 10
-21.431
 20
-45.2297
 11
-21.5262
 21
-45.2782
  0
LINE
  8
0
 10
-21.5262
 20
-45.2782
 11
-21.6242
 21
-45.3206
  0
LINE
  8
0
 10
-21.6242
 20
-45.3206
 11
-21.7247
 21
-45.3568
  0
LINE
  8
0
 10
-21.7247
 20
-45.3568
 11
-21.8272
 21
-45.3866
  0
LINE
  8
0
 10
-21.8272
 20
-45.3866
 11
-21.9314
 21
-45.4099
  0
LINE
  8
0
 10
-21.9314
 20
-45.4099
 11
-22.0369
 21
-45.4266
  0
LINE
  8
0
 10
-22.0369
 20
-45.4266
 11
-22.1432
 21
-45.4366
  0
LINE
  8
0
 10
-22.1432
 20
-45.4366
 11
-22.25
 21
-45.44
  0
LINE
  8
0
 10
-22.25
 20
-45.44
 11
-22.3567
 21
-45.4366
  0
LINE
  8
0
 10
22.1432
 20
-45.4366
 11
22.0369
 21
-45.4266
  0
LINE
  8
0
 10
22.0369
 20
-45.4266
 11
21.9314
 21
-45.4099
  0
LINE
  8
0
 10
21.9314
 20
-45.4099
 11
21.8272
 21
-45.3866
  0
LINE
  8
0
 10
21.8272
 20
-45.3866
 11
21.7247
 21
-45.3568
  0
LINE
  8
0
 10
21.7247
 20
-45.3568
 11
21.6242
 21
-45.3206
  0
LINE
  8
0
 10
21.6242
 20
-45.3206
 11
21.5262
 21
-45.2782
  0
LINE
  8
0
 10
21.5262
 20
-45.2782
 11
21.431
 21
-45.2297
  0
LINE
  8
0
 10
21.431
 20
-45.2297
 11
21.3391
 21
-45.1754
  0
LINE
  8
0
 10
21.3391
 20
-45.1754
 11
21.2508
 21
-45.1153
  0
LINE
  8
0
 10
21.2508
 20
-45.1153
 11
21.1664
 21
-45.0499
  0
LINE
  8
0
 10
21.1664
 20
-45.0499
 11
21.0863
 21
-44.9792
  0
LINE
  8
0
 10
21.0863
 20
-44.9792
 11
21.0107
 21
-44.9037
  0
LINE
  8
0
 10
21.0107
 20
-44.9037
 11
20.9401
 21
-44.8236
  0
LINE
  8
0
 10
20.9401
 20
-44.8236
 11
20.8747
 21
-44.7392
  0
LINE
  8
0
 10
20.8747
 20
-44.7392
 11
20.8146
 21
-44.6509
  0
LINE
  8
0
 10
20.8146
 20
-44.6509
 11
20.7603
 21
-44.559
  0
LINE
  8
0
 10
20.7603
 20
-44.559
 11
20.7118
 21
-44.4638
  0
LINE
  8
0
 10
20.7118
 20
-44.4638
 11
20.6694
 21
-44.3658
  0
LINE
  8
0
 10
20.6694
 20
-44.3658
 11
20.6332
 21
-44.2653
  0
LINE
  8
0
 10
20.6332
 20
-44.2653
 11
20.6034
 21
-44.1628
  0
LINE
  8
0
 10
20.6034
 20
-44.1628
 11
20.5801
 21
-44.0585
  0
LINE
  8
0
 10
20.5801
 20
-44.0585
 11
20.5634
 21
-43.9531
  0
LINE
  8
0
 10
20.5634
 20
-43.9531
 11
20.5533
 21
-43.8467
  0
LINE
  8
0
 10
20.5533
 20
-43.8467
 11
20.55
 21
-43.74
  0
LINE
  8
0
 10
20.55
 20
-43.74
 11
20.5533
 21
-43.6333
  0
LINE
  8
0
 10
20.5533
 20
-43.6333
 11
20.5634
 21
-43.5269
  0
LINE
  8
0
 10
20.5634
 20
-43.5269
 11
20.5801
 21
-43.4214
  0
LINE
  8
0
 10
20.5801
 20
-43.4214
 11
20.6034
 21
-43.3172
  0
LINE
  8
0
 10
20.6034
 20
-43.3172
 11
20.6332
 21
-43.2147
  0
LINE
  8
0
 10
20.6332
 20
-43.2147
 11
20.6694
 21
-43.1142
  0
LINE
  8
0
 10
20.6694
 20
-43.1142
 11
20.7118
 21
-43.0162
  0
LINE
  8
0
 10
20.7118
 20
-43.0162
 11
20.7603
 21
-42.921
  0
LINE
  8
0
 10
20.7603
 20
-42.921
 11
20.8146
 21
-42.8291
  0
LINE
  8
0
 10
20.8146
 20
-42.8291
 11
20.8747
 21
-42.7408
  0
LINE
  8
0
 10
20.8747
 20
-42.7408
 11
20.9401
 21
-42.6564
  0
LINE
  8
0
 10
20.9401
 20
-42.6564
 11
21.0107
 21
-42.5763
  0
LINE
  8
0
 10
21.0107
 20
-42.5763
 11
21.0863
 21
-42.5007
  0
LINE
  8
0
 10
21.0863
 20
-42.5007
 11
21.1664
 21
-42.4301
  0
LINE
  8
0
 10
21.1664
 20
-42.4301
 11
21.2508
 21
-42.3647
  0
LINE
  8
0
 10
21.2508
 20
-42.3647
 11
21.3391
 21
-42.3046
  0
LINE
  8
0
 10
21.3391
 20
-42.3046
 11
21.431
 21
-42.2503
  0
LINE
  8
0
 10
21.431
 20
-42.2503
 11
21.5262
 21
-42.2018
  0
LINE
  8
0
 10
21.5262
 20
-42.2018
 11
21.6242
 21
-42.1594
  0
LINE
  8
0
 10
21.6242
 20
-42.1594
 11
21.7247
 21
-42.1232
  0
LINE
  8
0
 10
21.7247
 20
-42.1232
 11
21.8272
 21
-42.0934
  0
LINE
  8
0
 10
21.8272
 20
-42.0934
 11
21.9314
 21
-42.0701
  0
LINE
  8
0
 10
21.9314
 20
-42.0701
 11
22.0369
 21
-42.0534
  0
LINE
  8
0
 10
22.0369
 20
-42.0534
 11
22.1432
 21
-42.0434
  0
LINE
  8
0
 10
22.1432
 20
-42.0434
 11
22.25
 21
-42.04
  0
LINE
  8
0
 10
22.25
 20
-42.04
 11
22.3567
 21
-42.0434
  0
LINE
  8
0
 10
22.3567
 20
-42.0434
 11
22.4631
 21
-42.0534
  0
LINE
  8
0
 10
22.4631
 20
-42.0534
 11
22.5685
 21
-42.0701
  0
LINE
  8
0
 10
22.5685
 20
-42.0701
 11
22.6728
 21
-42.0934
  0
LINE
  8
0
 10
22.6728
 20
-42.0934
 11
22.7753
 21
-42.1232
  0
LINE
  8
0
 10
22.7753
 20
-42.1232
 11
22.8758
 21
-42.1594
  0
LINE
  8
0
 10
22.8758
 20
-42.1594
 11
22.9738
 21
-42.2018
  0
LINE
  8
0
 10
22.9738
 20
-42.2018
 11
23.069
 21
-42.2503
  0
LINE
  8
0
 10
23.069
 20
-42.2503
 11
23.1609
 21
-42.3046
  0
LINE
  8
0
 10
23.1609
 20
-42.3046
 11
23.2492
 21
-42.3647
  0
LINE
  8
0
 10
23.2492
 20
-42.3647
 11
23.3336
 21
-42.4301
  0
LINE
  8
0
 10
23.3336
 20
-42.4301
 11
23.4137
 21
-42.5007
  0
LINE
  8
0
 10
23.4137
 20
-42.5007
 11
23.4892
 21
-42.5763
  0
LINE
  8
0
 10
23.4892
 20
-42.5763
 11
23.5599
 21
-42.6564
  0
LINE
  8
0
 10
23.5599
 20
-42.6564
 11
23.6253
 21
-42.7408
  0
LINE
  8
0
 10
23.6253
 20
-42.7408
 11
23.6853
 21
-42.8291
  0
LINE
  8
0
 10
23.6853
 20
-42.8291
 11
23.7397
 21
-42.921
  0
LINE
  8
0
 10
23.7397
 20
-42.921
 11
23.7882
 21
-43.0162
  0
LINE
  8
0
 10
23.7882
 20
-43.0162
 11
23.8306
 21
-43.1142
  0
LINE
  8
0
 10
23.8306
 20
-43.1142
 11
23.8668
 21
-43.2147
  0
LINE
  8
0
 10
23.8668
 20
-43.2147
 11
23.8966
 21
-43.3172
  0
LINE
  8
0
 10
23.8966
 20
-43.3172
 11
23.9199
 21
-43.4214
  0
LINE
  8
0
 10
23.9199
 20
-43.4214
 11
23.9366
 21
-43.5269
  0
LINE
  8
0
 10
23.9366
 20
-43.5269
 11
23.9466
 21
-43.6333
  0
LINE
  8
0
 10
23.9466
 20
-43.6333
 11
23.95
 21
-43.74
  0
LINE
  8
0
 10
23.95
 20
-43.74
 11
23.9466
 21
-43.8467
  0
LINE
  8
0
 10
23.9466
 20
-43.8467
 11
23.9366
 21
-43.9531
  0
LINE
  8
0
 10
23.9366
 20
-43.9531
 11
23.9199
 21
-44.0585
  0
LINE
  8
0
 10
23.9199
 20
-44.0585
 11
23.8966
 21
-44.1628
  0
LINE
  8
0
 10
23.8966
 20
-44.1628
 11
23.8668
 21
-44.2653
  0
LINE
  8
0
 10
23.8668
 20
-44.2653
 11
23.8306
 21
-44.3658
  0
LINE
  8
0
 10
23.8306
 20
-44.3658
 11
23.7882
 21
-44.4638
  0
LINE
  8
0
 10
23.7882
 20
-44.4638
 11
23.7397
 21
-44.559
  0
LINE
  8
0
 10
23.7397
 20
-44.559
 11
23.6853
 21
-44.6509
  0
LINE
  8
0
 10
23.6853
 20
-44.6509
 11
23.6253
 21
-44.7392
  0
LINE
  8
0
 10
23.6253
 20
-44.7392
 11
23.5599
 21
-44.8236
  0
LINE
  8
0
 10
23.5599
 20
-44.8236
 11
23.4892
 21
-44.9037
  0
LINE
  8
0
 10
23.4892
 20
-44.9037
 11
23.4137
 21
-44.9792
  0
LINE
  8
0
 10
23.4137
 20
-44.9792
 11
23.3336
 21
-45.0499
  0
LINE
  8
0
 10
23.3336
 20
-45.0499
 11
23.2492
 21
-45.1153
  0
LINE
  8
0
 10
23.2492
 20
-45.1153
 11
23.1609
 21
-45.1754
  0
LINE
  8
0
 10
23.1609
 20
-45.1754
 11
23.069
 21
-45.2297
  0
LINE
  8
0
 10
23.069
 20
-45.2297
 11
22.9738
 21
-45.2782
  0
LINE
  8
0
 10
22.9738
 20
-45.2782
 11
22.8758
 21
-45.3206
  0
LINE
  8
0
 10
22.8758
 20
-45.3206
 11
22.7753
 21
-45.3568
  0
LINE
  8
0
 10
22.7753
 20
-45.3568
 11
22.6728
 21
-45.3866
  0
LINE
  8
0
 10
22.6728
 20
-45.3866
 11
22.5685
 21
-45.4099
  0
LINE
  8
0
 10
22.5685
 20
-45.4099
 11
22.4631
 21
-45.4266
  0
LINE
  8
0
 10
22.4631
 20
-45.4266
 11
22.3567
 21
-45.4366
  0
LINE
  8
0
 10
22.3567
 20
-45.4366
 11
22.25
 21
-45.44
  0
LINE
  8
0
 10
22.25
 20
-45.44
 11
22.1432
 21
-45.4366
  0
ENDSEC
  0
SECTION
  2
OBJECTS
  0
DICTIONARY
  0
ENDSEC
  0
EOF
