%TF.GenerationSoftware,KiCad,Pcbnew,8.0.0-8.0.0-1~ubuntu22.04.1*%
%TF.CreationDate,2024-07-29T15:08:54-04:00*%
%TF.ProjectId,UV-Control,55562d43-6f6e-4747-926f-6c2e6b696361,rev?*%
%TF.SameCoordinates,Original*%
%TF.FileFunction,Soldermask,Top*%
%TF.FilePolarity,Negative*%
%FSLAX46Y46*%
G04 Gerber Fmt 4.6, Leading zero omitted, Abs format (unit mm)*
G04 Created by KiCad (PCBNEW 8.0.0-8.0.0-1~ubuntu22.04.1) date 2024-07-29 15:08:54*
%MOMM*%
%LPD*%
G01*
G04 APERTURE LIST*
G04 Aperture macros list*
%AMRoundRect*
0 Rectangle with rounded corners*
0 $1 Rounding radius*
0 $2 $3 $4 $5 $6 $7 $8 $9 X,Y pos of 4 corners*
0 Add a 4 corners polygon primitive as box body*
4,1,4,$2,$3,$4,$5,$6,$7,$8,$9,$2,$3,0*
0 Add four circle primitives for the rounded corners*
1,1,$1+$1,$2,$3*
1,1,$1+$1,$4,$5*
1,1,$1+$1,$6,$7*
1,1,$1+$1,$8,$9*
0 Add four rect primitives between the rounded corners*
20,1,$1+$1,$2,$3,$4,$5,0*
20,1,$1+$1,$4,$5,$6,$7,0*
20,1,$1+$1,$6,$7,$8,$9,0*
20,1,$1+$1,$8,$9,$2,$3,0*%
G04 Aperture macros list end*
%ADD10R,1.700000X1.700000*%
%ADD11O,1.700000X1.700000*%
%ADD12RoundRect,0.250000X-0.450000X0.262500X-0.450000X-0.262500X0.450000X-0.262500X0.450000X0.262500X0*%
%ADD13RoundRect,0.250000X-0.475000X0.250000X-0.475000X-0.250000X0.475000X-0.250000X0.475000X0.250000X0*%
%ADD14RoundRect,0.250000X0.250000X0.475000X-0.250000X0.475000X-0.250000X-0.475000X0.250000X-0.475000X0*%
%ADD15RoundRect,0.250000X-0.262500X-0.450000X0.262500X-0.450000X0.262500X0.450000X-0.262500X0.450000X0*%
%ADD16C,3.200000*%
%ADD17R,0.900000X1.200000*%
%ADD18RoundRect,0.150000X0.587500X0.150000X-0.587500X0.150000X-0.587500X-0.150000X0.587500X-0.150000X0*%
%ADD19RoundRect,0.250000X0.262500X0.450000X-0.262500X0.450000X-0.262500X-0.450000X0.262500X-0.450000X0*%
%ADD20RoundRect,0.150000X-0.512500X-0.150000X0.512500X-0.150000X0.512500X0.150000X-0.512500X0.150000X0*%
%ADD21C,2.800000*%
%ADD22R,2.900000X5.400000*%
%ADD23RoundRect,0.250000X0.475000X-0.250000X0.475000X0.250000X-0.475000X0.250000X-0.475000X-0.250000X0*%
%ADD24RoundRect,0.250000X-0.250000X-0.475000X0.250000X-0.475000X0.250000X0.475000X-0.250000X0.475000X0*%
%ADD25R,1.800000X1.800000*%
%ADD26C,1.800000*%
%ADD27R,1.100000X1.100000*%
%ADD28C,2.100000*%
%ADD29C,1.750000*%
%ADD30R,0.400000X1.350000*%
%ADD31O,1.200000X1.900000*%
%ADD32R,1.200000X1.900000*%
%ADD33C,1.450000*%
%ADD34R,1.500000X1.900000*%
%ADD35RoundRect,0.150000X0.820000X0.150000X-0.820000X0.150000X-0.820000X-0.150000X0.820000X-0.150000X0*%
%ADD36R,2.620000X3.510000*%
%ADD37RoundRect,0.250000X0.450000X-0.262500X0.450000X0.262500X-0.450000X0.262500X-0.450000X-0.262500X0*%
%ADD38R,1.000000X1.500000*%
%ADD39RoundRect,0.150000X0.825000X0.150000X-0.825000X0.150000X-0.825000X-0.150000X0.825000X-0.150000X0*%
%ADD40R,2.290000X3.000000*%
%ADD41C,1.600000*%
%ADD42O,1.600000X1.600000*%
G04 APERTURE END LIST*
D10*
%TO.C,J8*%
X110000000Y-78040000D03*
D11*
X110000000Y-80580000D03*
X110000000Y-83120000D03*
X110000000Y-85660000D03*
X110000000Y-88200000D03*
%TD*%
D12*
%TO.C,R2*%
X110250000Y-95850000D03*
X110250000Y-97675000D03*
%TD*%
%TO.C,R17*%
X115750000Y-71987500D03*
X115750000Y-73812500D03*
%TD*%
D13*
%TO.C,C1*%
X105100000Y-100500000D03*
X105100000Y-102400000D03*
%TD*%
D14*
%TO.C,C7*%
X91950000Y-84450000D03*
X90050000Y-84450000D03*
%TD*%
D15*
%TO.C,R4*%
X96087500Y-101300000D03*
X97912500Y-101300000D03*
%TD*%
D16*
%TO.C,H3*%
X90350000Y-105000000D03*
%TD*%
D10*
%TO.C,J1*%
X146082000Y-77987000D03*
D11*
X146082000Y-80527000D03*
X146082000Y-83067000D03*
X146082000Y-85607000D03*
X146082000Y-88147000D03*
X146082000Y-90687000D03*
%TD*%
D17*
%TO.C,D1*%
X97900000Y-106750000D03*
X94600000Y-106750000D03*
%TD*%
D16*
%TO.C,H1*%
X90350000Y-66000000D03*
%TD*%
D12*
%TO.C,R1*%
X113850000Y-95950000D03*
X113850000Y-97775000D03*
%TD*%
D15*
%TO.C,R15*%
X171387500Y-90700000D03*
X173212500Y-90700000D03*
%TD*%
%TO.C,R11*%
X171475000Y-80500000D03*
X173300000Y-80500000D03*
%TD*%
D18*
%TO.C,Q2*%
X112950000Y-93400000D03*
X112950000Y-91500000D03*
X111075000Y-92450000D03*
%TD*%
D17*
%TO.C,D2*%
X103162500Y-70475000D03*
X99862500Y-70475000D03*
%TD*%
D19*
%TO.C,R6*%
X101475000Y-106700000D03*
X99650000Y-106700000D03*
%TD*%
D10*
%TO.C,J6*%
X189600000Y-70100000D03*
D11*
X187060000Y-70100000D03*
%TD*%
D15*
%TO.C,R13*%
X171400000Y-85600000D03*
X173225000Y-85600000D03*
%TD*%
D20*
%TO.C,U5*%
X99925000Y-101800000D03*
X99925000Y-102750000D03*
X99925000Y-103700000D03*
X102200000Y-103700000D03*
X102200000Y-101800000D03*
%TD*%
D21*
%TO.C,TP1*%
X155882000Y-96480000D03*
%TD*%
D22*
%TO.C,L1*%
X95548000Y-92356000D03*
X105448000Y-92356000D03*
%TD*%
D23*
%TO.C,C10*%
X158100000Y-89100000D03*
X158100000Y-87200000D03*
%TD*%
D10*
%TO.C,J7*%
X113230000Y-67400000D03*
D11*
X110690000Y-67400000D03*
X108150000Y-67400000D03*
%TD*%
D16*
%TO.C,H2*%
X198350000Y-66000000D03*
%TD*%
D24*
%TO.C,C4*%
X89950000Y-73800000D03*
X91850000Y-73800000D03*
%TD*%
D23*
%TO.C,C2*%
X104750000Y-107050000D03*
X104750000Y-105150000D03*
%TD*%
D25*
%TO.C,D5*%
X112725000Y-72800000D03*
D26*
X110185000Y-72800000D03*
%TD*%
D14*
%TO.C,C8*%
X91950000Y-81700000D03*
X90050000Y-81700000D03*
%TD*%
%TO.C,C6*%
X91900000Y-86900000D03*
X90000000Y-86900000D03*
%TD*%
D17*
%TO.C,D3*%
X92400000Y-70900000D03*
X89100000Y-70900000D03*
%TD*%
D19*
%TO.C,R5*%
X97700000Y-70500000D03*
X95875000Y-70500000D03*
%TD*%
D27*
%TO.C,D4*%
X92050000Y-92250000D03*
X89250000Y-92250000D03*
%TD*%
D28*
%TO.C,SW2*%
X181250000Y-102510000D03*
X174240000Y-102510000D03*
D29*
X180000000Y-105000000D03*
X175500000Y-105000000D03*
%TD*%
D10*
%TO.C,A2*%
X193812800Y-95688600D03*
D11*
X191272800Y-95688600D03*
X188732800Y-95688600D03*
X186192800Y-95688600D03*
%TD*%
D15*
%TO.C,R8*%
X89975000Y-95200000D03*
X91800000Y-95200000D03*
%TD*%
D10*
%TO.C,A1*%
X161165000Y-65230000D03*
D11*
X161165000Y-67770000D03*
X161165000Y-70310000D03*
X161165000Y-72850000D03*
X161165000Y-75390000D03*
X161165000Y-77930000D03*
X161165000Y-80470000D03*
X161165000Y-83010000D03*
X161165000Y-85550000D03*
X161165000Y-88090000D03*
X161165000Y-90630000D03*
X161165000Y-93170000D03*
X161165000Y-95710000D03*
X161165000Y-98250000D03*
X176200000Y-98280000D03*
X176200000Y-95740000D03*
X176200000Y-93200000D03*
X176200000Y-90660000D03*
X176200000Y-88120000D03*
X176200000Y-85580000D03*
X176200000Y-83040000D03*
X176200000Y-80500000D03*
X176200000Y-77960000D03*
X176200000Y-75420000D03*
X176200000Y-72880000D03*
X176200000Y-70340000D03*
X176200000Y-67800000D03*
D10*
X176200000Y-65260000D03*
%TD*%
D30*
%TO.C,J3*%
X189468000Y-66700000D03*
X188818000Y-66700000D03*
X188168000Y-66700000D03*
X187518000Y-66700000D03*
X186868000Y-66700000D03*
D31*
X191668000Y-64000000D03*
D32*
X191068000Y-64000000D03*
D33*
X190668000Y-66700000D03*
D34*
X189168000Y-64000000D03*
X187168000Y-64000000D03*
D33*
X185668000Y-66700000D03*
D32*
X185268000Y-64000000D03*
D31*
X184668000Y-64000000D03*
%TD*%
D13*
%TO.C,C3*%
X94200000Y-100100000D03*
X94200000Y-102000000D03*
%TD*%
D28*
%TO.C,SW3*%
X192250000Y-102510000D03*
X185240000Y-102510000D03*
D29*
X191000000Y-105000000D03*
X186500000Y-105000000D03*
%TD*%
D15*
%TO.C,R14*%
X171387500Y-93200000D03*
X173212500Y-93200000D03*
%TD*%
%TO.C,R12*%
X171475000Y-83000000D03*
X173300000Y-83000000D03*
%TD*%
D21*
%TO.C,TP2*%
X149600000Y-96600000D03*
%TD*%
D28*
%TO.C,SW1*%
X170250000Y-102510000D03*
X163240000Y-102510000D03*
D29*
X169000000Y-105000000D03*
X164500000Y-105000000D03*
%TD*%
D35*
%TO.C,U3*%
X104125000Y-68200000D03*
X104125000Y-66930000D03*
X104125000Y-65660000D03*
X104125000Y-64390000D03*
X99165000Y-64390000D03*
X99165000Y-65660000D03*
X99165000Y-66930000D03*
X99165000Y-68200000D03*
D36*
X101645000Y-66295000D03*
%TD*%
D19*
%TO.C,R9*%
X91800000Y-97200000D03*
X89975000Y-97200000D03*
%TD*%
D37*
%TO.C,R10*%
X155900000Y-89000000D03*
X155900000Y-87175000D03*
%TD*%
D38*
%TO.C,JP4*%
X109450000Y-64100000D03*
X110750000Y-64100000D03*
X112050000Y-64100000D03*
%TD*%
D10*
%TO.C,J4*%
X152314000Y-77752000D03*
D11*
X152314000Y-80292000D03*
X152314000Y-82832000D03*
X152314000Y-85372000D03*
X152314000Y-87912000D03*
X152314000Y-90452000D03*
%TD*%
D15*
%TO.C,R7*%
X89975000Y-89650000D03*
X91800000Y-89650000D03*
%TD*%
D39*
%TO.C,U1*%
X114245000Y-105255000D03*
X114245000Y-103985000D03*
X114245000Y-102715000D03*
X114245000Y-101445000D03*
X109295000Y-101445000D03*
X109295000Y-102715000D03*
X109295000Y-103985000D03*
X109295000Y-105255000D03*
D40*
X111770000Y-103350000D03*
%TD*%
D16*
%TO.C,H4*%
X198350000Y-105000000D03*
%TD*%
D19*
%TO.C,R16*%
X96925000Y-68300000D03*
X95100000Y-68300000D03*
%TD*%
D12*
%TO.C,R3*%
X92200000Y-99100000D03*
X92200000Y-100925000D03*
%TD*%
D13*
%TO.C,C11*%
X107000000Y-105100000D03*
X107000000Y-107000000D03*
%TD*%
D24*
%TO.C,C9*%
X89950000Y-76050000D03*
X91850000Y-76050000D03*
%TD*%
D41*
%TO.C,L3*%
X99660000Y-92400000D03*
D42*
X102200000Y-92400000D03*
%TD*%
D41*
%TO.C,L4*%
X99460000Y-78400000D03*
D42*
X102000000Y-78400000D03*
%TD*%
D14*
%TO.C,C12*%
X102500000Y-100000000D03*
X100600000Y-100000000D03*
%TD*%
D22*
%TO.C,L2*%
X95294000Y-78386000D03*
X105194000Y-78386000D03*
%TD*%
D13*
%TO.C,C5*%
X94950000Y-64450000D03*
X94950000Y-66350000D03*
%TD*%
D38*
%TO.C,JP1*%
X89150000Y-78750000D03*
X90450000Y-78750000D03*
%TD*%
D10*
%TO.C,J2*%
X115600000Y-78040000D03*
D11*
X115600000Y-80580000D03*
X115600000Y-83120000D03*
X115600000Y-85660000D03*
X115600000Y-88200000D03*
%TD*%
M02*
