%TF.GenerationSoftware,KiCad,Pcbnew,8.0.0-8.0.0-1~ubuntu22.04.1*%
%TF.CreationDate,2024-07-29T15:08:53-04:00*%
%TF.ProjectId,UV-Control,55562d43-6f6e-4747-926f-6c2e6b696361,rev?*%
%TF.SameCoordinates,Original*%
%TF.FileFunction,Legend,Bot*%
%TF.FilePolarity,Positive*%
%FSLAX46Y46*%
G04 Gerber Fmt 4.6, Leading zero omitted, Abs format (unit mm)*
G04 Created by KiCad (PCBNEW 8.0.0-8.0.0-1~ubuntu22.04.1) date 2024-07-29 15:08:53*
%MOMM*%
%LPD*%
G01*
G04 APERTURE LIST*
%ADD10C,0.150000*%
G04 APERTURE END LIST*
D10*
X156934649Y-67883264D02*
X156934649Y-68692788D01*
X156934649Y-68692788D02*
X156982268Y-68788026D01*
X156982268Y-68788026D02*
X157029887Y-68835645D01*
X157029887Y-68835645D02*
X157125125Y-68883264D01*
X157125125Y-68883264D02*
X157267982Y-68883264D01*
X157267982Y-68883264D02*
X157363220Y-68835645D01*
X156934649Y-68502312D02*
X157029887Y-68549931D01*
X157029887Y-68549931D02*
X157220363Y-68549931D01*
X157220363Y-68549931D02*
X157315601Y-68502312D01*
X157315601Y-68502312D02*
X157363220Y-68454692D01*
X157363220Y-68454692D02*
X157410839Y-68359454D01*
X157410839Y-68359454D02*
X157410839Y-68073740D01*
X157410839Y-68073740D02*
X157363220Y-67978502D01*
X157363220Y-67978502D02*
X157315601Y-67930883D01*
X157315601Y-67930883D02*
X157220363Y-67883264D01*
X157220363Y-67883264D02*
X157029887Y-67883264D01*
X157029887Y-67883264D02*
X156934649Y-67930883D01*
X156458458Y-68549931D02*
X156458458Y-67883264D01*
X156458458Y-67549931D02*
X156506077Y-67597550D01*
X156506077Y-67597550D02*
X156458458Y-67645169D01*
X156458458Y-67645169D02*
X156410839Y-67597550D01*
X156410839Y-67597550D02*
X156458458Y-67549931D01*
X156458458Y-67549931D02*
X156458458Y-67645169D01*
X156125125Y-67883264D02*
X155744173Y-67883264D01*
X155982268Y-67549931D02*
X155982268Y-68407073D01*
X155982268Y-68407073D02*
X155934649Y-68502312D01*
X155934649Y-68502312D02*
X155839411Y-68549931D01*
X155839411Y-68549931D02*
X155744173Y-68549931D01*
X155267982Y-68549931D02*
X155363220Y-68502312D01*
X155363220Y-68502312D02*
X155410839Y-68407073D01*
X155410839Y-68407073D02*
X155410839Y-67549931D01*
X154458458Y-68549931D02*
X154458458Y-68026121D01*
X154458458Y-68026121D02*
X154506077Y-67930883D01*
X154506077Y-67930883D02*
X154601315Y-67883264D01*
X154601315Y-67883264D02*
X154791791Y-67883264D01*
X154791791Y-67883264D02*
X154887029Y-67930883D01*
X154458458Y-68502312D02*
X154553696Y-68549931D01*
X154553696Y-68549931D02*
X154791791Y-68549931D01*
X154791791Y-68549931D02*
X154887029Y-68502312D01*
X154887029Y-68502312D02*
X154934648Y-68407073D01*
X154934648Y-68407073D02*
X154934648Y-68311835D01*
X154934648Y-68311835D02*
X154887029Y-68216597D01*
X154887029Y-68216597D02*
X154791791Y-68168978D01*
X154791791Y-68168978D02*
X154553696Y-68168978D01*
X154553696Y-68168978D02*
X154458458Y-68121359D01*
X153982267Y-68549931D02*
X153982267Y-67549931D01*
X153982267Y-67930883D02*
X153887029Y-67883264D01*
X153887029Y-67883264D02*
X153696553Y-67883264D01*
X153696553Y-67883264D02*
X153601315Y-67930883D01*
X153601315Y-67930883D02*
X153553696Y-67978502D01*
X153553696Y-67978502D02*
X153506077Y-68073740D01*
X153506077Y-68073740D02*
X153506077Y-68359454D01*
X153506077Y-68359454D02*
X153553696Y-68454692D01*
X153553696Y-68454692D02*
X153601315Y-68502312D01*
X153601315Y-68502312D02*
X153696553Y-68549931D01*
X153696553Y-68549931D02*
X153887029Y-68549931D01*
X153887029Y-68549931D02*
X153982267Y-68502312D01*
X153077505Y-68454692D02*
X153029886Y-68502312D01*
X153029886Y-68502312D02*
X153077505Y-68549931D01*
X153077505Y-68549931D02*
X153125124Y-68502312D01*
X153125124Y-68502312D02*
X153077505Y-68454692D01*
X153077505Y-68454692D02*
X153077505Y-68549931D01*
X152172744Y-68502312D02*
X152267982Y-68549931D01*
X152267982Y-68549931D02*
X152458458Y-68549931D01*
X152458458Y-68549931D02*
X152553696Y-68502312D01*
X152553696Y-68502312D02*
X152601315Y-68454692D01*
X152601315Y-68454692D02*
X152648934Y-68359454D01*
X152648934Y-68359454D02*
X152648934Y-68073740D01*
X152648934Y-68073740D02*
X152601315Y-67978502D01*
X152601315Y-67978502D02*
X152553696Y-67930883D01*
X152553696Y-67930883D02*
X152458458Y-67883264D01*
X152458458Y-67883264D02*
X152267982Y-67883264D01*
X152267982Y-67883264D02*
X152172744Y-67930883D01*
X151601315Y-68549931D02*
X151696553Y-68502312D01*
X151696553Y-68502312D02*
X151744172Y-68454692D01*
X151744172Y-68454692D02*
X151791791Y-68359454D01*
X151791791Y-68359454D02*
X151791791Y-68073740D01*
X151791791Y-68073740D02*
X151744172Y-67978502D01*
X151744172Y-67978502D02*
X151696553Y-67930883D01*
X151696553Y-67930883D02*
X151601315Y-67883264D01*
X151601315Y-67883264D02*
X151458458Y-67883264D01*
X151458458Y-67883264D02*
X151363220Y-67930883D01*
X151363220Y-67930883D02*
X151315601Y-67978502D01*
X151315601Y-67978502D02*
X151267982Y-68073740D01*
X151267982Y-68073740D02*
X151267982Y-68359454D01*
X151267982Y-68359454D02*
X151315601Y-68454692D01*
X151315601Y-68454692D02*
X151363220Y-68502312D01*
X151363220Y-68502312D02*
X151458458Y-68549931D01*
X151458458Y-68549931D02*
X151601315Y-68549931D01*
X150839410Y-68549931D02*
X150839410Y-67883264D01*
X150839410Y-67978502D02*
X150791791Y-67930883D01*
X150791791Y-67930883D02*
X150696553Y-67883264D01*
X150696553Y-67883264D02*
X150553696Y-67883264D01*
X150553696Y-67883264D02*
X150458458Y-67930883D01*
X150458458Y-67930883D02*
X150410839Y-68026121D01*
X150410839Y-68026121D02*
X150410839Y-68549931D01*
X150410839Y-68026121D02*
X150363220Y-67930883D01*
X150363220Y-67930883D02*
X150267982Y-67883264D01*
X150267982Y-67883264D02*
X150125125Y-67883264D01*
X150125125Y-67883264D02*
X150029886Y-67930883D01*
X150029886Y-67930883D02*
X149982267Y-68026121D01*
X149982267Y-68026121D02*
X149982267Y-68549931D01*
X148791792Y-67502312D02*
X149648934Y-68788026D01*
X148077506Y-68502312D02*
X148172744Y-68549931D01*
X148172744Y-68549931D02*
X148363220Y-68549931D01*
X148363220Y-68549931D02*
X148458458Y-68502312D01*
X148458458Y-68502312D02*
X148506077Y-68407073D01*
X148506077Y-68407073D02*
X148506077Y-68026121D01*
X148506077Y-68026121D02*
X148458458Y-67930883D01*
X148458458Y-67930883D02*
X148363220Y-67883264D01*
X148363220Y-67883264D02*
X148172744Y-67883264D01*
X148172744Y-67883264D02*
X148077506Y-67930883D01*
X148077506Y-67930883D02*
X148029887Y-68026121D01*
X148029887Y-68026121D02*
X148029887Y-68121359D01*
X148029887Y-68121359D02*
X148506077Y-68216597D01*
X147172744Y-68549931D02*
X147172744Y-67549931D01*
X147172744Y-68502312D02*
X147267982Y-68549931D01*
X147267982Y-68549931D02*
X147458458Y-68549931D01*
X147458458Y-68549931D02*
X147553696Y-68502312D01*
X147553696Y-68502312D02*
X147601315Y-68454692D01*
X147601315Y-68454692D02*
X147648934Y-68359454D01*
X147648934Y-68359454D02*
X147648934Y-68073740D01*
X147648934Y-68073740D02*
X147601315Y-67978502D01*
X147601315Y-67978502D02*
X147553696Y-67930883D01*
X147553696Y-67930883D02*
X147458458Y-67883264D01*
X147458458Y-67883264D02*
X147267982Y-67883264D01*
X147267982Y-67883264D02*
X147172744Y-67930883D01*
X146267982Y-67883264D02*
X146267982Y-68692788D01*
X146267982Y-68692788D02*
X146315601Y-68788026D01*
X146315601Y-68788026D02*
X146363220Y-68835645D01*
X146363220Y-68835645D02*
X146458458Y-68883264D01*
X146458458Y-68883264D02*
X146601315Y-68883264D01*
X146601315Y-68883264D02*
X146696553Y-68835645D01*
X146267982Y-68502312D02*
X146363220Y-68549931D01*
X146363220Y-68549931D02*
X146553696Y-68549931D01*
X146553696Y-68549931D02*
X146648934Y-68502312D01*
X146648934Y-68502312D02*
X146696553Y-68454692D01*
X146696553Y-68454692D02*
X146744172Y-68359454D01*
X146744172Y-68359454D02*
X146744172Y-68073740D01*
X146744172Y-68073740D02*
X146696553Y-67978502D01*
X146696553Y-67978502D02*
X146648934Y-67930883D01*
X146648934Y-67930883D02*
X146553696Y-67883264D01*
X146553696Y-67883264D02*
X146363220Y-67883264D01*
X146363220Y-67883264D02*
X146267982Y-67930883D01*
X145410839Y-68502312D02*
X145506077Y-68549931D01*
X145506077Y-68549931D02*
X145696553Y-68549931D01*
X145696553Y-68549931D02*
X145791791Y-68502312D01*
X145791791Y-68502312D02*
X145839410Y-68407073D01*
X145839410Y-68407073D02*
X145839410Y-68026121D01*
X145839410Y-68026121D02*
X145791791Y-67930883D01*
X145791791Y-67930883D02*
X145696553Y-67883264D01*
X145696553Y-67883264D02*
X145506077Y-67883264D01*
X145506077Y-67883264D02*
X145410839Y-67930883D01*
X145410839Y-67930883D02*
X145363220Y-68026121D01*
X145363220Y-68026121D02*
X145363220Y-68121359D01*
X145363220Y-68121359D02*
X145839410Y-68216597D01*
X144506077Y-68502312D02*
X144601315Y-68549931D01*
X144601315Y-68549931D02*
X144791791Y-68549931D01*
X144791791Y-68549931D02*
X144887029Y-68502312D01*
X144887029Y-68502312D02*
X144934648Y-68454692D01*
X144934648Y-68454692D02*
X144982267Y-68359454D01*
X144982267Y-68359454D02*
X144982267Y-68073740D01*
X144982267Y-68073740D02*
X144934648Y-67978502D01*
X144934648Y-67978502D02*
X144887029Y-67930883D01*
X144887029Y-67930883D02*
X144791791Y-67883264D01*
X144791791Y-67883264D02*
X144601315Y-67883264D01*
X144601315Y-67883264D02*
X144506077Y-67930883D01*
X143934648Y-68549931D02*
X144029886Y-68502312D01*
X144029886Y-68502312D02*
X144077505Y-68454692D01*
X144077505Y-68454692D02*
X144125124Y-68359454D01*
X144125124Y-68359454D02*
X144125124Y-68073740D01*
X144125124Y-68073740D02*
X144077505Y-67978502D01*
X144077505Y-67978502D02*
X144029886Y-67930883D01*
X144029886Y-67930883D02*
X143934648Y-67883264D01*
X143934648Y-67883264D02*
X143791791Y-67883264D01*
X143791791Y-67883264D02*
X143696553Y-67930883D01*
X143696553Y-67930883D02*
X143648934Y-67978502D01*
X143648934Y-67978502D02*
X143601315Y-68073740D01*
X143601315Y-68073740D02*
X143601315Y-68359454D01*
X143601315Y-68359454D02*
X143648934Y-68454692D01*
X143648934Y-68454692D02*
X143696553Y-68502312D01*
X143696553Y-68502312D02*
X143791791Y-68549931D01*
X143791791Y-68549931D02*
X143934648Y-68549931D01*
X143029886Y-68549931D02*
X143125124Y-68502312D01*
X143125124Y-68502312D02*
X143172743Y-68407073D01*
X143172743Y-68407073D02*
X143172743Y-67549931D01*
X142506076Y-68549931D02*
X142601314Y-68502312D01*
X142601314Y-68502312D02*
X142648933Y-68407073D01*
X142648933Y-68407073D02*
X142648933Y-67549931D01*
X141744171Y-68502312D02*
X141839409Y-68549931D01*
X141839409Y-68549931D02*
X142029885Y-68549931D01*
X142029885Y-68549931D02*
X142125123Y-68502312D01*
X142125123Y-68502312D02*
X142172742Y-68407073D01*
X142172742Y-68407073D02*
X142172742Y-68026121D01*
X142172742Y-68026121D02*
X142125123Y-67930883D01*
X142125123Y-67930883D02*
X142029885Y-67883264D01*
X142029885Y-67883264D02*
X141839409Y-67883264D01*
X141839409Y-67883264D02*
X141744171Y-67930883D01*
X141744171Y-67930883D02*
X141696552Y-68026121D01*
X141696552Y-68026121D02*
X141696552Y-68121359D01*
X141696552Y-68121359D02*
X142172742Y-68216597D01*
X140839409Y-68502312D02*
X140934647Y-68549931D01*
X140934647Y-68549931D02*
X141125123Y-68549931D01*
X141125123Y-68549931D02*
X141220361Y-68502312D01*
X141220361Y-68502312D02*
X141267980Y-68454692D01*
X141267980Y-68454692D02*
X141315599Y-68359454D01*
X141315599Y-68359454D02*
X141315599Y-68073740D01*
X141315599Y-68073740D02*
X141267980Y-67978502D01*
X141267980Y-67978502D02*
X141220361Y-67930883D01*
X141220361Y-67930883D02*
X141125123Y-67883264D01*
X141125123Y-67883264D02*
X140934647Y-67883264D01*
X140934647Y-67883264D02*
X140839409Y-67930883D01*
X140553694Y-67883264D02*
X140172742Y-67883264D01*
X140410837Y-67549931D02*
X140410837Y-68407073D01*
X140410837Y-68407073D02*
X140363218Y-68502312D01*
X140363218Y-68502312D02*
X140267980Y-68549931D01*
X140267980Y-68549931D02*
X140172742Y-68549931D01*
X139839408Y-68549931D02*
X139839408Y-67883264D01*
X139839408Y-67549931D02*
X139887027Y-67597550D01*
X139887027Y-67597550D02*
X139839408Y-67645169D01*
X139839408Y-67645169D02*
X139791789Y-67597550D01*
X139791789Y-67597550D02*
X139839408Y-67549931D01*
X139839408Y-67549931D02*
X139839408Y-67645169D01*
X139458456Y-67883264D02*
X139220361Y-68549931D01*
X139220361Y-68549931D02*
X138982266Y-67883264D01*
X138220361Y-68502312D02*
X138315599Y-68549931D01*
X138315599Y-68549931D02*
X138506075Y-68549931D01*
X138506075Y-68549931D02*
X138601313Y-68502312D01*
X138601313Y-68502312D02*
X138648932Y-68407073D01*
X138648932Y-68407073D02*
X138648932Y-68026121D01*
X138648932Y-68026121D02*
X138601313Y-67930883D01*
X138601313Y-67930883D02*
X138506075Y-67883264D01*
X138506075Y-67883264D02*
X138315599Y-67883264D01*
X138315599Y-67883264D02*
X138220361Y-67930883D01*
X138220361Y-67930883D02*
X138172742Y-68026121D01*
X138172742Y-68026121D02*
X138172742Y-68121359D01*
X138172742Y-68121359D02*
X138648932Y-68216597D01*
X137029885Y-67502312D02*
X137887027Y-68788026D01*
X136267980Y-67883264D02*
X136267980Y-68549931D01*
X136696551Y-67883264D02*
X136696551Y-68407073D01*
X136696551Y-68407073D02*
X136648932Y-68502312D01*
X136648932Y-68502312D02*
X136553694Y-68549931D01*
X136553694Y-68549931D02*
X136410837Y-68549931D01*
X136410837Y-68549931D02*
X136315599Y-68502312D01*
X136315599Y-68502312D02*
X136267980Y-68454692D01*
X135887027Y-67883264D02*
X135648932Y-68549931D01*
X135648932Y-68549931D02*
X135410837Y-67883264D01*
X135029884Y-68168978D02*
X134267980Y-68168978D01*
X133887027Y-67883264D02*
X133696551Y-68549931D01*
X133696551Y-68549931D02*
X133506075Y-68073740D01*
X133506075Y-68073740D02*
X133315599Y-68549931D01*
X133315599Y-68549931D02*
X133125123Y-67883264D01*
X132315599Y-68549931D02*
X132315599Y-68026121D01*
X132315599Y-68026121D02*
X132363218Y-67930883D01*
X132363218Y-67930883D02*
X132458456Y-67883264D01*
X132458456Y-67883264D02*
X132648932Y-67883264D01*
X132648932Y-67883264D02*
X132744170Y-67930883D01*
X132315599Y-68502312D02*
X132410837Y-68549931D01*
X132410837Y-68549931D02*
X132648932Y-68549931D01*
X132648932Y-68549931D02*
X132744170Y-68502312D01*
X132744170Y-68502312D02*
X132791789Y-68407073D01*
X132791789Y-68407073D02*
X132791789Y-68311835D01*
X132791789Y-68311835D02*
X132744170Y-68216597D01*
X132744170Y-68216597D02*
X132648932Y-68168978D01*
X132648932Y-68168978D02*
X132410837Y-68168978D01*
X132410837Y-68168978D02*
X132315599Y-68121359D01*
X131982265Y-67883264D02*
X131601313Y-67883264D01*
X131839408Y-67549931D02*
X131839408Y-68407073D01*
X131839408Y-68407073D02*
X131791789Y-68502312D01*
X131791789Y-68502312D02*
X131696551Y-68549931D01*
X131696551Y-68549931D02*
X131601313Y-68549931D01*
X130887027Y-68502312D02*
X130982265Y-68549931D01*
X130982265Y-68549931D02*
X131172741Y-68549931D01*
X131172741Y-68549931D02*
X131267979Y-68502312D01*
X131267979Y-68502312D02*
X131315598Y-68407073D01*
X131315598Y-68407073D02*
X131315598Y-68026121D01*
X131315598Y-68026121D02*
X131267979Y-67930883D01*
X131267979Y-67930883D02*
X131172741Y-67883264D01*
X131172741Y-67883264D02*
X130982265Y-67883264D01*
X130982265Y-67883264D02*
X130887027Y-67930883D01*
X130887027Y-67930883D02*
X130839408Y-68026121D01*
X130839408Y-68026121D02*
X130839408Y-68121359D01*
X130839408Y-68121359D02*
X131315598Y-68216597D01*
X130410836Y-68549931D02*
X130410836Y-67883264D01*
X130410836Y-68073740D02*
X130363217Y-67978502D01*
X130363217Y-67978502D02*
X130315598Y-67930883D01*
X130315598Y-67930883D02*
X130220360Y-67883264D01*
X130220360Y-67883264D02*
X130125122Y-67883264D01*
X129077503Y-67502312D02*
X129934645Y-68788026D01*
X157363220Y-69159875D02*
X157363220Y-69969398D01*
X157363220Y-69969398D02*
X157315601Y-70064636D01*
X157315601Y-70064636D02*
X157267982Y-70112256D01*
X157267982Y-70112256D02*
X157172744Y-70159875D01*
X157172744Y-70159875D02*
X156982268Y-70159875D01*
X156982268Y-70159875D02*
X156887030Y-70112256D01*
X156887030Y-70112256D02*
X156839411Y-70064636D01*
X156839411Y-70064636D02*
X156791792Y-69969398D01*
X156791792Y-69969398D02*
X156791792Y-69159875D01*
X156458458Y-69159875D02*
X156125125Y-70159875D01*
X156125125Y-70159875D02*
X155791792Y-69159875D01*
X155458458Y-69778922D02*
X154696554Y-69778922D01*
X153648935Y-70064636D02*
X153696554Y-70112256D01*
X153696554Y-70112256D02*
X153839411Y-70159875D01*
X153839411Y-70159875D02*
X153934649Y-70159875D01*
X153934649Y-70159875D02*
X154077506Y-70112256D01*
X154077506Y-70112256D02*
X154172744Y-70017017D01*
X154172744Y-70017017D02*
X154220363Y-69921779D01*
X154220363Y-69921779D02*
X154267982Y-69731303D01*
X154267982Y-69731303D02*
X154267982Y-69588446D01*
X154267982Y-69588446D02*
X154220363Y-69397970D01*
X154220363Y-69397970D02*
X154172744Y-69302732D01*
X154172744Y-69302732D02*
X154077506Y-69207494D01*
X154077506Y-69207494D02*
X153934649Y-69159875D01*
X153934649Y-69159875D02*
X153839411Y-69159875D01*
X153839411Y-69159875D02*
X153696554Y-69207494D01*
X153696554Y-69207494D02*
X153648935Y-69255113D01*
X153077506Y-70159875D02*
X153172744Y-70112256D01*
X153172744Y-70112256D02*
X153220363Y-70064636D01*
X153220363Y-70064636D02*
X153267982Y-69969398D01*
X153267982Y-69969398D02*
X153267982Y-69683684D01*
X153267982Y-69683684D02*
X153220363Y-69588446D01*
X153220363Y-69588446D02*
X153172744Y-69540827D01*
X153172744Y-69540827D02*
X153077506Y-69493208D01*
X153077506Y-69493208D02*
X152934649Y-69493208D01*
X152934649Y-69493208D02*
X152839411Y-69540827D01*
X152839411Y-69540827D02*
X152791792Y-69588446D01*
X152791792Y-69588446D02*
X152744173Y-69683684D01*
X152744173Y-69683684D02*
X152744173Y-69969398D01*
X152744173Y-69969398D02*
X152791792Y-70064636D01*
X152791792Y-70064636D02*
X152839411Y-70112256D01*
X152839411Y-70112256D02*
X152934649Y-70159875D01*
X152934649Y-70159875D02*
X153077506Y-70159875D01*
X152315601Y-69493208D02*
X152315601Y-70159875D01*
X152315601Y-69588446D02*
X152267982Y-69540827D01*
X152267982Y-69540827D02*
X152172744Y-69493208D01*
X152172744Y-69493208D02*
X152029887Y-69493208D01*
X152029887Y-69493208D02*
X151934649Y-69540827D01*
X151934649Y-69540827D02*
X151887030Y-69636065D01*
X151887030Y-69636065D02*
X151887030Y-70159875D01*
X151553696Y-69493208D02*
X151172744Y-69493208D01*
X151410839Y-69159875D02*
X151410839Y-70017017D01*
X151410839Y-70017017D02*
X151363220Y-70112256D01*
X151363220Y-70112256D02*
X151267982Y-70159875D01*
X151267982Y-70159875D02*
X151172744Y-70159875D01*
X150839410Y-70159875D02*
X150839410Y-69493208D01*
X150839410Y-69683684D02*
X150791791Y-69588446D01*
X150791791Y-69588446D02*
X150744172Y-69540827D01*
X150744172Y-69540827D02*
X150648934Y-69493208D01*
X150648934Y-69493208D02*
X150553696Y-69493208D01*
X150077505Y-70159875D02*
X150172743Y-70112256D01*
X150172743Y-70112256D02*
X150220362Y-70064636D01*
X150220362Y-70064636D02*
X150267981Y-69969398D01*
X150267981Y-69969398D02*
X150267981Y-69683684D01*
X150267981Y-69683684D02*
X150220362Y-69588446D01*
X150220362Y-69588446D02*
X150172743Y-69540827D01*
X150172743Y-69540827D02*
X150077505Y-69493208D01*
X150077505Y-69493208D02*
X149934648Y-69493208D01*
X149934648Y-69493208D02*
X149839410Y-69540827D01*
X149839410Y-69540827D02*
X149791791Y-69588446D01*
X149791791Y-69588446D02*
X149744172Y-69683684D01*
X149744172Y-69683684D02*
X149744172Y-69969398D01*
X149744172Y-69969398D02*
X149791791Y-70064636D01*
X149791791Y-70064636D02*
X149839410Y-70112256D01*
X149839410Y-70112256D02*
X149934648Y-70159875D01*
X149934648Y-70159875D02*
X150077505Y-70159875D01*
X149172743Y-70159875D02*
X149267981Y-70112256D01*
X149267981Y-70112256D02*
X149315600Y-70017017D01*
X149315600Y-70017017D02*
X149315600Y-69159875D01*
X148125123Y-69493208D02*
X147887028Y-70159875D01*
X147887028Y-70159875D02*
X147648933Y-69493208D01*
X147077504Y-69159875D02*
X146982266Y-69159875D01*
X146982266Y-69159875D02*
X146887028Y-69207494D01*
X146887028Y-69207494D02*
X146839409Y-69255113D01*
X146839409Y-69255113D02*
X146791790Y-69350351D01*
X146791790Y-69350351D02*
X146744171Y-69540827D01*
X146744171Y-69540827D02*
X146744171Y-69778922D01*
X146744171Y-69778922D02*
X146791790Y-69969398D01*
X146791790Y-69969398D02*
X146839409Y-70064636D01*
X146839409Y-70064636D02*
X146887028Y-70112256D01*
X146887028Y-70112256D02*
X146982266Y-70159875D01*
X146982266Y-70159875D02*
X147077504Y-70159875D01*
X147077504Y-70159875D02*
X147172742Y-70112256D01*
X147172742Y-70112256D02*
X147220361Y-70064636D01*
X147220361Y-70064636D02*
X147267980Y-69969398D01*
X147267980Y-69969398D02*
X147315599Y-69778922D01*
X147315599Y-69778922D02*
X147315599Y-69540827D01*
X147315599Y-69540827D02*
X147267980Y-69350351D01*
X147267980Y-69350351D02*
X147220361Y-69255113D01*
X147220361Y-69255113D02*
X147172742Y-69207494D01*
X147172742Y-69207494D02*
X147077504Y-69159875D01*
X146315599Y-70064636D02*
X146267980Y-70112256D01*
X146267980Y-70112256D02*
X146315599Y-70159875D01*
X146315599Y-70159875D02*
X146363218Y-70112256D01*
X146363218Y-70112256D02*
X146315599Y-70064636D01*
X146315599Y-70064636D02*
X146315599Y-70159875D01*
X145315600Y-70159875D02*
X145887028Y-70159875D01*
X145601314Y-70159875D02*
X145601314Y-69159875D01*
X145601314Y-69159875D02*
X145696552Y-69302732D01*
X145696552Y-69302732D02*
X145791790Y-69397970D01*
X145791790Y-69397970D02*
X145887028Y-69445589D01*
X157077506Y-70769819D02*
X157077506Y-71484104D01*
X157077506Y-71484104D02*
X157125125Y-71626961D01*
X157125125Y-71626961D02*
X157220363Y-71722200D01*
X157220363Y-71722200D02*
X157363220Y-71769819D01*
X157363220Y-71769819D02*
X157458458Y-71769819D01*
X156172744Y-71103152D02*
X156172744Y-71769819D01*
X156601315Y-71103152D02*
X156601315Y-71626961D01*
X156601315Y-71626961D02*
X156553696Y-71722200D01*
X156553696Y-71722200D02*
X156458458Y-71769819D01*
X156458458Y-71769819D02*
X156315601Y-71769819D01*
X156315601Y-71769819D02*
X156220363Y-71722200D01*
X156220363Y-71722200D02*
X156172744Y-71674580D01*
X155553696Y-71769819D02*
X155648934Y-71722200D01*
X155648934Y-71722200D02*
X155696553Y-71626961D01*
X155696553Y-71626961D02*
X155696553Y-70769819D01*
X155267981Y-71103152D02*
X155029886Y-71769819D01*
X154791791Y-71103152D02*
X155029886Y-71769819D01*
X155029886Y-71769819D02*
X155125124Y-72007914D01*
X155125124Y-72007914D02*
X155172743Y-72055533D01*
X155172743Y-72055533D02*
X155267981Y-72103152D01*
X153696552Y-70865057D02*
X153648933Y-70817438D01*
X153648933Y-70817438D02*
X153553695Y-70769819D01*
X153553695Y-70769819D02*
X153315600Y-70769819D01*
X153315600Y-70769819D02*
X153220362Y-70817438D01*
X153220362Y-70817438D02*
X153172743Y-70865057D01*
X153172743Y-70865057D02*
X153125124Y-70960295D01*
X153125124Y-70960295D02*
X153125124Y-71055533D01*
X153125124Y-71055533D02*
X153172743Y-71198390D01*
X153172743Y-71198390D02*
X153744171Y-71769819D01*
X153744171Y-71769819D02*
X153125124Y-71769819D01*
X152506076Y-70769819D02*
X152410838Y-70769819D01*
X152410838Y-70769819D02*
X152315600Y-70817438D01*
X152315600Y-70817438D02*
X152267981Y-70865057D01*
X152267981Y-70865057D02*
X152220362Y-70960295D01*
X152220362Y-70960295D02*
X152172743Y-71150771D01*
X152172743Y-71150771D02*
X152172743Y-71388866D01*
X152172743Y-71388866D02*
X152220362Y-71579342D01*
X152220362Y-71579342D02*
X152267981Y-71674580D01*
X152267981Y-71674580D02*
X152315600Y-71722200D01*
X152315600Y-71722200D02*
X152410838Y-71769819D01*
X152410838Y-71769819D02*
X152506076Y-71769819D01*
X152506076Y-71769819D02*
X152601314Y-71722200D01*
X152601314Y-71722200D02*
X152648933Y-71674580D01*
X152648933Y-71674580D02*
X152696552Y-71579342D01*
X152696552Y-71579342D02*
X152744171Y-71388866D01*
X152744171Y-71388866D02*
X152744171Y-71150771D01*
X152744171Y-71150771D02*
X152696552Y-70960295D01*
X152696552Y-70960295D02*
X152648933Y-70865057D01*
X152648933Y-70865057D02*
X152601314Y-70817438D01*
X152601314Y-70817438D02*
X152506076Y-70769819D01*
X151791790Y-70865057D02*
X151744171Y-70817438D01*
X151744171Y-70817438D02*
X151648933Y-70769819D01*
X151648933Y-70769819D02*
X151410838Y-70769819D01*
X151410838Y-70769819D02*
X151315600Y-70817438D01*
X151315600Y-70817438D02*
X151267981Y-70865057D01*
X151267981Y-70865057D02*
X151220362Y-70960295D01*
X151220362Y-70960295D02*
X151220362Y-71055533D01*
X151220362Y-71055533D02*
X151267981Y-71198390D01*
X151267981Y-71198390D02*
X151839409Y-71769819D01*
X151839409Y-71769819D02*
X151220362Y-71769819D01*
X150363219Y-71103152D02*
X150363219Y-71769819D01*
X150601314Y-70722200D02*
X150839409Y-71436485D01*
X150839409Y-71436485D02*
X150220362Y-71436485D01*
M02*
