"Id";"Designator";"Footprint";"Quantity";"Designation";"Supplier and ref";
1;"J8,J2";"PinSocket_1x05_P2.54mm_Vertical";2;"Conn_01x05_Female";;;
2;"R2";"R_0805_2012Metric";1;"680";;;
3;"R17,R1,R15,R14";"R_0805_2012Metric";4;"4.7K";;;
4;"C1";"C_0805_2012Metric";1;"1n";;;
5;"C7";"C_0805_2012Metric";1;"1000u";;;
6;"R4";"R_0805_2012Metric";1;"200";;;
7;"H3,H1,H2,H4";"MountingHole_3.2mm_M3";4;"MountingHole";;;
8;"J1,J4";"PinSocket_1x06_P2.54mm_Vertical";2;"Conn_01x06_Female";;;
9;"D1";"D_SOD-123";1;"Zener, Vz=3V, e.g. MMSZ4683-TP";;;
10;"R11,R13,R8,R12,R3";"R_0805_2012Metric";5;"10K";;;
11;"Q2";"SOT-23";1;"DMN2056U";;;
12;"D2,D3";"D_SOD-123";2;"1N4148W-13FDITR-ND";;;
13;"R6";"R_0805_2012Metric";1;"100K";;;
14;"J6";"PinSocket_1x02_P2.54mm_Vertical";1;"Conn_01x02_Female";;;
15;"U5";"SOT-23-5";1;"TL331IDBVR";;;
16;"TP1";"TestPoint_Keystone_5010-5014_Multipurpose";1;"Keystone5010";;;
17;"L1";"L_12x12mm_H4.5mm";1;"50 uH SMT, e.g. SRR1205-500YL";;;
18;"C10";"C_0805_2012Metric";1;"330nF";;;
19;"J7";"PinHeader_1x03_P2.54mm_Vertical";1;"Conn_01x03_Male";;;
20;"C4";"C_0805_2012Metric";1;"0.1u";;;
21;"C2";"C_0805_2012Metric";1;".01u";;;
22;"D5";"LED_D5.0mm";1;"LED";;;
23;"C8,C6,C9";"C_0805_2012Metric";3;"TBD";;;
24;"R5,R10,R16";"R_0805_2012Metric";3;"5.5K";;;
25;"D4";"D_SOD-123F";1;"Schottky diode, e.g. SM5817PL-TP";;;
26;"SW2,SW3,SW1";"SW_Tactile_SPST_Angled_PTS645Vx31-2LFS";3;"PTS645VH58-2 LFS";;;
27;"A2";"ssd1306_b";1;"ssd1306";;;
28;"A1";"itsybitsy";1;"itsybitsy_nrf52840_express";;;
29;"J3";"USB_Micro-B_Molex-105017-0001";1;"uUSB - Molex-105017-0001";;;
30;"C3";"C_0805_2012Metric";1;".047u";;;
31;"TP2";"TestPoint_Keystone_5010-5014_Multipurpose";1;"Keystone5011";;;
32;"U3";"SOIC-8-1EP_3.9x4.9mm_P1.27mm_EP2.62x3.51mm";1;"NE555DR";;;
33;"R9";"R_0805_2012Metric";1;"5K";;;
34;"JP4";"SolderJumper-3_P1.3mm_Open_Pad1.0x1.5mm";1;"SolderJumper_3_Open";;;
35;"R7";"R_0805_2012Metric";1;"TBD";;;
36;"U1";"SOIC-8-1EP_3.9x4.9mm_P1.27mm_EP2.29x3mm";1;"NE555DR	";;;
37;"C11,C12";"C_0805_2012Metric";2;"1uF";;;
38;"L3";"L_Axial_L7.0mm_D3.3mm_P2.54mm_Vertical_Fastron_MICC";1;"50 uH (through-hole)";;;
39;"L4";"L_Axial_L7.0mm_D3.3mm_P2.54mm_Vertical_Fastron_MICC";1;"TBD";;;
40;"L2";"L_12x12mm_H4.5mm";1;"TBD";;;
41;"C5";"C_0805_2012Metric";1;"100n";;;
42;"JP1";"SolderJumper-2_P1.3mm_Open_Pad1.0x1.5mm";1;"Jumper_2_Open";;;
