%TF.GenerationSoftware,KiCad,Pcbnew,8.0.0-8.0.0-1~ubuntu22.04.1*%
%TF.CreationDate,2024-04-06T20:55:26-04:00*%
%TF.ProjectId,UV-Detector-v0.2,55562d44-6574-4656-9374-6f722d76302e,rev?*%
%TF.SameCoordinates,Original*%
%TF.FileFunction,Copper,L1,Top*%
%TF.FilePolarity,Positive*%
%FSLAX46Y46*%
G04 Gerber Fmt 4.6, Leading zero omitted, Abs format (unit mm)*
G04 Created by KiCad (PCBNEW 8.0.0-8.0.0-1~ubuntu22.04.1) date 2024-04-06 20:55:26*
%MOMM*%
%LPD*%
G01*
G04 APERTURE LIST*
G04 Aperture macros list*
%AMRoundRect*
0 Rectangle with rounded corners*
0 $1 Rounding radius*
0 $2 $3 $4 $5 $6 $7 $8 $9 X,Y pos of 4 corners*
0 Add a 4 corners polygon primitive as box body*
4,1,4,$2,$3,$4,$5,$6,$7,$8,$9,$2,$3,0*
0 Add four circle primitives for the rounded corners*
1,1,$1+$1,$2,$3*
1,1,$1+$1,$4,$5*
1,1,$1+$1,$6,$7*
1,1,$1+$1,$8,$9*
0 Add four rect primitives between the rounded corners*
20,1,$1+$1,$2,$3,$4,$5,0*
20,1,$1+$1,$4,$5,$6,$7,0*
20,1,$1+$1,$6,$7,$8,$9,0*
20,1,$1+$1,$8,$9,$2,$3,0*%
G04 Aperture macros list end*
%ADD10C,0.300000*%
%TA.AperFunction,NonConductor*%
%ADD11C,0.300000*%
%TD*%
%TA.AperFunction,SMDPad,CuDef*%
%ADD12RoundRect,0.250000X-0.350000X-0.450000X0.350000X-0.450000X0.350000X0.450000X-0.350000X0.450000X0*%
%TD*%
%TA.AperFunction,SMDPad,CuDef*%
%ADD13RoundRect,0.150000X-0.587500X-0.150000X0.587500X-0.150000X0.587500X0.150000X-0.587500X0.150000X0*%
%TD*%
%TA.AperFunction,SMDPad,CuDef*%
%ADD14RoundRect,0.250000X0.350000X0.450000X-0.350000X0.450000X-0.350000X-0.450000X0.350000X-0.450000X0*%
%TD*%
%TA.AperFunction,SMDPad,CuDef*%
%ADD15RoundRect,0.250000X-0.475000X0.337500X-0.475000X-0.337500X0.475000X-0.337500X0.475000X0.337500X0*%
%TD*%
%TA.AperFunction,SMDPad,CuDef*%
%ADD16RoundRect,0.250000X-0.337500X-0.475000X0.337500X-0.475000X0.337500X0.475000X-0.337500X0.475000X0*%
%TD*%
%TA.AperFunction,SMDPad,CuDef*%
%ADD17RoundRect,0.250000X0.337500X0.475000X-0.337500X0.475000X-0.337500X-0.475000X0.337500X-0.475000X0*%
%TD*%
%TA.AperFunction,ComponentPad*%
%ADD18O,1.600000X1.200000*%
%TD*%
%TA.AperFunction,ComponentPad*%
%ADD19O,1.200000X1.200000*%
%TD*%
%TA.AperFunction,ComponentPad*%
%ADD20O,1.700000X1.700000*%
%TD*%
%TA.AperFunction,ComponentPad*%
%ADD21R,1.700000X1.700000*%
%TD*%
%TA.AperFunction,SMDPad,CuDef*%
%ADD22RoundRect,0.150000X0.150000X-0.825000X0.150000X0.825000X-0.150000X0.825000X-0.150000X-0.825000X0*%
%TD*%
%TA.AperFunction,SMDPad,CuDef*%
%ADD23RoundRect,0.250000X0.450000X-0.350000X0.450000X0.350000X-0.450000X0.350000X-0.450000X-0.350000X0*%
%TD*%
%TA.AperFunction,SMDPad,CuDef*%
%ADD24RoundRect,0.250000X-0.450000X0.350000X-0.450000X-0.350000X0.450000X-0.350000X0.450000X0.350000X0*%
%TD*%
%TA.AperFunction,ViaPad*%
%ADD25C,0.800000*%
%TD*%
%TA.AperFunction,Conductor*%
%ADD26C,0.500000*%
%TD*%
G04 APERTURE END LIST*
D10*
D11*
X10595368Y-38043828D02*
X10595368Y-39043828D01*
X9952510Y-38043828D02*
X9952510Y-38829542D01*
X9952510Y-38829542D02*
X10023939Y-38972400D01*
X10023939Y-38972400D02*
X10166796Y-39043828D01*
X10166796Y-39043828D02*
X10381082Y-39043828D01*
X10381082Y-39043828D02*
X10523939Y-38972400D01*
X10523939Y-38972400D02*
X10595368Y-38900971D01*
X11166796Y-38043828D02*
X11523939Y-39043828D01*
X11523939Y-39043828D02*
X11881082Y-38043828D01*
X13095368Y-39043828D02*
X13095368Y-38258114D01*
X13095368Y-38258114D02*
X13023939Y-38115257D01*
X13023939Y-38115257D02*
X12881082Y-38043828D01*
X12881082Y-38043828D02*
X12595368Y-38043828D01*
X12595368Y-38043828D02*
X12452510Y-38115257D01*
X13095368Y-38972400D02*
X12952510Y-39043828D01*
X12952510Y-39043828D02*
X12595368Y-39043828D01*
X12595368Y-39043828D02*
X12452510Y-38972400D01*
X12452510Y-38972400D02*
X12381082Y-38829542D01*
X12381082Y-38829542D02*
X12381082Y-38686685D01*
X12381082Y-38686685D02*
X12452510Y-38543828D01*
X12452510Y-38543828D02*
X12595368Y-38472400D01*
X12595368Y-38472400D02*
X12952510Y-38472400D01*
X12952510Y-38472400D02*
X13095368Y-38400971D01*
X13809653Y-38472400D02*
X14952511Y-38472400D01*
X16309654Y-39043828D02*
X16309654Y-37543828D01*
X16309654Y-38972400D02*
X16166796Y-39043828D01*
X16166796Y-39043828D02*
X15881082Y-39043828D01*
X15881082Y-39043828D02*
X15738225Y-38972400D01*
X15738225Y-38972400D02*
X15666796Y-38900971D01*
X15666796Y-38900971D02*
X15595368Y-38758114D01*
X15595368Y-38758114D02*
X15595368Y-38329542D01*
X15595368Y-38329542D02*
X15666796Y-38186685D01*
X15666796Y-38186685D02*
X15738225Y-38115257D01*
X15738225Y-38115257D02*
X15881082Y-38043828D01*
X15881082Y-38043828D02*
X16166796Y-38043828D01*
X16166796Y-38043828D02*
X16309654Y-38115257D01*
X17595368Y-38972400D02*
X17452511Y-39043828D01*
X17452511Y-39043828D02*
X17166797Y-39043828D01*
X17166797Y-39043828D02*
X17023939Y-38972400D01*
X17023939Y-38972400D02*
X16952511Y-38829542D01*
X16952511Y-38829542D02*
X16952511Y-38258114D01*
X16952511Y-38258114D02*
X17023939Y-38115257D01*
X17023939Y-38115257D02*
X17166797Y-38043828D01*
X17166797Y-38043828D02*
X17452511Y-38043828D01*
X17452511Y-38043828D02*
X17595368Y-38115257D01*
X17595368Y-38115257D02*
X17666797Y-38258114D01*
X17666797Y-38258114D02*
X17666797Y-38400971D01*
X17666797Y-38400971D02*
X16952511Y-38543828D01*
X18095368Y-38043828D02*
X18666796Y-38043828D01*
X18309653Y-37543828D02*
X18309653Y-38829542D01*
X18309653Y-38829542D02*
X18381082Y-38972400D01*
X18381082Y-38972400D02*
X18523939Y-39043828D01*
X18523939Y-39043828D02*
X18666796Y-39043828D01*
X19738225Y-38972400D02*
X19595368Y-39043828D01*
X19595368Y-39043828D02*
X19309654Y-39043828D01*
X19309654Y-39043828D02*
X19166796Y-38972400D01*
X19166796Y-38972400D02*
X19095368Y-38829542D01*
X19095368Y-38829542D02*
X19095368Y-38258114D01*
X19095368Y-38258114D02*
X19166796Y-38115257D01*
X19166796Y-38115257D02*
X19309654Y-38043828D01*
X19309654Y-38043828D02*
X19595368Y-38043828D01*
X19595368Y-38043828D02*
X19738225Y-38115257D01*
X19738225Y-38115257D02*
X19809654Y-38258114D01*
X19809654Y-38258114D02*
X19809654Y-38400971D01*
X19809654Y-38400971D02*
X19095368Y-38543828D01*
X21095368Y-38972400D02*
X20952510Y-39043828D01*
X20952510Y-39043828D02*
X20666796Y-39043828D01*
X20666796Y-39043828D02*
X20523939Y-38972400D01*
X20523939Y-38972400D02*
X20452510Y-38900971D01*
X20452510Y-38900971D02*
X20381082Y-38758114D01*
X20381082Y-38758114D02*
X20381082Y-38329542D01*
X20381082Y-38329542D02*
X20452510Y-38186685D01*
X20452510Y-38186685D02*
X20523939Y-38115257D01*
X20523939Y-38115257D02*
X20666796Y-38043828D01*
X20666796Y-38043828D02*
X20952510Y-38043828D01*
X20952510Y-38043828D02*
X21095368Y-38115257D01*
X21523939Y-38043828D02*
X22095367Y-38043828D01*
X21738224Y-37543828D02*
X21738224Y-38829542D01*
X21738224Y-38829542D02*
X21809653Y-38972400D01*
X21809653Y-38972400D02*
X21952510Y-39043828D01*
X21952510Y-39043828D02*
X22095367Y-39043828D01*
X22595367Y-38472400D02*
X23738225Y-38472400D01*
X24309653Y-38043828D02*
X24666796Y-39043828D01*
X24666796Y-39043828D02*
X25023939Y-38043828D01*
X25881082Y-37543828D02*
X26023939Y-37543828D01*
X26023939Y-37543828D02*
X26166796Y-37615257D01*
X26166796Y-37615257D02*
X26238225Y-37686685D01*
X26238225Y-37686685D02*
X26309653Y-37829542D01*
X26309653Y-37829542D02*
X26381082Y-38115257D01*
X26381082Y-38115257D02*
X26381082Y-38472400D01*
X26381082Y-38472400D02*
X26309653Y-38758114D01*
X26309653Y-38758114D02*
X26238225Y-38900971D01*
X26238225Y-38900971D02*
X26166796Y-38972400D01*
X26166796Y-38972400D02*
X26023939Y-39043828D01*
X26023939Y-39043828D02*
X25881082Y-39043828D01*
X25881082Y-39043828D02*
X25738225Y-38972400D01*
X25738225Y-38972400D02*
X25666796Y-38900971D01*
X25666796Y-38900971D02*
X25595367Y-38758114D01*
X25595367Y-38758114D02*
X25523939Y-38472400D01*
X25523939Y-38472400D02*
X25523939Y-38115257D01*
X25523939Y-38115257D02*
X25595367Y-37829542D01*
X25595367Y-37829542D02*
X25666796Y-37686685D01*
X25666796Y-37686685D02*
X25738225Y-37615257D01*
X25738225Y-37615257D02*
X25881082Y-37543828D01*
X27023938Y-38900971D02*
X27095367Y-38972400D01*
X27095367Y-38972400D02*
X27023938Y-39043828D01*
X27023938Y-39043828D02*
X26952510Y-38972400D01*
X26952510Y-38972400D02*
X27023938Y-38900971D01*
X27023938Y-38900971D02*
X27023938Y-39043828D01*
X27666796Y-37686685D02*
X27738224Y-37615257D01*
X27738224Y-37615257D02*
X27881082Y-37543828D01*
X27881082Y-37543828D02*
X28238224Y-37543828D01*
X28238224Y-37543828D02*
X28381082Y-37615257D01*
X28381082Y-37615257D02*
X28452510Y-37686685D01*
X28452510Y-37686685D02*
X28523939Y-37829542D01*
X28523939Y-37829542D02*
X28523939Y-37972400D01*
X28523939Y-37972400D02*
X28452510Y-38186685D01*
X28452510Y-38186685D02*
X27595367Y-39043828D01*
X27595367Y-39043828D02*
X28523939Y-39043828D01*
D12*
%TO.P,R4,1*%
%TO.N,Net-(D1-A)*%
X18574000Y-11785600D03*
%TO.P,R4,2*%
%TO.N,Net-(U1B--)*%
X20574000Y-11785600D03*
%TD*%
D13*
%TO.P,U2,3*%
%TO.N,N/C*%
X26035000Y-10480000D03*
%TO.P,U2,2,A*%
%TO.N,GND*%
X24160000Y-11430000D03*
%TO.P,U2,1,K*%
%TO.N,+2V5*%
X24160000Y-9530000D03*
%TD*%
D12*
%TO.P,R6,1*%
%TO.N,Net-(C2-Pad2)*%
X2801500Y-19737332D03*
%TO.P,R6,2*%
%TO.N,light-tight*%
X4801500Y-19737332D03*
%TD*%
D14*
%TO.P,R14,1*%
%TO.N,+2V5*%
X4801500Y-15471666D03*
%TO.P,R14,2*%
%TO.N,Net-(C2-Pad2)*%
X2801500Y-15471666D03*
%TD*%
D15*
%TO.P,C5,1*%
%TO.N,GND*%
X9144000Y-3513000D03*
%TO.P,C5,2*%
%TO.N,+5V*%
X9144000Y-5588000D03*
%TD*%
D12*
%TO.P,R5,1*%
%TO.N,Net-(U1B--)*%
X29510000Y-15683333D03*
%TO.P,R5,2*%
%TO.N,rect*%
X31510000Y-15683333D03*
%TD*%
%TO.P,R7,1*%
%TO.N,+2V5*%
X8652000Y-15564850D03*
%TO.P,R7,2*%
%TO.N,Net-(C3-Pad2)*%
X10652000Y-15564850D03*
%TD*%
D16*
%TO.P,C4,1*%
%TO.N,GND*%
X29442500Y-11430000D03*
%TO.P,C4,2*%
%TO.N,+2V5*%
X31517500Y-11430000D03*
%TD*%
D17*
%TO.P,C2,1*%
%TO.N,Net-(D2-K)*%
X4869000Y-11176000D03*
%TO.P,C2,2*%
%TO.N,Net-(C2-Pad2)*%
X2794000Y-11176000D03*
%TD*%
D16*
%TO.P,C3,1*%
%TO.N,light-tight*%
X13063400Y-11836400D03*
%TO.P,C3,2*%
%TO.N,Net-(C3-Pad2)*%
X15138400Y-11836400D03*
%TD*%
D14*
%TO.P,R10,1*%
%TO.N,Net-(U1A--)*%
X31510000Y-19906666D03*
%TO.P,R10,2*%
%TO.N,detect*%
X29510000Y-19906666D03*
%TD*%
D12*
%TO.P,R3,1*%
%TO.N,Net-(C3-Pad2)*%
X24027500Y-19850000D03*
%TO.P,R3,2*%
%TO.N,Net-(U1B--)*%
X26027500Y-19850000D03*
%TD*%
D18*
%TO.P,D2,1,1*%
%TO.N,+2V5*%
X15730000Y-17000000D03*
D19*
%TO.P,D2,2,C*%
%TO.N,GND*%
X17000000Y-18270000D03*
%TO.P,D2,3,K*%
%TO.N,Net-(D2-K)*%
X18270000Y-17000000D03*
%TD*%
D20*
%TO.P,J1,6,Pin_6*%
%TO.N,GND*%
X23350000Y-32000000D03*
%TO.P,J1,5,Pin_5*%
%TO.N,detect*%
X20810000Y-32000000D03*
%TO.P,J1,4,Pin_4*%
%TO.N,rect*%
X18270000Y-32000000D03*
%TO.P,J1,3,Pin_3*%
%TO.N,light-tight*%
X15730000Y-32000000D03*
%TO.P,J1,2,Pin_2*%
%TO.N,+2V5*%
X13190000Y-32000000D03*
D21*
%TO.P,J1,1,Pin_1*%
%TO.N,+5V*%
X10650000Y-32000000D03*
%TD*%
D16*
%TO.P,C1,1*%
%TO.N,Net-(U1B--)*%
X24020000Y-15540000D03*
%TO.P,C1,2*%
%TO.N,rect*%
X26095000Y-15540000D03*
%TD*%
D14*
%TO.P,R2,1*%
%TO.N,Net-(D1-K)*%
X4801500Y-24003000D03*
%TO.P,R2,2*%
%TO.N,Net-(D1-A)*%
X2801500Y-24003000D03*
%TD*%
D12*
%TO.P,R11,1*%
%TO.N,rect*%
X8525000Y-25400000D03*
%TO.P,R11,2*%
%TO.N,Net-(U1A-+)*%
X10525000Y-25400000D03*
%TD*%
%TO.P,R12,2*%
%TO.N,GND*%
X26027500Y-24130000D03*
%TO.P,R12,1*%
%TO.N,Net-(U1A-+)*%
X24027500Y-24130000D03*
%TD*%
%TO.P,R9,1*%
%TO.N,+2V5*%
X29510000Y-24130000D03*
%TO.P,R9,2*%
%TO.N,Net-(U1A--)*%
X31510000Y-24130000D03*
%TD*%
D22*
%TO.P,U1,1*%
%TO.N,detect*%
X12954000Y-8063000D03*
%TO.P,U1,2,-*%
%TO.N,Net-(U1A--)*%
X14224000Y-8063000D03*
%TO.P,U1,3,+*%
%TO.N,Net-(U1A-+)*%
X15494000Y-8063000D03*
%TO.P,U1,4,V+*%
%TO.N,+5V*%
X16764000Y-8063000D03*
%TO.P,U1,5,+*%
%TO.N,+2V5*%
X18034000Y-8063000D03*
%TO.P,U1,6,-*%
%TO.N,Net-(U1B--)*%
X19304000Y-8063000D03*
%TO.P,U1,7*%
%TO.N,rect*%
X20574000Y-8063000D03*
%TO.P,U1,8*%
%TO.N,Net-(D1-COM)*%
X20574000Y-3113000D03*
%TO.P,U1,9,-*%
%TO.N,Net-(D1-K)*%
X19304000Y-3113000D03*
%TO.P,U1,10,+*%
%TO.N,+2V5*%
X18034000Y-3113000D03*
%TO.P,U1,11,V-*%
%TO.N,GND*%
X16764000Y-3113000D03*
%TO.P,U1,12,+*%
%TO.N,+2V5*%
X15494000Y-3113000D03*
%TO.P,U1,13,-*%
%TO.N,Net-(D2-K)*%
X14224000Y-3113000D03*
%TO.P,U1,14*%
%TO.N,light-tight*%
X12954000Y-3113000D03*
%TD*%
D13*
%TO.P,D1,1,A*%
%TO.N,Net-(D1-A)*%
X8714500Y-19532425D03*
%TO.P,D1,2,K*%
%TO.N,Net-(D1-K)*%
X8714500Y-21432425D03*
%TO.P,D1,3,COM*%
%TO.N,Net-(D1-COM)*%
X10589500Y-20482425D03*
%TD*%
D23*
%TO.P,R15,1*%
%TO.N,+2V5*%
X24130000Y-5689600D03*
%TO.P,R15,2*%
%TO.N,+5V*%
X24130000Y-3689600D03*
%TD*%
D14*
%TO.P,R1,1*%
%TO.N,Net-(C3-Pad2)*%
X18542000Y-23672800D03*
%TO.P,R1,2*%
%TO.N,Net-(D1-K)*%
X16542000Y-23672800D03*
%TD*%
D24*
%TO.P,R8,1*%
%TO.N,Net-(D2-K)*%
X8839200Y-9497275D03*
%TO.P,R8,2*%
%TO.N,Net-(C2-Pad2)*%
X8839200Y-11497275D03*
%TD*%
D25*
%TO.N,Net-(D1-A)*%
X7112000Y-25527000D03*
X8128000Y-28321000D03*
%TO.N,light-tight*%
X9144000Y-30353000D03*
%TO.N,Net-(U1B--)*%
X20701000Y-15367000D03*
%TO.N,Net-(U1A--)*%
X19696800Y-22490800D03*
X8255000Y-17145000D03*
%TO.N,Net-(D1-A)*%
X2540000Y-16891000D03*
X2794000Y-21209000D03*
%TO.N,+5V*%
X26670000Y-13081000D03*
%TO.N,Net-(U1B--)*%
X21629000Y-11049000D03*
%TO.N,GND*%
X23622000Y-10541000D03*
%TO.N,+2V5*%
X17653000Y-10160000D03*
%TO.N,+5V*%
X16383000Y-9652000D03*
%TO.N,Net-(C3-Pad2)*%
X16510000Y-12446000D03*
X16764000Y-14859000D03*
%TO.N,+5V*%
X18034000Y-13208000D03*
%TO.N,+2V5*%
X18962000Y-15494000D03*
%TO.N,Net-(U1A-+)*%
X15777541Y-13305459D03*
X15494000Y-10287000D03*
%TO.N,Net-(D1-K)*%
X19320000Y-5096000D03*
%TO.N,rect*%
X27813000Y-8128000D03*
%TO.N,detect*%
X4699000Y-8001000D03*
X3937000Y-21590000D03*
%TO.N,Net-(D1-A)*%
X24765000Y-30607000D03*
X23622000Y-12954000D03*
%TO.N,Net-(U1A--)*%
X9017000Y-6985000D03*
%TO.N,+5V*%
X10668000Y-5588000D03*
%TO.N,GND*%
X22352000Y-28321000D03*
X25958800Y-28194000D03*
%TO.N,Net-(C3-Pad2)*%
X15240000Y-19431000D03*
%TO.N,Net-(U1A-+)*%
X13208000Y-13335000D03*
X14224000Y-18669000D03*
X12350000Y-18669000D03*
X14224000Y-25400000D03*
%TO.N,Net-(U1A--)*%
X17018000Y-29210000D03*
X11500000Y-17272000D03*
X11938000Y-29210000D03*
%TO.N,+2V5*%
X24160000Y-9530000D03*
X32893000Y-9525000D03*
X24130000Y-6985000D03*
%TO.N,Net-(U1B--)*%
X20447000Y-6350000D03*
%TO.N,GND*%
X22606000Y-18034000D03*
%TO.N,rect*%
X19812000Y-26797000D03*
%TO.N,light-tight*%
X15621000Y-30353000D03*
%TO.N,Net-(D2-K)*%
X14097000Y-10668000D03*
%TO.N,light-tight*%
X11811000Y-11684000D03*
X11557000Y-3175000D03*
%TO.N,GND*%
X22479000Y-1778000D03*
%TO.N,+5V*%
X25908000Y-3683000D03*
%TO.N,Net-(D2-K)*%
X14224000Y-4826000D03*
%TO.N,Net-(D1-COM)*%
X20701000Y-20574000D03*
X21590000Y-3048000D03*
%TO.N,+2V5*%
X32893000Y-11430000D03*
X32893000Y-25781000D03*
%TO.N,Net-(D1-K)*%
X15189200Y-21488400D03*
X15138400Y-23622000D03*
%TO.N,Net-(C3-Pad2)*%
X21793200Y-19913600D03*
X21793200Y-23672800D03*
X14732000Y-15494000D03*
%TO.N,+2V5*%
X13360400Y-16814800D03*
%TO.N,rect*%
X27736800Y-14173200D03*
X27686000Y-15646400D03*
X27787600Y-26873200D03*
%TO.N,detect*%
X20878800Y-21640800D03*
%TO.N,GND*%
X26111200Y-25654000D03*
%TO.N,light-tight*%
X7213600Y-12700000D03*
X7213600Y-19710400D03*
%TO.N,+2V5*%
X6299200Y-23012400D03*
X13309600Y-23164800D03*
X6350000Y-15494000D03*
%TD*%
D26*
%TO.N,Net-(D1-A)*%
X5588000Y-25527000D02*
X7112000Y-25527000D01*
X6096000Y-25527000D02*
X5334000Y-25527000D01*
X19304000Y-28321000D02*
X8128000Y-28321000D01*
X5334000Y-25527000D02*
X5588000Y-25527000D01*
X5334000Y-25527000D02*
X4325500Y-25527000D01*
%TO.N,light-tight*%
X10414000Y-30353000D02*
X9144000Y-30353000D01*
%TO.N,Net-(U1A--)*%
X19685000Y-22479000D02*
X19696800Y-22490800D01*
X19696800Y-22490800D02*
X21230882Y-22490800D01*
X21230882Y-22490800D02*
X21242682Y-22479000D01*
X21242682Y-22479000D02*
X31510000Y-22479000D01*
X8255000Y-17145000D02*
X11373000Y-17145000D01*
X11373000Y-17145000D02*
X11500000Y-17272000D01*
%TO.N,GND*%
X9144000Y-3513000D02*
X9568000Y-3513000D01*
X9568000Y-3513000D02*
X11430000Y-1651000D01*
X11430000Y-1651000D02*
X16764000Y-1651000D01*
X16764000Y-1651000D02*
X16764000Y-3113000D01*
X22352000Y-1651000D02*
X17668316Y-1651000D01*
X17668316Y-1651000D02*
X16764000Y-2555316D01*
X16764000Y-2555316D02*
X16764000Y-3113000D01*
%TO.N,Net-(C2-Pad2)*%
X2435334Y-15471666D02*
X1524000Y-16383000D01*
X2801500Y-15471666D02*
X2435334Y-15471666D01*
X1524000Y-18459832D02*
X2801500Y-19737332D01*
X1524000Y-16383000D02*
X1524000Y-18459832D01*
%TO.N,Net-(D1-A)*%
X2844800Y-22592400D02*
X2844800Y-21259800D01*
X2844800Y-21259800D02*
X2794000Y-21209000D01*
X7747000Y-18186400D02*
X8636000Y-18186400D01*
X2540000Y-16891000D02*
X6451600Y-16891000D01*
X6451600Y-16891000D02*
X7747000Y-18186400D01*
%TO.N,Net-(U1B--)*%
X26797000Y-16814800D02*
X29565600Y-16814800D01*
X26797000Y-17272000D02*
X26027500Y-18041500D01*
X26027500Y-18041500D02*
X26027500Y-19850000D01*
X24587200Y-16814800D02*
X26797000Y-16814800D01*
X26797000Y-16814800D02*
X26797000Y-17272000D01*
%TO.N,+5V*%
X25908000Y-13843000D02*
X26670000Y-13081000D01*
%TO.N,+2V5*%
X18034000Y-9144000D02*
X18542000Y-9144000D01*
X18542000Y-9144000D02*
X18928000Y-9530000D01*
X18928000Y-9530000D02*
X24160000Y-9530000D01*
X18034000Y-8063000D02*
X18034000Y-9144000D01*
X18034000Y-9144000D02*
X18034000Y-9779000D01*
%TO.N,Net-(U1B--)*%
X21019400Y-11658600D02*
X20701000Y-11658600D01*
X20701000Y-11658600D02*
X20574000Y-11785600D01*
X21629000Y-11049000D02*
X21019400Y-11658600D01*
%TO.N,GND*%
X23622000Y-10541000D02*
X23622000Y-10892000D01*
X23622000Y-10892000D02*
X24160000Y-11430000D01*
%TO.N,+2V5*%
X18034000Y-9779000D02*
X17653000Y-10160000D01*
%TO.N,+5V*%
X16383000Y-9652000D02*
X16383000Y-8444000D01*
X16383000Y-8444000D02*
X16764000Y-8063000D01*
%TO.N,Net-(C3-Pad2)*%
X15900400Y-11836400D02*
X16510000Y-12446000D01*
X15138400Y-11836400D02*
X15900400Y-11836400D01*
%TO.N,Net-(D1-A)*%
X8839200Y-18389600D02*
X8839200Y-18694400D01*
X8839200Y-18694400D02*
X8714500Y-18819100D01*
X8636000Y-18186400D02*
X8839200Y-18389600D01*
X2844800Y-22592400D02*
X2780400Y-22592400D01*
X8714500Y-18819100D02*
X8714500Y-19532425D01*
%TO.N,+2V5*%
X15730000Y-17000000D02*
X15893000Y-17000000D01*
X15893000Y-17000000D02*
X17399000Y-15494000D01*
X17399000Y-15494000D02*
X18962000Y-15494000D01*
%TO.N,Net-(C3-Pad2)*%
X15367000Y-14859000D02*
X14732000Y-15494000D01*
X16764000Y-14859000D02*
X15367000Y-14859000D01*
%TO.N,+5V*%
X18669000Y-13843000D02*
X18034000Y-13208000D01*
X25908000Y-13843000D02*
X18669000Y-13843000D01*
%TO.N,Net-(U1A-+)*%
X15494000Y-8063000D02*
X15494000Y-10287000D01*
X15777541Y-13305459D02*
X13237541Y-13305459D01*
X13237541Y-13305459D02*
X13208000Y-13335000D01*
%TO.N,Net-(D1-K)*%
X19320000Y-5096000D02*
X19320000Y-3129000D01*
X19320000Y-3129000D02*
X19304000Y-3113000D01*
%TO.N,+2V5*%
X16129000Y-4572000D02*
X17018000Y-4572000D01*
X17018000Y-4572000D02*
X17549999Y-4572000D01*
X18034000Y-8063000D02*
X18034000Y-5588000D01*
X18034000Y-5588000D02*
X17018000Y-4572000D01*
%TO.N,+5V*%
X16510000Y-6477000D02*
X16256000Y-6477000D01*
X16256000Y-6477000D02*
X14672918Y-6477000D01*
%TO.N,rect*%
X21528000Y-8063000D02*
X27748000Y-8063000D01*
X27748000Y-8063000D02*
X27813000Y-8128000D01*
%TO.N,+5V*%
X16764000Y-6731000D02*
X16510000Y-6477000D01*
X16764000Y-8063000D02*
X16764000Y-6731000D01*
X14672918Y-6477000D02*
X13783918Y-5588000D01*
X13783918Y-5588000D02*
X10668000Y-5588000D01*
%TO.N,+2V5*%
X15494000Y-3937000D02*
X16129000Y-4572000D01*
X15494000Y-3113000D02*
X15494000Y-3937000D01*
X17549999Y-4572000D02*
X18034000Y-4087999D01*
X18034000Y-4087999D02*
X18034000Y-3113000D01*
%TO.N,Net-(C3-Pad2)*%
X10652000Y-15564850D02*
X14661150Y-15564850D01*
X14661150Y-15564850D02*
X14732000Y-15494000D01*
%TO.N,detect*%
X13825882Y-22479000D02*
X13529307Y-22182425D01*
X6671307Y-22182425D02*
X6078882Y-21590000D01*
X6078882Y-21590000D02*
X3937000Y-21590000D01*
X13529307Y-22182425D02*
X6671307Y-22182425D01*
X15621000Y-22479000D02*
X13825882Y-22479000D01*
X4699000Y-8001000D02*
X5207000Y-8001000D01*
X5207000Y-8001000D02*
X5269000Y-8063000D01*
X5269000Y-8063000D02*
X12954000Y-8063000D01*
%TO.N,+2V5*%
X13309600Y-23164800D02*
X6451600Y-23164800D01*
X6451600Y-23164800D02*
X6299200Y-23012400D01*
%TO.N,detect*%
X16471000Y-21629000D02*
X15621000Y-22479000D01*
X20867000Y-21629000D02*
X16471000Y-21629000D01*
X20878800Y-21640800D02*
X20867000Y-21629000D01*
%TO.N,Net-(D1-A)*%
X18574000Y-11785600D02*
X19742400Y-12954000D01*
X24765000Y-30607000D02*
X22098000Y-30607000D01*
X19812000Y-28321000D02*
X19304000Y-28321000D01*
X19742400Y-12954000D02*
X23622000Y-12954000D01*
X22098000Y-30607000D02*
X19812000Y-28321000D01*
X4325500Y-25527000D02*
X2801500Y-24003000D01*
%TO.N,Net-(U1A--)*%
X9364000Y-6638000D02*
X9017000Y-6985000D01*
X13773999Y-6638000D02*
X9364000Y-6638000D01*
%TO.N,+5V*%
X9144000Y-5588000D02*
X10668000Y-5588000D01*
%TO.N,GND*%
X22352000Y-28321000D02*
X25831800Y-28321000D01*
X25831800Y-28321000D02*
X25958800Y-28194000D01*
%TO.N,detect*%
X29510000Y-21340800D02*
X29464000Y-21386800D01*
X20878800Y-21640800D02*
X23495000Y-21640800D01*
X29510000Y-19906666D02*
X29510000Y-21340800D01*
X29464000Y-21386800D02*
X29464000Y-21640800D01*
X29464000Y-21640800D02*
X23495000Y-21640800D01*
%TO.N,Net-(C3-Pad2)*%
X21310600Y-19431000D02*
X21793200Y-19913600D01*
X15240000Y-19431000D02*
X21310600Y-19431000D01*
%TO.N,Net-(U1A-+)*%
X14224000Y-18669000D02*
X12350000Y-18669000D01*
X12446000Y-25400000D02*
X14224000Y-25400000D01*
X24027500Y-24130000D02*
X24027500Y-25248500D01*
X24027500Y-25248500D02*
X23876000Y-25400000D01*
X23876000Y-25400000D02*
X14224000Y-25400000D01*
X10525000Y-25400000D02*
X12446000Y-25400000D01*
%TO.N,Net-(D1-K)*%
X4801500Y-24003000D02*
X4813300Y-24014800D01*
X4813300Y-24014800D02*
X14745600Y-24014800D01*
X14745600Y-24014800D02*
X15138400Y-23622000D01*
%TO.N,Net-(U1A--)*%
X31510000Y-22479000D02*
X31510000Y-19906666D01*
X31510000Y-24130000D02*
X31510000Y-22479000D01*
X12573000Y-29210000D02*
X17018000Y-29210000D01*
X11938000Y-29210000D02*
X12573000Y-29210000D01*
X14224000Y-8063000D02*
X14224000Y-7088001D01*
X14224000Y-7088001D02*
X13773999Y-6638000D01*
%TO.N,+2V5*%
X32888000Y-9530000D02*
X32893000Y-9525000D01*
X24160000Y-9530000D02*
X32888000Y-9530000D01*
%TO.N,rect*%
X21528000Y-8063000D02*
X20574000Y-8063000D01*
%TO.N,+2V5*%
X24130000Y-5689600D02*
X24130000Y-6985000D01*
%TO.N,Net-(U1B--)*%
X19304000Y-7493000D02*
X19304000Y-8063000D01*
X20447000Y-6350000D02*
X19304000Y-7493000D01*
X24020000Y-15540000D02*
X20874000Y-15540000D01*
X20874000Y-15540000D02*
X20701000Y-15367000D01*
%TO.N,GND*%
X22370000Y-18270000D02*
X22606000Y-18034000D01*
X17000000Y-18270000D02*
X22370000Y-18270000D01*
%TO.N,rect*%
X19812000Y-26797000D02*
X9017000Y-26797000D01*
X19812000Y-26797000D02*
X27711400Y-26797000D01*
X27711400Y-26797000D02*
X27787600Y-26873200D01*
X8525000Y-26305000D02*
X9017000Y-26797000D01*
X8525000Y-25400000D02*
X8525000Y-26305000D01*
%TO.N,light-tight*%
X15621000Y-30353000D02*
X14986000Y-30353000D01*
X14986000Y-30353000D02*
X10414000Y-30353000D01*
%TO.N,Net-(D2-K)*%
X14097000Y-10668000D02*
X14090400Y-10661400D01*
X14090400Y-10661400D02*
X10280400Y-10661400D01*
X10280400Y-10661400D02*
X9116275Y-9497275D01*
X9116275Y-9497275D02*
X8839200Y-9497275D01*
%TO.N,light-tight*%
X12954000Y-3113000D02*
X11619000Y-3113000D01*
X11619000Y-3113000D02*
X11557000Y-3175000D01*
X12911000Y-11684000D02*
X13063400Y-11836400D01*
X11811000Y-11684000D02*
X12911000Y-11684000D01*
%TO.N,GND*%
X22352000Y-1651000D02*
X22479000Y-1778000D01*
%TO.N,+5V*%
X24130000Y-3689600D02*
X25901400Y-3689600D01*
X25901400Y-3689600D02*
X25908000Y-3683000D01*
%TO.N,Net-(C2-Pad2)*%
X2696834Y-15367000D02*
X2801500Y-15471666D01*
X2801500Y-15471666D02*
X2801500Y-11183500D01*
X2801500Y-11183500D02*
X2794000Y-11176000D01*
X6663725Y-11497275D02*
X5715000Y-12446000D01*
X8839200Y-11497275D02*
X6663725Y-11497275D01*
X5715000Y-12446000D02*
X4064000Y-12446000D01*
X4064000Y-12446000D02*
X2794000Y-11176000D01*
%TO.N,Net-(D2-K)*%
X5234725Y-9497275D02*
X5080000Y-9652000D01*
X8839200Y-9497275D02*
X5234725Y-9497275D01*
X5080000Y-9652000D02*
X5080000Y-10033000D01*
X5080000Y-10033000D02*
X4869000Y-10244000D01*
X4869000Y-10244000D02*
X4869000Y-11176000D01*
X14224000Y-3113000D02*
X14224000Y-4826000D01*
%TO.N,Net-(D1-COM)*%
X20609425Y-20482425D02*
X10589500Y-20482425D01*
X21525000Y-3113000D02*
X21590000Y-3048000D01*
X20574000Y-3113000D02*
X21525000Y-3113000D01*
X20701000Y-20574000D02*
X20609425Y-20482425D01*
%TO.N,Net-(D1-K)*%
X15290800Y-21590000D02*
X15189200Y-21488400D01*
%TO.N,+2V5*%
X29591000Y-25781000D02*
X29337000Y-25527000D01*
X32893000Y-25781000D02*
X29591000Y-25781000D01*
X31517500Y-11430000D02*
X32893000Y-11430000D01*
X29337000Y-25527000D02*
X29510000Y-25354000D01*
X29510000Y-25354000D02*
X29510000Y-24130000D01*
%TO.N,GND*%
X29442500Y-11430000D02*
X24160000Y-11430000D01*
%TO.N,rect*%
X20574000Y-8063000D02*
X20893000Y-8382000D01*
%TO.N,Net-(U1B--)*%
X24536400Y-16865600D02*
X24587200Y-16814800D01*
X29510000Y-16759200D02*
X29510000Y-15683333D01*
X24020000Y-15540000D02*
X24020000Y-16755600D01*
X24130000Y-16865600D02*
X24536400Y-16865600D01*
X24020000Y-16755600D02*
X24130000Y-16865600D01*
X29565600Y-16814800D02*
X29510000Y-16759200D01*
%TO.N,Net-(D1-K)*%
X16542000Y-23672800D02*
X15189200Y-23672800D01*
X15189200Y-23672800D02*
X15138400Y-23622000D01*
X15189200Y-21488400D02*
X14681200Y-21488400D01*
X14625225Y-21432425D02*
X8714500Y-21432425D01*
X14681200Y-21488400D02*
X14625225Y-21432425D01*
%TO.N,Net-(C3-Pad2)*%
X18542000Y-23672800D02*
X21793200Y-23672800D01*
X21793200Y-19913600D02*
X23963900Y-19913600D01*
X23963900Y-19913600D02*
X24027500Y-19850000D01*
X14732000Y-12242800D02*
X15138400Y-11836400D01*
%TO.N,+2V5*%
X15544800Y-16814800D02*
X15730000Y-17000000D01*
X13360400Y-16814800D02*
X15544800Y-16814800D01*
%TO.N,rect*%
X31140400Y-14173200D02*
X31546800Y-14579600D01*
X31510000Y-14616400D02*
X31510000Y-15683333D01*
X27736800Y-14173200D02*
X31140400Y-14173200D01*
X31546800Y-14579600D02*
X31510000Y-14616400D01*
X27686000Y-15646400D02*
X26201400Y-15646400D01*
X26201400Y-15646400D02*
X26095000Y-15540000D01*
%TO.N,GND*%
X26111200Y-25654000D02*
X26111200Y-24213700D01*
X26111200Y-24213700D02*
X26027500Y-24130000D01*
%TO.N,light-tight*%
X4801500Y-19737332D02*
X7186668Y-19737332D01*
X7186668Y-19737332D02*
X7213600Y-19710400D01*
X12199800Y-12700000D02*
X13063400Y-11836400D01*
X7213600Y-12700000D02*
X12199800Y-12700000D01*
%TO.N,Net-(D1-A)*%
X2801500Y-22635700D02*
X2844800Y-22592400D01*
X2801500Y-24003000D02*
X2801500Y-22635700D01*
%TO.N,+2V5*%
X6350000Y-15494000D02*
X8581150Y-15494000D01*
X8581150Y-15494000D02*
X8652000Y-15564850D01*
X4823834Y-15494000D02*
X4801500Y-15471666D01*
X6350000Y-15494000D02*
X4823834Y-15494000D01*
%TD*%
M02*
