%TF.GenerationSoftware,KiCad,Pcbnew,8.0.0-8.0.0-1~ubuntu22.04.1*%
%TF.CreationDate,2024-04-06T20:55:27-04:00*%
%TF.ProjectId,UV-Detector-v0.2,55562d44-6574-4656-9374-6f722d76302e,rev?*%
%TF.SameCoordinates,Original*%
%TF.FileFunction,Copper,L2,Bot*%
%TF.FilePolarity,Positive*%
%FSLAX46Y46*%
G04 Gerber Fmt 4.6, Leading zero omitted, Abs format (unit mm)*
G04 Created by KiCad (PCBNEW 8.0.0-8.0.0-1~ubuntu22.04.1) date 2024-04-06 20:55:27*
%MOMM*%
%LPD*%
G01*
G04 APERTURE LIST*
%TA.AperFunction,ComponentPad*%
%ADD10O,1.600000X1.200000*%
%TD*%
%TA.AperFunction,ComponentPad*%
%ADD11O,1.200000X1.200000*%
%TD*%
%TA.AperFunction,ComponentPad*%
%ADD12O,1.700000X1.700000*%
%TD*%
%TA.AperFunction,ComponentPad*%
%ADD13R,1.700000X1.700000*%
%TD*%
%TA.AperFunction,ViaPad*%
%ADD14C,0.800000*%
%TD*%
%TA.AperFunction,Conductor*%
%ADD15C,0.500000*%
%TD*%
G04 APERTURE END LIST*
D10*
%TO.P,D2,1,1*%
%TO.N,+2V5*%
X15730000Y-17000000D03*
D11*
%TO.P,D2,2,C*%
%TO.N,GND*%
X17000000Y-18270000D03*
%TO.P,D2,3,K*%
%TO.N,Net-(D2-K)*%
X18270000Y-17000000D03*
%TD*%
D12*
%TO.P,J1,6,Pin_6*%
%TO.N,GND*%
X23350000Y-32000000D03*
%TO.P,J1,5,Pin_5*%
%TO.N,detect*%
X20810000Y-32000000D03*
%TO.P,J1,4,Pin_4*%
%TO.N,rect*%
X18270000Y-32000000D03*
%TO.P,J1,3,Pin_3*%
%TO.N,light-tight*%
X15730000Y-32000000D03*
%TO.P,J1,2,Pin_2*%
%TO.N,+2V5*%
X13190000Y-32000000D03*
D13*
%TO.P,J1,1,Pin_1*%
%TO.N,+5V*%
X10650000Y-32000000D03*
%TD*%
D14*
%TO.N,Net-(D1-A)*%
X7112000Y-25527000D03*
X8128000Y-28321000D03*
%TO.N,light-tight*%
X9144000Y-30353000D03*
%TO.N,Net-(U1B--)*%
X20701000Y-15367000D03*
%TO.N,Net-(U1A--)*%
X19696800Y-22490800D03*
X8255000Y-17145000D03*
%TO.N,Net-(D1-A)*%
X2540000Y-16891000D03*
X2794000Y-21209000D03*
%TO.N,+5V*%
X26670000Y-13081000D03*
%TO.N,Net-(U1B--)*%
X21629000Y-11049000D03*
%TO.N,GND*%
X23622000Y-10541000D03*
%TO.N,+2V5*%
X17653000Y-10160000D03*
%TO.N,+5V*%
X16383000Y-9652000D03*
%TO.N,Net-(C3-Pad2)*%
X16510000Y-12446000D03*
X16764000Y-14859000D03*
%TO.N,+5V*%
X18034000Y-13208000D03*
%TO.N,+2V5*%
X18962000Y-15494000D03*
%TO.N,Net-(U1A-+)*%
X15777541Y-13305459D03*
X15494000Y-10287000D03*
%TO.N,Net-(D1-K)*%
X19320000Y-5096000D03*
%TO.N,rect*%
X27813000Y-8128000D03*
%TO.N,detect*%
X4699000Y-8001000D03*
X3937000Y-21590000D03*
%TO.N,Net-(D1-A)*%
X24765000Y-30607000D03*
X23622000Y-12954000D03*
%TO.N,Net-(U1A--)*%
X9017000Y-6985000D03*
%TO.N,+5V*%
X10668000Y-5588000D03*
%TO.N,GND*%
X22352000Y-28321000D03*
X25958800Y-28194000D03*
%TO.N,Net-(C3-Pad2)*%
X15240000Y-19431000D03*
%TO.N,Net-(U1A-+)*%
X13208000Y-13335000D03*
X14224000Y-18669000D03*
X12350000Y-18669000D03*
X14224000Y-25400000D03*
%TO.N,Net-(U1A--)*%
X17018000Y-29210000D03*
X11500000Y-17272000D03*
X11938000Y-29210000D03*
%TO.N,+2V5*%
X24160000Y-9530000D03*
X32893000Y-9525000D03*
X24130000Y-6985000D03*
%TO.N,Net-(U1B--)*%
X20447000Y-6350000D03*
%TO.N,GND*%
X22606000Y-18034000D03*
%TO.N,rect*%
X19812000Y-26797000D03*
%TO.N,light-tight*%
X15621000Y-30353000D03*
%TO.N,Net-(D2-K)*%
X14097000Y-10668000D03*
%TO.N,light-tight*%
X11811000Y-11684000D03*
X11557000Y-3175000D03*
%TO.N,GND*%
X22479000Y-1778000D03*
%TO.N,+5V*%
X25908000Y-3683000D03*
%TO.N,Net-(D2-K)*%
X14224000Y-4826000D03*
%TO.N,Net-(D1-COM)*%
X20701000Y-20574000D03*
X21590000Y-3048000D03*
%TO.N,+2V5*%
X32893000Y-11430000D03*
X32893000Y-25781000D03*
%TO.N,Net-(D1-K)*%
X15189200Y-21488400D03*
X15138400Y-23622000D03*
%TO.N,Net-(C3-Pad2)*%
X21793200Y-19913600D03*
X21793200Y-23672800D03*
X14732000Y-15494000D03*
%TO.N,+2V5*%
X13360400Y-16814800D03*
%TO.N,rect*%
X27736800Y-14173200D03*
X27686000Y-15646400D03*
X27787600Y-26873200D03*
%TO.N,detect*%
X20878800Y-21640800D03*
%TO.N,GND*%
X26111200Y-25654000D03*
%TO.N,light-tight*%
X7213600Y-12700000D03*
X7213600Y-19710400D03*
%TO.N,+2V5*%
X6299200Y-23012400D03*
X13309600Y-23164800D03*
X6350000Y-15494000D03*
%TD*%
D15*
%TO.N,Net-(D1-A)*%
X7112000Y-25527000D02*
X7112000Y-27305000D01*
X7112000Y-27305000D02*
X8128000Y-28321000D01*
%TO.N,light-tight*%
X9144000Y-30353000D02*
X9144000Y-21640800D01*
X9144000Y-21640800D02*
X7213600Y-19710400D01*
%TO.N,Net-(U1A--)*%
X17018000Y-25146000D02*
X19673200Y-22490800D01*
X19673200Y-22490800D02*
X19696800Y-22490800D01*
X17018000Y-29210000D02*
X17018000Y-25146000D01*
X8255000Y-14859000D02*
X8255000Y-17145000D01*
X9017000Y-6985000D02*
X9017000Y-14097000D01*
X9017000Y-14097000D02*
X8255000Y-14859000D01*
%TO.N,Net-(D1-A)*%
X2794000Y-17145000D02*
X2540000Y-16891000D01*
X2794000Y-21209000D02*
X2794000Y-17145000D01*
%TO.N,+5V*%
X26670000Y-13081000D02*
X25908000Y-12319000D01*
X25908000Y-12319000D02*
X25908000Y-3683000D01*
%TO.N,Net-(U1B--)*%
X20701000Y-15367000D02*
X20701000Y-11977000D01*
X20701000Y-11977000D02*
X21629000Y-11049000D01*
X21629000Y-11049000D02*
X21629000Y-7532000D01*
X21629000Y-7532000D02*
X20447000Y-6350000D01*
%TO.N,Net-(D1-COM)*%
X21590000Y-3048000D02*
X22479000Y-3937000D01*
X21590000Y-12319000D02*
X21590000Y-18161000D01*
X22479000Y-3937000D02*
X22479000Y-11430000D01*
X21590000Y-18161000D02*
X20828000Y-18923000D01*
X22479000Y-11430000D02*
X21590000Y-12319000D01*
X20828000Y-18923000D02*
X20828000Y-20447000D01*
X20828000Y-20447000D02*
X20701000Y-20574000D01*
%TO.N,GND*%
X23622000Y-10541000D02*
X23622000Y-11430000D01*
X23622000Y-11430000D02*
X22606000Y-12446000D01*
X22606000Y-12446000D02*
X22606000Y-18034000D01*
X23241000Y-10160000D02*
X23622000Y-10541000D01*
X23241000Y-7493000D02*
X23241000Y-10160000D01*
X22479000Y-1778000D02*
X23241000Y-2540000D01*
X23241000Y-2540000D02*
X23241000Y-7493000D01*
%TO.N,+2V5*%
X17653000Y-10160000D02*
X17653000Y-10795000D01*
X18796000Y-11938000D02*
X19050000Y-11938000D01*
X17653000Y-10795000D02*
X18796000Y-11938000D01*
X19050000Y-11938000D02*
X19050000Y-15406000D01*
%TO.N,+5V*%
X16510000Y-9779000D02*
X16383000Y-9652000D01*
X16510000Y-11176000D02*
X16510000Y-9779000D01*
X18034000Y-12700000D02*
X16510000Y-11176000D01*
X18034000Y-13208000D02*
X18034000Y-12700000D01*
%TO.N,Net-(C3-Pad2)*%
X16510000Y-12446000D02*
X16764000Y-12700000D01*
X16764000Y-12700000D02*
X16764000Y-14859000D01*
%TO.N,Net-(D2-K)*%
X18270000Y-17000000D02*
X17702918Y-17000000D01*
X17702918Y-17000000D02*
X15180918Y-14478000D01*
X15180918Y-14478000D02*
X14097000Y-14478000D01*
%TO.N,+5V*%
X18034000Y-13208000D02*
X17780000Y-12954000D01*
%TO.N,+2V5*%
X15748000Y-16982000D02*
X15730000Y-17000000D01*
X19050000Y-15406000D02*
X18962000Y-15494000D01*
%TO.N,Net-(D1-K)*%
X19320000Y-5096000D02*
X19320000Y-7509000D01*
X19812000Y-19431000D02*
X17754600Y-21488400D01*
X19320000Y-7509000D02*
X19812000Y-8001000D01*
X19812000Y-8001000D02*
X19812000Y-19431000D01*
X17754600Y-21488400D02*
X16230600Y-21488400D01*
%TO.N,Net-(D2-K)*%
X18034000Y-16764000D02*
X18270000Y-17000000D01*
X14097000Y-12827000D02*
X14097000Y-13081000D01*
X14097000Y-13081000D02*
X14097000Y-14478000D01*
%TO.N,Net-(U1A-+)*%
X15494000Y-13021918D02*
X15777541Y-13305459D01*
X15494000Y-10287000D02*
X15494000Y-13021918D01*
%TO.N,Net-(D2-K)*%
X14097000Y-12827000D02*
X14097000Y-10668000D01*
%TO.N,Net-(D1-K)*%
X19304000Y-5080000D02*
X19320000Y-5096000D01*
%TO.N,rect*%
X27813000Y-8382000D02*
X27813000Y-8128000D01*
%TO.N,Net-(D1-K)*%
X16230600Y-21488400D02*
X15189200Y-21488400D01*
%TO.N,detect*%
X3937000Y-8763000D02*
X4699000Y-8001000D01*
X3937000Y-21590000D02*
X3937000Y-8763000D01*
%TO.N,Net-(D1-A)*%
X23622000Y-19939000D02*
X24511000Y-20828000D01*
X24511000Y-30353000D02*
X24765000Y-30607000D01*
X23622000Y-12954000D02*
X23622000Y-19939000D01*
X24511000Y-20828000D02*
X24511000Y-30353000D01*
%TO.N,+5V*%
X10668000Y-5588000D02*
X10668000Y-6350000D01*
%TO.N,detect*%
X20810000Y-32000000D02*
X20810000Y-21709600D01*
%TO.N,GND*%
X22643200Y-28029800D02*
X22352000Y-28321000D01*
X22643200Y-18071200D02*
X22643200Y-28029800D01*
X22606000Y-18034000D02*
X22643200Y-18071200D01*
X25958800Y-31648400D02*
X25958800Y-28194000D01*
X25958800Y-28194000D02*
X25958800Y-25806400D01*
%TO.N,Net-(C3-Pad2)*%
X15240000Y-18482918D02*
X15240000Y-19431000D01*
X14480000Y-17722918D02*
X15240000Y-18482918D01*
X14480000Y-15746000D02*
X14480000Y-17722918D01*
X14732000Y-15494000D02*
X14480000Y-15746000D01*
%TO.N,Net-(U1A-+)*%
X12350000Y-14193000D02*
X13208000Y-13335000D01*
X12350000Y-18669000D02*
X12350000Y-14193000D01*
X14224000Y-25400000D02*
X14224000Y-18669000D01*
%TO.N,Net-(U1A--)*%
X11500000Y-17272000D02*
X11500000Y-28772000D01*
X11500000Y-28772000D02*
X11938000Y-29210000D01*
%TO.N,+2V5*%
X24130000Y-6985000D02*
X24130000Y-9500000D01*
X24130000Y-9500000D02*
X24160000Y-9530000D01*
X32893000Y-9525000D02*
X32893000Y-11430000D01*
%TO.N,+5V*%
X10650000Y-32000000D02*
X10650000Y-14224000D01*
X10650000Y-14224000D02*
X10650000Y-6368000D01*
%TO.N,rect*%
X18270000Y-29337000D02*
X18270000Y-28339000D01*
X18270000Y-32000000D02*
X18270000Y-29337000D01*
X18270000Y-28339000D02*
X19812000Y-26797000D01*
%TO.N,light-tight*%
X15730000Y-30462000D02*
X15621000Y-30353000D01*
X15730000Y-32000000D02*
X15730000Y-30462000D01*
%TO.N,Net-(D2-K)*%
X14224000Y-10541000D02*
X14097000Y-10668000D01*
X14224000Y-10160000D02*
X14224000Y-10541000D01*
%TO.N,light-tight*%
X11557000Y-11430000D02*
X11811000Y-11684000D01*
X11557000Y-3175000D02*
X11557000Y-11430000D01*
%TO.N,+5V*%
X10650000Y-6368000D02*
X10668000Y-6350000D01*
%TO.N,Net-(D2-K)*%
X14224000Y-4826000D02*
X14224000Y-10160000D01*
%TO.N,+2V5*%
X32893000Y-11430000D02*
X32893000Y-25781000D01*
%TO.N,rect*%
X27813000Y-8382000D02*
X27813000Y-14097000D01*
X27813000Y-14097000D02*
X27736800Y-14173200D01*
%TO.N,Net-(D1-K)*%
X15138400Y-21539200D02*
X15189200Y-21488400D01*
X15138400Y-23622000D02*
X15138400Y-21539200D01*
%TO.N,Net-(C3-Pad2)*%
X21793200Y-23672800D02*
X21793200Y-19913600D01*
%TO.N,+2V5*%
X13309600Y-16865600D02*
X13360400Y-16814800D01*
X13309600Y-23164800D02*
X13309600Y-16865600D01*
%TO.N,rect*%
X27686000Y-15646400D02*
X27686000Y-14224000D01*
X27686000Y-14224000D02*
X27736800Y-14173200D01*
X27787600Y-15748000D02*
X27686000Y-15646400D01*
X27787600Y-26873200D02*
X27787600Y-15748000D01*
%TO.N,detect*%
X20810000Y-21709600D02*
X20878800Y-21640800D01*
%TO.N,GND*%
X25958800Y-25806400D02*
X26111200Y-25654000D01*
X23350000Y-32000000D02*
X25607200Y-32000000D01*
X25607200Y-32000000D02*
X25958800Y-31648400D01*
%TO.N,light-tight*%
X7213600Y-19710400D02*
X7213600Y-12700000D01*
%TO.N,+2V5*%
X6299200Y-15544800D02*
X6350000Y-15494000D01*
X13190000Y-32000000D02*
X13190000Y-23284400D01*
X13190000Y-23284400D02*
X13309600Y-23164800D01*
X6299200Y-23012400D02*
X6299200Y-15544800D01*
%TD*%
M02*
