(footprint "display_adafruit_1.14_onepeg"
	(version 20240108)
	(generator "pcbnew")
	(generator_version "8.0")
	(layer "F.Cu")
	(descr "Through hole straight socket strip, 1x11, 2.54mm pitch, single row (from Kicad 4.0.7), script generated")
	(tags "Through hole socket strip THT 1x11 2.54mm single row")
	(property "Reference" "REF**"
		(at -15.47 12.7 90)
		(layer "F.SilkS")
		(uuid "d3d60680-0c7c-43f5-bc50-0b59bf08b4d7")
		(effects
			(font
				(size 1 1)
				(thickness 0.15)
			)
		)
	)
	(property "Value" "display_adafruit_1.14_onepeg"
		(at 15.47 12.7 90)
		(layer "F.Fab")
		(uuid "56253bd7-4cd8-47fa-a179-bde29d9ebcc1")
		(effects
			(font
				(size 1 1)
				(thickness 0.15)
			)
		)
	)
	(property "Footprint" ""
		(at -12.7 12.7 90)
		(unlocked yes)
		(layer "F.Fab")
		(hide yes)
		(uuid "d169ae15-8580-43e8-907e-4e8ef48721b7")
		(effects
			(font
				(size 1.27 1.27)
			)
		)
	)
	(property "Datasheet" ""
		(at -12.7 12.7 90)
		(unlocked yes)
		(layer "F.Fab")
		(hide yes)
		(uuid "b925effc-91c0-4a7a-8c0b-5596c21dabb1")
		(effects
			(font
				(size 1.27 1.27)
			)
		)
	)
	(property "Description" ""
		(at -12.7 12.7 90)
		(unlocked yes)
		(layer "F.Fab")
		(hide yes)
		(uuid "3e5f1165-754d-45ed-8587-20ee1fd0f4c6")
		(effects
			(font
				(size 1.27 1.27)
			)
		)
	)
	(attr through_hole)
	(fp_line
		(start -14.03 11.37)
		(end -12.7 11.37)
		(stroke
			(width 0.12)
			(type solid)
		)
		(layer "F.SilkS")
		(uuid "bef88094-a03d-4161-ae43-6354fcab9ce4")
	)
	(fp_line
		(start -14.03 12.7)
		(end -14.03 11.37)
		(stroke
			(width 0.12)
			(type solid)
		)
		(layer "F.SilkS")
		(uuid "f9003771-d0ce-452c-a03b-e54d3c4b1810")
	)
	(fp_line
		(start -11.43 11.37)
		(end 14.03 11.37)
		(stroke
			(width 0.12)
			(type solid)
		)
		(layer "F.SilkS")
		(uuid "14ba122a-e2f4-41d3-8347-a62f012e3b08")
	)
	(fp_line
		(start -11.43 14.03)
		(end -11.43 11.37)
		(stroke
			(width 0.12)
			(type solid)
		)
		(layer "F.SilkS")
		(uuid "63a427dc-d9b1-4dcb-8b9a-9f930fb1fbc2")
	)
	(fp_line
		(start -11.43 14.03)
		(end 14.03 14.03)
		(stroke
			(width 0.12)
			(type solid)
		)
		(layer "F.SilkS")
		(uuid "19b6a5a7-c50e-4d3e-9c65-de2896778295")
	)
	(fp_line
		(start 14.03 14.03)
		(end 14.03 11.37)
		(stroke
			(width 0.12)
			(type solid)
		)
		(layer "F.SilkS")
		(uuid "ba7d1799-bd34-48b1-bfcb-b67625bbbda4")
	)
	(fp_rect
		(start -15.71 -12.4)
		(end 15.75 14.66)
		(stroke
			(width 0.12)
			(type default)
		)
		(fill none)
		(layer "F.SilkS")
		(uuid "5eb3afda-7e13-45f3-b4d8-72fa0d56bef6")
	)
	(fp_line
		(start -14.5 10.95)
		(end 14.45 10.95)
		(stroke
			(width 0.05)
			(type solid)
		)
		(layer "F.CrtYd")
		(uuid "c9705b66-52da-409b-b6b1-0b1c38976a29")
	)
	(fp_line
		(start -14.5 14.5)
		(end -14.5 10.95)
		(stroke
			(width 0.05)
			(type solid)
		)
		(layer "F.CrtYd")
		(uuid "89587e47-d5bb-479c-9809-9cad209dbe48")
	)
	(fp_line
		(start 14.45 10.95)
		(end 14.45 14.5)
		(stroke
			(width 0.05)
			(type solid)
		)
		(layer "F.CrtYd")
		(uuid "fb09afc4-d458-402d-8a9b-155b631b2c44")
	)
	(fp_line
		(start 14.45 14.5)
		(end -14.5 14.5)
		(stroke
			(width 0.05)
			(type solid)
		)
		(layer "F.CrtYd")
		(uuid "90d05cf2-bd9a-43cc-bf5b-817764308b83")
	)
	(fp_line
		(start -13.97 12.065)
		(end -13.335 11.43)
		(stroke
			(width 0.1)
			(type solid)
		)
		(layer "F.Fab")
		(uuid "5ec18695-ebba-4f90-b9e3-46d7f3a6553e")
	)
	(fp_line
		(start -13.97 13.97)
		(end -13.97 12.065)
		(stroke
			(width 0.1)
			(type solid)
		)
		(layer "F.Fab")
		(uuid "b4fa4d71-d29d-476c-890c-1e94fdc4fc6b")
	)
	(fp_line
		(start -13.335 11.43)
		(end 13.97 11.43)
		(stroke
			(width 0.1)
			(type solid)
		)
		(layer "F.Fab")
		(uuid "9bf6d61d-4366-447e-876a-5b3d043a0de9")
	)
	(fp_line
		(start 13.97 11.43)
		(end 13.97 13.97)
		(stroke
			(width 0.1)
			(type solid)
		)
		(layer "F.Fab")
		(uuid "90d23572-b926-4e92-965f-4530487e3de9")
	)
	(fp_line
		(start 13.97 13.97)
		(end -13.97 13.97)
		(stroke
			(width 0.1)
			(type solid)
		)
		(layer "F.Fab")
		(uuid "39c752f3-2c05-4a7f-95a3-c7a80ce6bc9c")
	)
	(fp_text user "${REFERENCE}"
		(at 0 12.7 180)
		(layer "F.Fab")
		(uuid "ac2a4716-1ad2-4256-8a4d-db131c103810")
		(effects
			(font
				(size 1 1)
				(thickness 0.15)
			)
		)
	)
	(pad "" np_thru_hole circle
		(at -13.36 -10.15 180)
		(size 4.25 4.25)
		(drill 2.5)
		(layers "F&B.Cu" "*.Mask")
		(uuid "8a6c4525-657d-4763-87e2-f8be88484ff6")
	)
	(pad "1" thru_hole rect
		(at -12.7 12.7 90)
		(size 1.7 1.7)
		(drill 1)
		(layers "*.Cu" "*.Mask")
		(remove_unused_layers no)
		(uuid "4f386eaf-ce1d-4054-96d5-d2a5a8c1f32a")
	)
	(pad "2" thru_hole oval
		(at -10.16 12.7 90)
		(size 1.7 1.7)
		(drill 1)
		(layers "*.Cu" "*.Mask")
		(remove_unused_layers no)
		(uuid "ab089450-8508-4ae9-8718-a8830f025df0")
	)
	(pad "3" thru_hole oval
		(at -7.62 12.7 90)
		(size 1.7 1.7)
		(drill 1)
		(layers "*.Cu" "*.Mask")
		(remove_unused_layers no)
		(uuid "73f4387f-5f51-4feb-b91c-3eee821a2a25")
	)
	(pad "4" thru_hole oval
		(at -5.08 12.7 90)
		(size 1.7 1.7)
		(drill 1)
		(layers "*.Cu" "*.Mask")
		(remove_unused_layers no)
		(uuid "ca8575bb-9f04-4506-a367-4ace51d8ae23")
	)
	(pad "5" thru_hole oval
		(at -2.54 12.7 90)
		(size 1.7 1.7)
		(drill 1)
		(layers "*.Cu" "*.Mask")
		(remove_unused_layers no)
		(uuid "40444eed-f95e-4898-9b41-f62bf578daa7")
	)
	(pad "6" thru_hole oval
		(at 0 12.7 90)
		(size 1.7 1.7)
		(drill 1)
		(layers "*.Cu" "*.Mask")
		(remove_unused_layers no)
		(uuid "ce672e75-d999-4a1e-9e81-2d06e731f0b5")
	)
	(pad "7" thru_hole oval
		(at 2.54 12.7 90)
		(size 1.7 1.7)
		(drill 1)
		(layers "*.Cu" "*.Mask")
		(remove_unused_layers no)
		(uuid "e3212ec7-798b-442f-8c0a-44b48b1d85ec")
	)
	(pad "8" thru_hole oval
		(at 5.08 12.7 90)
		(size 1.7 1.7)
		(drill 1)
		(layers "*.Cu" "*.Mask")
		(remove_unused_layers no)
		(uuid "4e0876d2-954d-4248-9e2a-364b20fc1721")
	)
	(pad "9" thru_hole oval
		(at 7.62 12.7 90)
		(size 1.7 1.7)
		(drill 1)
		(layers "*.Cu" "*.Mask")
		(remove_unused_layers no)
		(uuid "b2c32d00-2173-4fcc-8c17-f1bbbab08ff8")
	)
	(pad "10" thru_hole oval
		(at 10.16 12.7 90)
		(size 1.7 1.7)
		(drill 1)
		(layers "*.Cu" "*.Mask")
		(remove_unused_layers no)
		(uuid "d5192ef0-b977-4179-b706-c492980e54fe")
	)
	(pad "11" thru_hole oval
		(at 12.7 12.7 90)
		(size 1.7 1.7)
		(drill 1)
		(layers "*.Cu" "*.Mask")
		(remove_unused_layers no)
		(uuid "19cb4735-e36c-431f-a339-11e8d4846bd8")
	)
	(model "${KICAD6_3DMODEL_DIR}/Connector_PinSocket_2.54mm.3dshapes/PinSocket_1x11_P2.54mm_Vertical.wrl"
		(offset
			(xyz 0 0 0)
		)
		(scale
			(xyz 1 1 1)
		)
		(rotate
			(xyz 0 0 0)
		)
	)
)