(footprint "PinSocket_1x14_P2.54mm_Vertical"
	(version 20240108)
	(generator "pcbnew")
	(generator_version "8.0")
	(layer "F.Cu")
	(descr "Through hole straight socket strip, 1x14, 2.54mm pitch, single row (from Kicad 4.0.7), script generated")
	(tags "Through hole socket strip THT 1x14 2.54mm single row")
	(property "Reference" "REF**"
		(at 0 -2.77 0)
		(layer "F.SilkS")
		(uuid "b320b14f-64eb-4d4e-94ac-0ed5652ceef7")
		(effects
			(font
				(size 1 1)
				(thickness 0.15)
			)
		)
	)
	(property "Value" "PinSocket_1x14_P2.54mm_Vertical"
		(at 0 35.79 0)
		(layer "F.Fab")
		(uuid "d992600f-c609-4e2c-98e9-5aabf5189c03")
		(effects
			(font
				(size 1 1)
				(thickness 0.15)
			)
		)
	)
	(property "Footprint" ""
		(at 0 0 0)
		(unlocked yes)
		(layer "F.Fab")
		(hide yes)
		(uuid "b34138cc-9ab9-4dd7-ba5e-fe53401fb7a6")
		(effects
			(font
				(size 1.27 1.27)
			)
		)
	)
	(property "Datasheet" ""
		(at 0 0 0)
		(unlocked yes)
		(layer "F.Fab")
		(hide yes)
		(uuid "d08b0e2a-4bdf-4a55-8c21-b82d69f2eedf")
		(effects
			(font
				(size 1.27 1.27)
			)
		)
	)
	(property "Description" ""
		(at 0 0 0)
		(unlocked yes)
		(layer "F.Fab")
		(hide yes)
		(uuid "a8d3c987-b94a-4358-ae6c-f76b07d71300")
		(effects
			(font
				(size 1.27 1.27)
			)
		)
	)
	(attr through_hole)
	(fp_line
		(start -1.33 1.27)
		(end -1.33 34.35)
		(stroke
			(width 0.12)
			(type solid)
		)
		(layer "F.SilkS")
		(uuid "15090455-5047-4816-ae08-726a9ede8ba5")
	)
	(fp_line
		(start -1.33 1.27)
		(end 1.33 1.27)
		(stroke
			(width 0.12)
			(type solid)
		)
		(layer "F.SilkS")
		(uuid "8ef066b0-a4c3-4871-a5bd-fc0681d1bacc")
	)
	(fp_line
		(start -1.33 34.35)
		(end 1.33 34.35)
		(stroke
			(width 0.12)
			(type solid)
		)
		(layer "F.SilkS")
		(uuid "7ba41ae3-9288-4d37-85ec-ac828c326a51")
	)
	(fp_line
		(start 0 -1.33)
		(end 1.33 -1.33)
		(stroke
			(width 0.12)
			(type solid)
		)
		(layer "F.SilkS")
		(uuid "88e23393-3a96-4523-b9f0-7b7524f5c617")
	)
	(fp_line
		(start 1.33 -1.33)
		(end 1.33 0)
		(stroke
			(width 0.12)
			(type solid)
		)
		(layer "F.SilkS")
		(uuid "229a7116-60ca-4619-ab50-72d8917e911d")
	)
	(fp_line
		(start 1.33 1.27)
		(end 1.33 34.35)
		(stroke
			(width 0.12)
			(type solid)
		)
		(layer "F.SilkS")
		(uuid "3fd54f43-9260-471c-bece-11a0f59e551c")
	)
	(fp_line
		(start -1.8 -1.8)
		(end 1.75 -1.8)
		(stroke
			(width 0.05)
			(type solid)
		)
		(layer "F.CrtYd")
		(uuid "985979bd-cac6-47ef-94fc-31723d0c3bba")
	)
	(fp_line
		(start -1.8 34.8)
		(end -1.8 -1.8)
		(stroke
			(width 0.05)
			(type solid)
		)
		(layer "F.CrtYd")
		(uuid "834cb02a-6697-482d-a923-b8fa257d90df")
	)
	(fp_line
		(start 1.75 -1.8)
		(end 1.75 34.8)
		(stroke
			(width 0.05)
			(type solid)
		)
		(layer "F.CrtYd")
		(uuid "e01ed8e9-75ba-4ba0-9a51-eb35b9ca5a70")
	)
	(fp_line
		(start 1.75 34.8)
		(end -1.8 34.8)
		(stroke
			(width 0.05)
			(type solid)
		)
		(layer "F.CrtYd")
		(uuid "c2b9f5af-26d8-41bc-b400-843dfe4e42cd")
	)
	(fp_line
		(start -1.27 -1.27)
		(end 0.635 -1.27)
		(stroke
			(width 0.1)
			(type solid)
		)
		(layer "F.Fab")
		(uuid "b762e851-4d20-4f89-98f2-835195bab579")
	)
	(fp_line
		(start -1.27 34.29)
		(end -1.27 -1.27)
		(stroke
			(width 0.1)
			(type solid)
		)
		(layer "F.Fab")
		(uuid "e3c46e44-159e-458c-bcd0-df439645d638")
	)
	(fp_line
		(start 0.635 -1.27)
		(end 1.27 -0.635)
		(stroke
			(width 0.1)
			(type solid)
		)
		(layer "F.Fab")
		(uuid "0bae25b5-047d-473d-8c8b-896699d57b1a")
	)
	(fp_line
		(start 1.27 -0.635)
		(end 1.27 34.29)
		(stroke
			(width 0.1)
			(type solid)
		)
		(layer "F.Fab")
		(uuid "142f4bb4-5a65-4b0d-8bf0-61304b616deb")
	)
	(fp_line
		(start 1.27 34.29)
		(end -1.27 34.29)
		(stroke
			(width 0.1)
			(type solid)
		)
		(layer "F.Fab")
		(uuid "2481401d-47f5-469b-a708-97e087c635fe")
	)
	(fp_text user "${REFERENCE}"
		(at 0 16.51 90)
		(layer "F.Fab")
		(uuid "1cf5c8b3-ed24-4c76-a988-b3640613d2b2")
		(effects
			(font
				(size 1 1)
				(thickness 0.15)
			)
		)
	)
	(pad "1" thru_hole rect
		(at 0 0)
		(size 1.7 1.7)
		(drill 1)
		(layers "*.Cu" "*.Mask")
		(remove_unused_layers no)
		(uuid "7a47ebeb-c8c6-4e8a-8fc8-9ac9e0cbda61")
	)
	(pad "2" thru_hole oval
		(at 0 2.54)
		(size 1.7 1.7)
		(drill 1)
		(layers "*.Cu" "*.Mask")
		(remove_unused_layers no)
		(uuid "b183b003-d0e2-4ffb-93b8-43b94e46d5f1")
	)
	(pad "3" thru_hole oval
		(at 0 5.08)
		(size 1.7 1.7)
		(drill 1)
		(layers "*.Cu" "*.Mask")
		(remove_unused_layers no)
		(uuid "711e829c-148f-4fb8-b3d3-8d105d3959d8")
	)
	(pad "4" thru_hole oval
		(at 0 7.62)
		(size 1.7 1.7)
		(drill 1)
		(layers "*.Cu" "*.Mask")
		(remove_unused_layers no)
		(uuid "2f61f64f-ba62-4020-96de-9b9d185785ac")
	)
	(pad "5" thru_hole oval
		(at 0 10.16)
		(size 1.7 1.7)
		(drill 1)
		(layers "*.Cu" "*.Mask")
		(remove_unused_layers no)
		(uuid "20e8969a-a630-4c9c-9153-4e82ed5d24a3")
	)
	(pad "6" thru_hole oval
		(at 0 12.7)
		(size 1.7 1.7)
		(drill 1)
		(layers "*.Cu" "*.Mask")
		(remove_unused_layers no)
		(uuid "bc3831d2-4bd8-4d55-85e8-d00644449d5b")
	)
	(pad "7" thru_hole oval
		(at 0 15.24)
		(size 1.7 1.7)
		(drill 1)
		(layers "*.Cu" "*.Mask")
		(remove_unused_layers no)
		(uuid "1f16147b-fc08-4bcd-89dc-9b9e6346b1a4")
	)
	(pad "8" thru_hole oval
		(at 0 17.78)
		(size 1.7 1.7)
		(drill 1)
		(layers "*.Cu" "*.Mask")
		(remove_unused_layers no)
		(uuid "2fa3c076-4864-4d22-adcc-8bb544d46030")
	)
	(pad "9" thru_hole oval
		(at 0 20.32)
		(size 1.7 1.7)
		(drill 1)
		(layers "*.Cu" "*.Mask")
		(remove_unused_layers no)
		(uuid "b168ed89-9a40-4a43-a484-b018594724e9")
	)
	(pad "10" thru_hole oval
		(at 0 22.86)
		(size 1.7 1.7)
		(drill 1)
		(layers "*.Cu" "*.Mask")
		(remove_unused_layers no)
		(uuid "6b60704d-47c3-4dbe-a2ae-0dcf2113713d")
	)
	(pad "11" thru_hole oval
		(at 0 25.4)
		(size 1.7 1.7)
		(drill 1)
		(layers "*.Cu" "*.Mask")
		(remove_unused_layers no)
		(uuid "fab4c57c-b6cb-4e38-bc33-d2b34ebaebd1")
	)
	(pad "12" thru_hole oval
		(at 0 27.94)
		(size 1.7 1.7)
		(drill 1)
		(layers "*.Cu" "*.Mask")
		(remove_unused_layers no)
		(uuid "e13e68fd-fdbc-4e54-bb03-5cdae2e11d92")
	)
	(pad "13" thru_hole oval
		(at 0 30.48)
		(size 1.7 1.7)
		(drill 1)
		(layers "*.Cu" "*.Mask")
		(remove_unused_layers no)
		(uuid "8b65e3ec-bfba-4a04-b01b-41779918fd14")
	)
	(pad "14" thru_hole oval
		(at 0 33.02)
		(size 1.7 1.7)
		(drill 1)
		(layers "*.Cu" "*.Mask")
		(remove_unused_layers no)
		(uuid "b0c3e13f-ea2b-49a0-986d-d4a79effec97")
	)
	(model "${KICAD6_3DMODEL_DIR}/Connector_PinSocket_2.54mm.3dshapes/PinSocket_1x14_P2.54mm_Vertical.wrl"
		(offset
			(xyz 0 0 0)
		)
		(scale
			(xyz 1 1 1)
		)
		(rotate
			(xyz 0 0 0)
		)
	)
)