%TF.GenerationSoftware,KiCad,Pcbnew,8.0.0-8.0.0-1~ubuntu22.04.1*%
%TF.CreationDate,2024-04-06T21:54:48-04:00*%
%TF.ProjectId,UV-LED-source,55562d4c-4544-42d7-936f-757263652e6b,rev?*%
%TF.SameCoordinates,Original*%
%TF.FileFunction,Copper,L2,Bot*%
%TF.FilePolarity,Positive*%
%FSLAX46Y46*%
G04 Gerber Fmt 4.6, Leading zero omitted, Abs format (unit mm)*
G04 Created by KiCad (PCBNEW 8.0.0-8.0.0-1~ubuntu22.04.1) date 2024-04-06 21:54:48*
%MOMM*%
%LPD*%
G01*
G04 APERTURE LIST*
%TA.AperFunction,ComponentPad*%
%ADD10R,1.700000X1.700000*%
%TD*%
%TA.AperFunction,ComponentPad*%
%ADD11O,1.700000X1.700000*%
%TD*%
%TA.AperFunction,ViaPad*%
%ADD12C,0.800000*%
%TD*%
%TA.AperFunction,Conductor*%
%ADD13C,0.500000*%
%TD*%
G04 APERTURE END LIST*
D10*
%TO.P,J1,1,Pin_1*%
%TO.N,V_LED_CONTROL*%
X13200000Y-32000000D03*
D11*
%TO.P,J1,2,Pin_2*%
%TO.N,+7VS*%
X15740000Y-32000000D03*
%TO.P,J1,3,Pin_3*%
%TO.N,+5V*%
X18280000Y-32000000D03*
%TO.P,J1,4,Pin_4*%
%TO.N,GND*%
X20820000Y-32000000D03*
%TD*%
D12*
%TO.N,Net-(Q1-G)*%
X25000000Y-19500000D03*
X25000000Y-16500000D03*
%TO.N,+7VS*%
X18750000Y-13750000D03*
X18750000Y-24750000D03*
%TO.N,+5V*%
X17000000Y-14000000D03*
%TO.N,GND*%
X7500000Y-20000000D03*
X11500000Y-20250000D03*
%TO.N,Net-(Q1-S)*%
X30250000Y-10250000D03*
X14500000Y-10250000D03*
%TO.N,Net-(R1-Pad1)*%
X22750000Y-11500000D03*
X13250000Y-11500000D03*
%TO.N,Net-(U1A-+)*%
X15750000Y-12750000D03*
X11500000Y-12750000D03*
%TD*%
D13*
%TO.N,Net-(Q1-G)*%
X25000000Y-16500000D02*
X25000000Y-19500000D01*
%TO.N,+7VS*%
X18750000Y-23750000D02*
X18750000Y-13750000D01*
X18750000Y-24750000D02*
X18750000Y-23750000D01*
%TO.N,+5V*%
X17000000Y-14000000D02*
X17000000Y-26000000D01*
X17000000Y-26000000D02*
X18280000Y-27280000D01*
X18280000Y-27280000D02*
X18280000Y-32000000D01*
%TO.N,GND*%
X11500000Y-20250000D02*
X7750000Y-20250000D01*
X7750000Y-20250000D02*
X7500000Y-20000000D01*
%TO.N,Net-(Q1-S)*%
X26750000Y-10250000D02*
X30250000Y-10250000D01*
X14500000Y-10250000D02*
X26750000Y-10250000D01*
%TO.N,Net-(R1-Pad1)*%
X13250000Y-11500000D02*
X22750000Y-11500000D01*
%TO.N,Net-(U1A-+)*%
X11500000Y-12750000D02*
X15750000Y-12750000D01*
%TD*%
M02*
