%TF.GenerationSoftware,KiCad,Pcbnew,8.0.0-8.0.0-1~ubuntu22.04.1*%
%TF.CreationDate,2024-04-06T21:54:48-04:00*%
%TF.ProjectId,UV-LED-source,55562d4c-4544-42d7-936f-757263652e6b,rev?*%
%TF.SameCoordinates,Original*%
%TF.FileFunction,Soldermask,Top*%
%TF.FilePolarity,Negative*%
%FSLAX46Y46*%
G04 Gerber Fmt 4.6, Leading zero omitted, Abs format (unit mm)*
G04 Created by KiCad (PCBNEW 8.0.0-8.0.0-1~ubuntu22.04.1) date 2024-04-06 21:54:48*
%MOMM*%
%LPD*%
G01*
G04 APERTURE LIST*
G04 Aperture macros list*
%AMRoundRect*
0 Rectangle with rounded corners*
0 $1 Rounding radius*
0 $2 $3 $4 $5 $6 $7 $8 $9 X,Y pos of 4 corners*
0 Add a 4 corners polygon primitive as box body*
4,1,4,$2,$3,$4,$5,$6,$7,$8,$9,$2,$3,0*
0 Add four circle primitives for the rounded corners*
1,1,$1+$1,$2,$3*
1,1,$1+$1,$4,$5*
1,1,$1+$1,$6,$7*
1,1,$1+$1,$8,$9*
0 Add four rect primitives between the rounded corners*
20,1,$1+$1,$2,$3,$4,$5,0*
20,1,$1+$1,$4,$5,$6,$7,0*
20,1,$1+$1,$6,$7,$8,$9,0*
20,1,$1+$1,$8,$9,$2,$3,0*%
G04 Aperture macros list end*
%ADD10C,3.200000*%
%ADD11RoundRect,0.250000X-0.350000X-0.450000X0.350000X-0.450000X0.350000X0.450000X-0.350000X0.450000X0*%
%ADD12R,0.450000X1.000000*%
%ADD13RoundRect,0.108696X-0.141304X-1.541304X0.141304X-1.541304X0.141304X1.541304X-0.141304X1.541304X0*%
%ADD14R,1.400000X3.300000*%
%ADD15RoundRect,0.150000X0.587500X0.150000X-0.587500X0.150000X-0.587500X-0.150000X0.587500X-0.150000X0*%
%ADD16RoundRect,0.150000X0.150000X-0.825000X0.150000X0.825000X-0.150000X0.825000X-0.150000X-0.825000X0*%
%ADD17R,1.700000X1.700000*%
%ADD18O,1.700000X1.700000*%
G04 APERTURE END LIST*
D10*
%TO.C,H1*%
X4000000Y-4000000D03*
%TD*%
D11*
%TO.C,R4*%
X7750000Y-12750000D03*
X9750000Y-12750000D03*
%TD*%
%TO.C,R2*%
X23000000Y-23000000D03*
X25000000Y-23000000D03*
%TD*%
D12*
%TO.C,D1*%
X15100000Y-17000000D03*
D13*
X15550000Y-17000000D03*
X18350000Y-17000000D03*
D12*
X18800000Y-17000000D03*
D14*
X16950000Y-17000000D03*
%TD*%
D10*
%TO.C,H4*%
X30000000Y-30000000D03*
%TD*%
%TO.C,H3*%
X4000000Y-30000000D03*
%TD*%
%TO.C,H2*%
X30000000Y-4000000D03*
%TD*%
D15*
%TO.C,Q1*%
X28250000Y-19250000D03*
X28250000Y-17350000D03*
X26375000Y-18300000D03*
%TD*%
D11*
%TO.C,R3*%
X7750000Y-22750000D03*
X9750000Y-22750000D03*
%TD*%
%TO.C,R1*%
X25000000Y-13250000D03*
X23000000Y-13250000D03*
%TD*%
D16*
%TO.C,U1*%
X13190000Y-7475000D03*
X14460000Y-7475000D03*
X15730000Y-7475000D03*
X17000000Y-7475000D03*
X18270000Y-7475000D03*
X19540000Y-7475000D03*
X20810000Y-7475000D03*
X20810000Y-2525000D03*
X19540000Y-2525000D03*
X18270000Y-2525000D03*
X17000000Y-2525000D03*
X15730000Y-2525000D03*
X14460000Y-2525000D03*
X13190000Y-2525000D03*
%TD*%
D17*
%TO.C,J1*%
X13200000Y-32000000D03*
D18*
X15740000Y-32000000D03*
X18280000Y-32000000D03*
X20820000Y-32000000D03*
%TD*%
M02*
