%TF.GenerationSoftware,KiCad,Pcbnew,8.0.0-8.0.0-1~ubuntu22.04.1*%
%TF.CreationDate,2024-03-11T22:33:24-04:00*%
%TF.ProjectId,UV-LED-source,55562d4c-4544-42d7-936f-757263652e6b,rev?*%
%TF.SameCoordinates,Original*%
%TF.FileFunction,Soldermask,Top*%
%TF.FilePolarity,Negative*%
%FSLAX46Y46*%
G04 Gerber Fmt 4.6, Leading zero omitted, Abs format (unit mm)*
G04 Created by KiCad (PCBNEW 8.0.0-8.0.0-1~ubuntu22.04.1) date 2024-03-11 22:33:24*
%MOMM*%
%LPD*%
G01*
G04 APERTURE LIST*
G04 Aperture macros list*
%AMRoundRect*
0 Rectangle with rounded corners*
0 $1 Rounding radius*
0 $2 $3 $4 $5 $6 $7 $8 $9 X,Y pos of 4 corners*
0 Add a 4 corners polygon primitive as box body*
4,1,4,$2,$3,$4,$5,$6,$7,$8,$9,$2,$3,0*
0 Add four circle primitives for the rounded corners*
1,1,$1+$1,$2,$3*
1,1,$1+$1,$4,$5*
1,1,$1+$1,$6,$7*
1,1,$1+$1,$8,$9*
0 Add four rect primitives between the rounded corners*
20,1,$1+$1,$2,$3,$4,$5,0*
20,1,$1+$1,$4,$5,$6,$7,0*
20,1,$1+$1,$6,$7,$8,$9,0*
20,1,$1+$1,$8,$9,$2,$3,0*%
G04 Aperture macros list end*
%ADD10R,0.450000X1.000000*%
%ADD11RoundRect,0.108696X-0.141304X-1.541304X0.141304X-1.541304X0.141304X1.541304X-0.141304X1.541304X0*%
%ADD12C,2.700000*%
%ADD13RoundRect,0.250000X0.350000X0.450000X-0.350000X0.450000X-0.350000X-0.450000X0.350000X-0.450000X0*%
%ADD14RoundRect,0.250000X0.625000X-0.350000X0.625000X0.350000X-0.625000X0.350000X-0.625000X-0.350000X0*%
%ADD15O,1.750000X1.200000*%
%ADD16RoundRect,0.150000X-0.587500X-0.150000X0.587500X-0.150000X0.587500X0.150000X-0.587500X0.150000X0*%
%ADD17RoundRect,0.150000X0.150000X-0.825000X0.150000X0.825000X-0.150000X0.825000X-0.150000X-0.825000X0*%
%ADD18R,1.700000X1.700000*%
%ADD19O,1.700000X1.700000*%
G04 APERTURE END LIST*
D10*
%TO.C,D1*%
X67560000Y-53450000D03*
D11*
X67110000Y-53450000D03*
X64310000Y-53450000D03*
D10*
X63860000Y-53450000D03*
%TD*%
D12*
%TO.C,H1*%
X52940000Y-41080000D03*
%TD*%
D13*
%TO.C,R4*%
X54100000Y-55950000D03*
X52100000Y-55950000D03*
%TD*%
%TO.C,R2*%
X54080000Y-51880000D03*
X52080000Y-51880000D03*
%TD*%
D14*
%TO.C,J2*%
X73990000Y-56650000D03*
D15*
X73990000Y-54650000D03*
X73990000Y-52650000D03*
X73990000Y-50650000D03*
%TD*%
D12*
%TO.C,H4*%
X77940000Y-66080000D03*
%TD*%
%TO.C,H3*%
X52940000Y-66080000D03*
%TD*%
%TO.C,H2*%
X77940000Y-41080000D03*
%TD*%
D16*
%TO.C,Q1*%
X54265000Y-46600000D03*
X54265000Y-48500000D03*
X56140000Y-47550000D03*
%TD*%
D13*
%TO.C,R3*%
X58630000Y-55980000D03*
X56630000Y-55980000D03*
%TD*%
%TO.C,R1*%
X56490000Y-51900000D03*
X58490000Y-51900000D03*
%TD*%
D17*
%TO.C,U1*%
X61690000Y-45695000D03*
X62960000Y-45695000D03*
X64230000Y-45695000D03*
X65500000Y-45695000D03*
X66770000Y-45695000D03*
X68040000Y-45695000D03*
X69310000Y-45695000D03*
X69310000Y-40745000D03*
X68040000Y-40745000D03*
X66770000Y-40745000D03*
X65500000Y-40745000D03*
X64230000Y-40745000D03*
X62960000Y-40745000D03*
X61690000Y-40745000D03*
%TD*%
D18*
%TO.C,J1*%
X69100000Y-67370000D03*
D19*
X66560000Y-67370000D03*
X64020000Y-67370000D03*
X61480000Y-67370000D03*
%TD*%
M02*
