%TF.GenerationSoftware,KiCad,Pcbnew,8.0.0-8.0.0-1~ubuntu22.04.1*%
%TF.CreationDate,2024-03-11T22:33:23-04:00*%
%TF.ProjectId,UV-LED-source,55562d4c-4544-42d7-936f-757263652e6b,rev?*%
%TF.SameCoordinates,Original*%
%TF.FileFunction,Copper,L1,Top*%
%TF.FilePolarity,Positive*%
%FSLAX46Y46*%
G04 Gerber Fmt 4.6, Leading zero omitted, Abs format (unit mm)*
G04 Created by KiCad (PCBNEW 8.0.0-8.0.0-1~ubuntu22.04.1) date 2024-03-11 22:33:23*
%MOMM*%
%LPD*%
G01*
G04 APERTURE LIST*
G04 Aperture macros list*
%AMRoundRect*
0 Rectangle with rounded corners*
0 $1 Rounding radius*
0 $2 $3 $4 $5 $6 $7 $8 $9 X,Y pos of 4 corners*
0 Add a 4 corners polygon primitive as box body*
4,1,4,$2,$3,$4,$5,$6,$7,$8,$9,$2,$3,0*
0 Add four circle primitives for the rounded corners*
1,1,$1+$1,$2,$3*
1,1,$1+$1,$4,$5*
1,1,$1+$1,$6,$7*
1,1,$1+$1,$8,$9*
0 Add four rect primitives between the rounded corners*
20,1,$1+$1,$2,$3,$4,$5,0*
20,1,$1+$1,$4,$5,$6,$7,0*
20,1,$1+$1,$6,$7,$8,$9,0*
20,1,$1+$1,$8,$9,$2,$3,0*%
G04 Aperture macros list end*
%TA.AperFunction,SMDPad,CuDef*%
%ADD10R,0.450000X1.000000*%
%TD*%
%TA.AperFunction,SMDPad,CuDef*%
%ADD11RoundRect,0.108696X-0.141304X-1.541304X0.141304X-1.541304X0.141304X1.541304X-0.141304X1.541304X0*%
%TD*%
%TA.AperFunction,SMDPad,CuDef*%
%ADD12RoundRect,0.250000X0.350000X0.450000X-0.350000X0.450000X-0.350000X-0.450000X0.350000X-0.450000X0*%
%TD*%
%TA.AperFunction,ComponentPad*%
%ADD13RoundRect,0.250000X0.625000X-0.350000X0.625000X0.350000X-0.625000X0.350000X-0.625000X-0.350000X0*%
%TD*%
%TA.AperFunction,ComponentPad*%
%ADD14O,1.750000X1.200000*%
%TD*%
%TA.AperFunction,SMDPad,CuDef*%
%ADD15RoundRect,0.150000X-0.587500X-0.150000X0.587500X-0.150000X0.587500X0.150000X-0.587500X0.150000X0*%
%TD*%
%TA.AperFunction,SMDPad,CuDef*%
%ADD16RoundRect,0.150000X0.150000X-0.825000X0.150000X0.825000X-0.150000X0.825000X-0.150000X-0.825000X0*%
%TD*%
%TA.AperFunction,ComponentPad*%
%ADD17R,1.700000X1.700000*%
%TD*%
%TA.AperFunction,ComponentPad*%
%ADD18O,1.700000X1.700000*%
%TD*%
%TA.AperFunction,ViaPad*%
%ADD19C,0.800000*%
%TD*%
%TA.AperFunction,Conductor*%
%ADD20C,0.500000*%
%TD*%
G04 APERTURE END LIST*
%TA.AperFunction,EtchedComponent*%
%TO.C,D1*%
G36*
X65010000Y-51800000D02*
G01*
X66410000Y-51800000D01*
X66410000Y-55100000D01*
X65010000Y-55100000D01*
X65010000Y-51800000D01*
G37*
%TD.AperFunction*%
%TD*%
D10*
%TO.P,D1,2,A*%
%TO.N,+7VS*%
X67560000Y-53450000D03*
D11*
X67110000Y-53450000D03*
%TO.P,D1,1,K*%
%TO.N,Net-(D1-K)*%
X64310000Y-53450000D03*
D10*
X63860000Y-53450000D03*
%TD*%
D12*
%TO.P,R4,1*%
%TO.N,GND*%
X54100000Y-55950000D03*
%TO.P,R4,2*%
%TO.N,Net-(U1A-+)*%
X52100000Y-55950000D03*
%TD*%
%TO.P,R2,1*%
%TO.N,GND*%
X54080000Y-51880000D03*
%TO.P,R2,2*%
%TO.N,Net-(Q1-S)*%
X52080000Y-51880000D03*
%TD*%
D13*
%TO.P,J2,1,Pin_1*%
%TO.N,V_LED_CONTROL*%
X73990000Y-56650000D03*
D14*
%TO.P,J2,2,Pin_2*%
%TO.N,+7VS*%
X73990000Y-54650000D03*
%TO.P,J2,3,Pin_3*%
%TO.N,+5V*%
X73990000Y-52650000D03*
%TO.P,J2,4,Pin_4*%
%TO.N,GND*%
X73990000Y-50650000D03*
%TD*%
D15*
%TO.P,Q1,1,S*%
%TO.N,Net-(Q1-S)*%
X54265000Y-46600000D03*
%TO.P,Q1,2,G*%
%TO.N,Net-(Q1-G)*%
X54265000Y-48500000D03*
%TO.P,Q1,3,D*%
%TO.N,Net-(D1-K)*%
X56140000Y-47550000D03*
%TD*%
D12*
%TO.P,R3,1*%
%TO.N,V_LED_CONTROL*%
X58630000Y-55980000D03*
%TO.P,R3,2*%
%TO.N,Net-(U1A-+)*%
X56630000Y-55980000D03*
%TD*%
%TO.P,R1,2*%
%TO.N,Net-(Q1-G)*%
X56490000Y-51900000D03*
%TO.P,R1,1*%
%TO.N,Net-(R1-Pad1)*%
X58490000Y-51900000D03*
%TD*%
D16*
%TO.P,U1,1*%
%TO.N,Net-(R1-Pad1)*%
X61690000Y-45695000D03*
%TO.P,U1,2,-*%
%TO.N,Net-(Q1-S)*%
X62960000Y-45695000D03*
%TO.P,U1,3,+*%
%TO.N,Net-(U1A-+)*%
X64230000Y-45695000D03*
%TO.P,U1,4,V+*%
%TO.N,+5V*%
X65500000Y-45695000D03*
%TO.P,U1,5,+*%
%TO.N,unconnected-(U1B-+-Pad5)*%
X66770000Y-45695000D03*
%TO.P,U1,6,-*%
%TO.N,unconnected-(U1B---Pad6)*%
X68040000Y-45695000D03*
%TO.P,U1,7*%
%TO.N,unconnected-(U1-Pad7)*%
X69310000Y-45695000D03*
%TO.P,U1,8*%
%TO.N,unconnected-(U1-Pad8)*%
X69310000Y-40745000D03*
%TO.P,U1,9,-*%
%TO.N,unconnected-(U1C---Pad9)*%
X68040000Y-40745000D03*
%TO.P,U1,10,+*%
%TO.N,unconnected-(U1C-+-Pad10)*%
X66770000Y-40745000D03*
%TO.P,U1,11,V-*%
%TO.N,GND*%
X65500000Y-40745000D03*
%TO.P,U1,12,+*%
%TO.N,unconnected-(U1D-+-Pad12)*%
X64230000Y-40745000D03*
%TO.P,U1,13,-*%
%TO.N,unconnected-(U1D---Pad13)*%
X62960000Y-40745000D03*
%TO.P,U1,14*%
%TO.N,unconnected-(U1-Pad14)*%
X61690000Y-40745000D03*
%TD*%
D17*
%TO.P,J1,1,Pin_1*%
%TO.N,V_LED_CONTROL*%
X69100000Y-67370000D03*
D18*
%TO.P,J1,2,Pin_2*%
%TO.N,+7VS*%
X66560000Y-67370000D03*
%TO.P,J1,3,Pin_3*%
%TO.N,+5V*%
X64020000Y-67370000D03*
%TO.P,J1,4,Pin_4*%
%TO.N,GND*%
X61480000Y-67370000D03*
%TD*%
D19*
%TO.N,+5V*%
X69088000Y-52832000D03*
X68707000Y-48260000D03*
X76327000Y-60452000D03*
X64135000Y-62103000D03*
X76200000Y-52705000D03*
%TO.N,V_LED_CONTROL*%
X69088000Y-59309000D03*
X74041000Y-58801000D03*
X60706000Y-56515000D03*
%TO.N,+7VS*%
X68834000Y-54610000D03*
%TO.N,GND*%
X61214000Y-61341000D03*
X54610000Y-61214000D03*
%TO.N,Net-(U1A-+)*%
X52324000Y-58420000D03*
X62357000Y-58547000D03*
X56515000Y-58293000D03*
%TO.N,Net-(D1-K)*%
X64135000Y-48514000D03*
X58166000Y-47498000D03*
%TO.N,Net-(R1-Pad1)*%
X58420000Y-49530000D03*
X61468000Y-49276000D03*
%TO.N,Net-(Q1-S)*%
X62865000Y-44069000D03*
X55499000Y-44196000D03*
%TO.N,GND*%
X54102000Y-53848000D03*
X59817000Y-42799000D03*
X59817000Y-53848000D03*
%TO.N,+5V*%
X65659000Y-48133000D03*
%TO.N,GND*%
X72898000Y-42926000D03*
X65659000Y-42799000D03*
%TD*%
D20*
%TO.N,+5V*%
X68707000Y-48260000D02*
X68707000Y-52451000D01*
X68707000Y-52451000D02*
X69088000Y-52832000D01*
X64020000Y-62218000D02*
X64135000Y-62103000D01*
X64020000Y-67370000D02*
X64020000Y-62218000D01*
X76327000Y-52832000D02*
X76200000Y-52705000D01*
X76327000Y-60452000D02*
X76327000Y-52832000D01*
%TO.N,V_LED_CONTROL*%
X73990000Y-56650000D02*
X73990000Y-58750000D01*
X73990000Y-58750000D02*
X74041000Y-58801000D01*
X69088000Y-59309000D02*
X69100000Y-59321000D01*
X69100000Y-59321000D02*
X69100000Y-67370000D01*
%TO.N,+7VS*%
X67110000Y-53450000D02*
X67110000Y-66820000D01*
X67110000Y-66820000D02*
X66560000Y-67370000D01*
%TO.N,V_LED_CONTROL*%
X60706000Y-56515000D02*
X59165000Y-56515000D01*
X59165000Y-56515000D02*
X58630000Y-55980000D01*
%TO.N,+7VS*%
X68834000Y-54610000D02*
X68270000Y-54610000D01*
X68270000Y-54610000D02*
X67110000Y-53450000D01*
%TO.N,GND*%
X61214000Y-61341000D02*
X61480000Y-61607000D01*
X54100000Y-55950000D02*
X54100000Y-60704000D01*
X54100000Y-60704000D02*
X54610000Y-61214000D01*
X61480000Y-61607000D02*
X61480000Y-67370000D01*
%TO.N,Net-(U1A-+)*%
X52100000Y-58196000D02*
X52324000Y-58420000D01*
X52100000Y-55950000D02*
X52100000Y-58196000D01*
X64230000Y-45695000D02*
X64230000Y-46768000D01*
X62738000Y-58166000D02*
X62357000Y-58547000D01*
X64230000Y-46768000D02*
X63373000Y-47625000D01*
X62738000Y-50165000D02*
X62738000Y-58166000D01*
X63373000Y-47625000D02*
X62738000Y-48260000D01*
X62738000Y-48260000D02*
X62738000Y-50165000D01*
X56515000Y-58293000D02*
X56515000Y-56095000D01*
X56515000Y-56095000D02*
X56630000Y-55980000D01*
%TO.N,Net-(D1-K)*%
X64310000Y-48689000D02*
X64310000Y-53450000D01*
X58114000Y-47550000D02*
X58166000Y-47498000D01*
X56140000Y-47550000D02*
X58114000Y-47550000D01*
X64135000Y-48514000D02*
X64310000Y-48689000D01*
%TO.N,Net-(R1-Pad1)*%
X58420000Y-49530000D02*
X58420000Y-51830000D01*
X61690000Y-45695000D02*
X61690000Y-49054000D01*
X61690000Y-49054000D02*
X61468000Y-49276000D01*
X58420000Y-51830000D02*
X58490000Y-51900000D01*
%TO.N,Net-(Q1-S)*%
X62865000Y-45600000D02*
X62960000Y-45695000D01*
X54265000Y-45430000D02*
X55499000Y-44196000D01*
X54265000Y-46600000D02*
X54265000Y-45430000D01*
X62865000Y-44069000D02*
X62865000Y-45600000D01*
%TO.N,Net-(Q1-G)*%
X54265000Y-48500000D02*
X54265000Y-49693000D01*
X54265000Y-49693000D02*
X54356000Y-49784000D01*
X54356000Y-49784000D02*
X56388000Y-49784000D01*
X56388000Y-49784000D02*
X56490000Y-49886000D01*
X56490000Y-49886000D02*
X56490000Y-51900000D01*
%TO.N,Net-(Q1-S)*%
X54265000Y-46600000D02*
X51825000Y-46600000D01*
X51825000Y-46600000D02*
X51816000Y-46609000D01*
X51816000Y-46609000D02*
X51816000Y-49530000D01*
X51816000Y-49530000D02*
X52080000Y-49794000D01*
X52080000Y-49794000D02*
X52080000Y-51880000D01*
%TO.N,GND*%
X54102000Y-53848000D02*
X54102000Y-55948000D01*
X54102000Y-55948000D02*
X54100000Y-55950000D01*
X59817000Y-42799000D02*
X59817000Y-43561000D01*
X59817000Y-43561000D02*
X59817000Y-53848000D01*
X54102000Y-53848000D02*
X54102000Y-51902000D01*
X54102000Y-51902000D02*
X54080000Y-51880000D01*
%TO.N,+5V*%
X65500000Y-47974000D02*
X65659000Y-48133000D01*
X65500000Y-45695000D02*
X65500000Y-47974000D01*
%TO.N,GND*%
X65500000Y-40745000D02*
X65500000Y-42640000D01*
X65500000Y-42640000D02*
X65659000Y-42799000D01*
X73990000Y-44018000D02*
X73990000Y-50650000D01*
X72898000Y-42926000D02*
X73990000Y-44018000D01*
%TD*%
M02*
