0.444834
0.41583
0.556017
0.42872
0.410945
0.419052
0.573742
0.459336
0.314264
0.41583
0.419052
0.419052
0.41583
0.422275
0.420663
0.457725
0.562463
0.433554
0.406111
0.417441
0.431943
0.44
0.425498
0.367439
0.409334
0.381941
0.438388
0.539904
0.417441
0.420663
0.36905
0.422275
0.398054
0.567297
0.556017
0.509288
0.420663
0.419052
0.215971
0.417441
0.41583
0.659194
0.430332
0.389997
0.425498
0.409334
0.410945
0.591467
0.517345
0.414218
0.419052
0.409334
0.35777
0.417441
0.431943
0.444834
0.417441
0.430332
0.435166
0.414218
0.477061
0.543126
0.420663
0.420663
0.414218
0.572131
0.419052
0.286871
0.433554
0.477061
0.41583
0.423886
0.502843
0.420663
0.565685
0.422275
0.420663
0.362605
0.576965
0.420663
0.435166
0.409334
0.541515
0.472227
0.420663
0.420663
0.422275
0.493174
0.420663
0.41583
0.589855
0.436777
0.528624
0.407722
0.419052
0.375495
0.417441
0.391609
0.422275
