%TF.GenerationSoftware,KiCad,Pcbnew,8.0.0-8.0.0-1~ubuntu22.04.1*%
%TF.CreationDate,2024-03-12T20:10:34-04:00*%
%TF.ProjectId,UV-Detector,55562d44-6574-4656-9374-6f722e6b6963,rev?*%
%TF.SameCoordinates,Original*%
%TF.FileFunction,Legend,Bot*%
%TF.FilePolarity,Positive*%
%FSLAX46Y46*%
G04 Gerber Fmt 4.6, Leading zero omitted, Abs format (unit mm)*
G04 Created by KiCad (PCBNEW 8.0.0-8.0.0-1~ubuntu22.04.1) date 2024-03-12 20:10:34*
%MOMM*%
%LPD*%
G01*
G04 APERTURE LIST*
%ADD10C,0.150000*%
G04 APERTURE END LIST*
D10*
X1463220Y-23069819D02*
X1463220Y-22069819D01*
X1463220Y-22069819D02*
X1129887Y-22784104D01*
X1129887Y-22784104D02*
X796554Y-22069819D01*
X796554Y-22069819D02*
X796554Y-23069819D01*
X367982Y-22165057D02*
X320363Y-22117438D01*
X320363Y-22117438D02*
X225125Y-22069819D01*
X225125Y-22069819D02*
X-12969Y-22069819D01*
X-12969Y-22069819D02*
X-108207Y-22117438D01*
X-108207Y-22117438D02*
X-155826Y-22165057D01*
X-155826Y-22165057D02*
X-203445Y-22260295D01*
X-203445Y-22260295D02*
X-203445Y-22355533D01*
X-203445Y-22355533D02*
X-155826Y-22498390D01*
X-155826Y-22498390D02*
X415601Y-23069819D01*
X415601Y-23069819D02*
X-203445Y-23069819D01*
X-632017Y-22974580D02*
X-679636Y-23022200D01*
X-679636Y-23022200D02*
X-632017Y-23069819D01*
X-632017Y-23069819D02*
X-584398Y-23022200D01*
X-584398Y-23022200D02*
X-632017Y-22974580D01*
X-632017Y-22974580D02*
X-632017Y-23069819D01*
X-1584397Y-22069819D02*
X-1108207Y-22069819D01*
X-1108207Y-22069819D02*
X-1060588Y-22546009D01*
X-1060588Y-22546009D02*
X-1108207Y-22498390D01*
X-1108207Y-22498390D02*
X-1203445Y-22450771D01*
X-1203445Y-22450771D02*
X-1441540Y-22450771D01*
X-1441540Y-22450771D02*
X-1536778Y-22498390D01*
X-1536778Y-22498390D02*
X-1584397Y-22546009D01*
X-1584397Y-22546009D02*
X-1632016Y-22641247D01*
X-1632016Y-22641247D02*
X-1632016Y-22879342D01*
X-1632016Y-22879342D02*
X-1584397Y-22974580D01*
X-1584397Y-22974580D02*
X-1536778Y-23022200D01*
X-1536778Y-23022200D02*
X-1441540Y-23069819D01*
X-1441540Y-23069819D02*
X-1203445Y-23069819D01*
X-1203445Y-23069819D02*
X-1108207Y-23022200D01*
X-1108207Y-23022200D02*
X-1060588Y-22974580D01*
X26563220Y-23069819D02*
X26563220Y-22069819D01*
X26563220Y-22069819D02*
X26229887Y-22784104D01*
X26229887Y-22784104D02*
X25896554Y-22069819D01*
X25896554Y-22069819D02*
X25896554Y-23069819D01*
X25467982Y-22165057D02*
X25420363Y-22117438D01*
X25420363Y-22117438D02*
X25325125Y-22069819D01*
X25325125Y-22069819D02*
X25087030Y-22069819D01*
X25087030Y-22069819D02*
X24991792Y-22117438D01*
X24991792Y-22117438D02*
X24944173Y-22165057D01*
X24944173Y-22165057D02*
X24896554Y-22260295D01*
X24896554Y-22260295D02*
X24896554Y-22355533D01*
X24896554Y-22355533D02*
X24944173Y-22498390D01*
X24944173Y-22498390D02*
X25515601Y-23069819D01*
X25515601Y-23069819D02*
X24896554Y-23069819D01*
X24467982Y-22974580D02*
X24420363Y-23022200D01*
X24420363Y-23022200D02*
X24467982Y-23069819D01*
X24467982Y-23069819D02*
X24515601Y-23022200D01*
X24515601Y-23022200D02*
X24467982Y-22974580D01*
X24467982Y-22974580D02*
X24467982Y-23069819D01*
X23515602Y-22069819D02*
X23991792Y-22069819D01*
X23991792Y-22069819D02*
X24039411Y-22546009D01*
X24039411Y-22546009D02*
X23991792Y-22498390D01*
X23991792Y-22498390D02*
X23896554Y-22450771D01*
X23896554Y-22450771D02*
X23658459Y-22450771D01*
X23658459Y-22450771D02*
X23563221Y-22498390D01*
X23563221Y-22498390D02*
X23515602Y-22546009D01*
X23515602Y-22546009D02*
X23467983Y-22641247D01*
X23467983Y-22641247D02*
X23467983Y-22879342D01*
X23467983Y-22879342D02*
X23515602Y-22974580D01*
X23515602Y-22974580D02*
X23563221Y-23022200D01*
X23563221Y-23022200D02*
X23658459Y-23069819D01*
X23658459Y-23069819D02*
X23896554Y-23069819D01*
X23896554Y-23069819D02*
X23991792Y-23022200D01*
X23991792Y-23022200D02*
X24039411Y-22974580D01*
X26563220Y-3169819D02*
X26563220Y-2169819D01*
X26563220Y-2169819D02*
X26229887Y-2884104D01*
X26229887Y-2884104D02*
X25896554Y-2169819D01*
X25896554Y-2169819D02*
X25896554Y-3169819D01*
X25467982Y-2265057D02*
X25420363Y-2217438D01*
X25420363Y-2217438D02*
X25325125Y-2169819D01*
X25325125Y-2169819D02*
X25087030Y-2169819D01*
X25087030Y-2169819D02*
X24991792Y-2217438D01*
X24991792Y-2217438D02*
X24944173Y-2265057D01*
X24944173Y-2265057D02*
X24896554Y-2360295D01*
X24896554Y-2360295D02*
X24896554Y-2455533D01*
X24896554Y-2455533D02*
X24944173Y-2598390D01*
X24944173Y-2598390D02*
X25515601Y-3169819D01*
X25515601Y-3169819D02*
X24896554Y-3169819D01*
X24467982Y-3074580D02*
X24420363Y-3122200D01*
X24420363Y-3122200D02*
X24467982Y-3169819D01*
X24467982Y-3169819D02*
X24515601Y-3122200D01*
X24515601Y-3122200D02*
X24467982Y-3074580D01*
X24467982Y-3074580D02*
X24467982Y-3169819D01*
X23515602Y-2169819D02*
X23991792Y-2169819D01*
X23991792Y-2169819D02*
X24039411Y-2646009D01*
X24039411Y-2646009D02*
X23991792Y-2598390D01*
X23991792Y-2598390D02*
X23896554Y-2550771D01*
X23896554Y-2550771D02*
X23658459Y-2550771D01*
X23658459Y-2550771D02*
X23563221Y-2598390D01*
X23563221Y-2598390D02*
X23515602Y-2646009D01*
X23515602Y-2646009D02*
X23467983Y-2741247D01*
X23467983Y-2741247D02*
X23467983Y-2979342D01*
X23467983Y-2979342D02*
X23515602Y-3074580D01*
X23515602Y-3074580D02*
X23563221Y-3122200D01*
X23563221Y-3122200D02*
X23658459Y-3169819D01*
X23658459Y-3169819D02*
X23896554Y-3169819D01*
X23896554Y-3169819D02*
X23991792Y-3122200D01*
X23991792Y-3122200D02*
X24039411Y-3074580D01*
X1848375Y-3158472D02*
X1848375Y-2158472D01*
X1848375Y-2158472D02*
X1515042Y-2872757D01*
X1515042Y-2872757D02*
X1181709Y-2158472D01*
X1181709Y-2158472D02*
X1181709Y-3158472D01*
X753137Y-2253710D02*
X705518Y-2206091D01*
X705518Y-2206091D02*
X610280Y-2158472D01*
X610280Y-2158472D02*
X372185Y-2158472D01*
X372185Y-2158472D02*
X276947Y-2206091D01*
X276947Y-2206091D02*
X229328Y-2253710D01*
X229328Y-2253710D02*
X181709Y-2348948D01*
X181709Y-2348948D02*
X181709Y-2444186D01*
X181709Y-2444186D02*
X229328Y-2587043D01*
X229328Y-2587043D02*
X800756Y-3158472D01*
X800756Y-3158472D02*
X181709Y-3158472D01*
X-246862Y-3063233D02*
X-294481Y-3110853D01*
X-294481Y-3110853D02*
X-246862Y-3158472D01*
X-246862Y-3158472D02*
X-199243Y-3110853D01*
X-199243Y-3110853D02*
X-246862Y-3063233D01*
X-246862Y-3063233D02*
X-246862Y-3158472D01*
X-1199242Y-2158472D02*
X-723052Y-2158472D01*
X-723052Y-2158472D02*
X-675433Y-2634662D01*
X-675433Y-2634662D02*
X-723052Y-2587043D01*
X-723052Y-2587043D02*
X-818290Y-2539424D01*
X-818290Y-2539424D02*
X-1056385Y-2539424D01*
X-1056385Y-2539424D02*
X-1151623Y-2587043D01*
X-1151623Y-2587043D02*
X-1199242Y-2634662D01*
X-1199242Y-2634662D02*
X-1246861Y-2729900D01*
X-1246861Y-2729900D02*
X-1246861Y-2967995D01*
X-1246861Y-2967995D02*
X-1199242Y-3063233D01*
X-1199242Y-3063233D02*
X-1151623Y-3110853D01*
X-1151623Y-3110853D02*
X-1056385Y-3158472D01*
X-1056385Y-3158472D02*
X-818290Y-3158472D01*
X-818290Y-3158472D02*
X-723052Y-3110853D01*
X-723052Y-3110853D02*
X-675433Y-3063233D01*
M02*
