M48
; DRILL file {KiCad 8.0.0-8.0.0-1~ubuntu22.04.1} date 2024-03-12T20:10:37-0400
; FORMAT={-:-/ absolute / inch / decimal}
; #@! TF.CreationDate,2024-03-12T20:10:37-04:00
; #@! TF.GenerationSoftware,Kicad,Pcbnew,8.0.0-8.0.0-1~ubuntu22.04.1
; #@! TF.FileFunction,MixedPlating,1,2
FMAT,2
INCH
; #@! TA.AperFunction,Plated,PTH,ViaDrill
T1C0.0157
; #@! TA.AperFunction,Plated,PTH,ComponentDrill
T2C0.0276
; #@! TA.AperFunction,Plated,PTH,ComponentDrill
T3C0.0394
; #@! TA.AperFunction,NonPlated,NPTH,ComponentDrill
T4C0.1063
%
G90
G05
T1
X-0.0689Y-0.4035
X-0.0689Y-0.5315
X0.0886Y-0.3248
X0.0886Y-0.4844
X0.2657Y-0.1772
X0.2657Y-0.315
X0.2953Y-0.4035
X0.2953Y-0.6693
X0.3051Y0.0492
X0.3209Y-0.7087
X0.3445Y-0.315
X0.3543Y-0.4331
X0.3543Y-0.4823
X0.3937Y-0.0295
X0.3937Y-0.6299
X0.4134Y-0.7087
X0.4421Y-0.0795
X0.4429Y-0.0295
X0.4626Y-0.6693
X0.4626Y-0.876
X0.4921Y-0.2165
X0.4921Y-0.374
X0.5413Y-0.2461
X0.5421Y-0.0295
X0.5906Y-0.0295
X0.5906Y-0.315
X0.6004Y-0.374
X0.6004Y-0.6693
X0.6398Y-0.2264
X0.6693Y-0.8957
X0.689Y-0.4331
X0.689Y-0.6102
X0.7283Y-0.0787
X0.7283Y-0.5413
X0.7776Y-0.4173
X0.7972Y-0.3504
X0.8366Y-0.1063
X0.8366Y-0.2756
X0.8366Y-0.315
X0.8366Y-0.3839
X0.9154Y-0.5374
X0.9154Y-0.7441
X1.0728Y-0.4232
X1.0728Y-0.6102
T2
X0.4421Y-0.5421
X0.4921Y-0.4921
X0.4921Y-0.5921
T3
X0.3169Y-1.0276
X0.4169Y-1.0276
X0.5169Y-1.0276
X0.6169Y-1.0276
X0.7169Y-1.0276
T4
X0.0Y0.0
X0.0Y-0.9843
X0.9843Y0.0
X0.9843Y-0.9843
M30
