"Id";"Designator";"Footprint";"Quantity";"Designation";"Supplier and ref";
1;"H1,H4,H3,H2";"MountingHole_3.2mm_M3";4;"MountingHole";;;
2;"R4";"R_0805_2012Metric_Pad1.20x1.40mm_HandSolder";1;"24.9K";;;
3;"R2";"R_0805_2012Metric_Pad1.20x1.40mm_HandSolder";1;"24.9";;;
4;"FB1";"L_0603_1608Metric";1;"FerriteBead";;;
5;"C2";"C_0805_2012Metric";1;"10uF";;;
6;"TP2,TP1";"TestPoint_THTPad_D2.0mm_Drill1.0mm";2;"TestPoint";;;
7;"Q1";"SOT-23";1;"2N7000";;;
8;"R3";"R_0805_2012Metric_Pad1.20x1.40mm_HandSolder";1;"100K";;;
9;"J1";"PinHeader_1x05_P2.54mm_Horizontal";1;"Conn_01x05_Male";;;
10;"R1";"R_0805_2012Metric_Pad1.20x1.40mm_HandSolder";1;"49.9";;;
11;"U1";"SOIC-14_3.9x8.7mm_P1.27mm";1;"OPA4340UA";;;
12;"C3,C1";"C_0805_2012Metric";2;"0.1uF";;;
13;"D1";"LED_IN-C35PPCTGU0";1;"UV LED";;;
