%TF.GenerationSoftware,KiCad,Pcbnew,8.0.0-8.0.0-1~ubuntu22.04.1*%
%TF.CreationDate,2024-08-19T21:34:59-04:00*%
%TF.ProjectId,UV-LED-source,55562d4c-4544-42d7-936f-757263652e6b,rev?*%
%TF.SameCoordinates,Original*%
%TF.FileFunction,Soldermask,Bot*%
%TF.FilePolarity,Negative*%
%FSLAX46Y46*%
G04 Gerber Fmt 4.6, Leading zero omitted, Abs format (unit mm)*
G04 Created by KiCad (PCBNEW 8.0.0-8.0.0-1~ubuntu22.04.1) date 2024-08-19 21:34:59*
%MOMM*%
%LPD*%
G01*
G04 APERTURE LIST*
G04 Aperture macros list*
%AMRoundRect*
0 Rectangle with rounded corners*
0 $1 Rounding radius*
0 $2 $3 $4 $5 $6 $7 $8 $9 X,Y pos of 4 corners*
0 Add a 4 corners polygon primitive as box body*
4,1,4,$2,$3,$4,$5,$6,$7,$8,$9,$2,$3,0*
0 Add four circle primitives for the rounded corners*
1,1,$1+$1,$2,$3*
1,1,$1+$1,$4,$5*
1,1,$1+$1,$6,$7*
1,1,$1+$1,$8,$9*
0 Add four rect primitives between the rounded corners*
20,1,$1+$1,$2,$3,$4,$5,0*
20,1,$1+$1,$4,$5,$6,$7,0*
20,1,$1+$1,$6,$7,$8,$9,0*
20,1,$1+$1,$8,$9,$2,$3,0*%
G04 Aperture macros list end*
%ADD10C,3.200000*%
%ADD11C,2.000000*%
%ADD12R,1.700000X1.700000*%
%ADD13O,1.700000X1.700000*%
%ADD14R,0.450000X1.000000*%
%ADD15RoundRect,0.108696X-0.141304X-1.541304X0.141304X-1.541304X0.141304X1.541304X-0.141304X1.541304X0*%
%ADD16R,1.400000X3.300000*%
G04 APERTURE END LIST*
D10*
%TO.C,H1*%
X4000000Y-4000000D03*
%TD*%
D11*
%TO.C,TP2*%
X11800000Y-17100000D03*
%TD*%
D10*
%TO.C,H4*%
X30000000Y-30000000D03*
%TD*%
%TO.C,H3*%
X4000000Y-30000000D03*
%TD*%
D11*
%TO.C,TP1*%
X21550000Y-17050000D03*
%TD*%
D10*
%TO.C,H2*%
X30000000Y-4000000D03*
%TD*%
D12*
%TO.C,J1*%
X20820000Y-32000000D03*
D13*
X18280000Y-32000000D03*
X15740000Y-32000000D03*
X13200000Y-32000000D03*
X10660000Y-32000000D03*
%TD*%
D14*
%TO.C,D1*%
X15100000Y-17000000D03*
D15*
X15550000Y-17000000D03*
X18350000Y-17000000D03*
D14*
X18800000Y-17000000D03*
D16*
X16950000Y-17000000D03*
%TD*%
M02*
