(kicad_pcb
	(version 20240108)
	(generator "pcbnew")
	(generator_version "8.0")
	(general
		(thickness 1.6)
		(legacy_teardrops no)
	)
	(paper "A4")
	(layers
		(0 "F.Cu" signal)
		(31 "B.Cu" signal)
		(32 "B.Adhes" user "B.Adhesive")
		(33 "F.Adhes" user "F.Adhesive")
		(34 "B.Paste" user)
		(35 "F.Paste" user)
		(36 "B.SilkS" user "B.Silkscreen")
		(37 "F.SilkS" user "F.Silkscreen")
		(38 "B.Mask" user)
		(39 "F.Mask" user)
		(40 "Dwgs.User" user "User.Drawings")
		(41 "Cmts.User" user "User.Comments")
		(42 "Eco1.User" user "User.Eco1")
		(43 "Eco2.User" user "User.Eco2")
		(44 "Edge.Cuts" user)
		(45 "Margin" user)
		(46 "B.CrtYd" user "B.Courtyard")
		(47 "F.CrtYd" user "F.Courtyard")
		(48 "B.Fab" user)
		(49 "F.Fab" user)
		(50 "User.1" user)
		(51 "User.2" user)
		(52 "User.3" user)
		(53 "User.4" user)
		(54 "User.5" user)
		(55 "User.6" user)
		(56 "User.7" user)
		(57 "User.8" user)
		(58 "User.9" user)
	)
	(setup
		(pad_to_mask_clearance 0)
		(allow_soldermask_bridges_in_footprints no)
		(pcbplotparams
			(layerselection 0x00010fc_ffffffff)
			(plot_on_all_layers_selection 0x0000000_00000000)
			(disableapertmacros no)
			(usegerberextensions no)
			(usegerberattributes yes)
			(usegerberadvancedattributes yes)
			(creategerberjobfile yes)
			(dashed_line_dash_ratio 12.000000)
			(dashed_line_gap_ratio 3.000000)
			(svgprecision 4)
			(plotframeref no)
			(viasonmask no)
			(mode 1)
			(useauxorigin no)
			(hpglpennumber 1)
			(hpglpenspeed 20)
			(hpglpendiameter 15.000000)
			(pdf_front_fp_property_popups yes)
			(pdf_back_fp_property_popups yes)
			(dxfpolygonmode yes)
			(dxfimperialunits yes)
			(dxfusepcbnewfont yes)
			(psnegative no)
			(psa4output no)
			(plotreference yes)
			(plotvalue yes)
			(plotfptext yes)
			(plotinvisibletext no)
			(sketchpadsonfab no)
			(subtractmaskfromsilk no)
			(outputformat 1)
			(mirror no)
			(drillshape 0)
			(scaleselection 1)
			(outputdirectory "gerbers/")
		)
	)
	(net 0 "")
	(gr_line
		(start 115 104.12)
		(end 129.4 104.12)
		(stroke
			(width 0)
			(type default)
		)
		(layer "Edge.Cuts")
		(uuid "02a36c1f-7ec2-4453-a146-d169a3c0a07f")
	)
	(gr_line
		(start 126 87.36001)
		(end 127.7115 87.36001)
		(stroke
			(width 0)
			(type default)
		)
		(layer "Edge.Cuts")
		(uuid "0cae4f8d-3d8e-47df-9098-e1ac93ced3bb")
	)
	(gr_line
		(start 115 106.12)
		(end 115 104.12)
		(stroke
			(width 0)
			(type default)
		)
		(layer "Edge.Cuts")
		(uuid "0d24216b-ec34-498d-8716-9ca1cf681bcc")
	)
	(gr_line
		(start 103 79.4)
		(end 88.6 79.4)
		(stroke
			(width 0)
			(type default)
		)
		(layer "Edge.Cuts")
		(uuid "2157ebbe-c886-430c-aaa3-18a0c9b2ac7b")
	)
	(gr_line
		(start 129.4 79.4)
		(end 115 79.4)
		(stroke
			(width 0)
			(type default)
		)
		(layer "Edge.Cuts")
		(uuid "2c4c036d-6c6f-4584-8cfd-7287ffde77c8")
	)
	(gr_line
		(start 103 104.12)
		(end 103 106.12)
		(stroke
			(width 0)
			(type default)
		)
		(layer "Edge.Cuts")
		(uuid "2c67a834-701b-47cd-9b48-e3228cf8b46d")
	)
	(gr_line
		(start 100.9015 87.36001)
		(end 100.9015 95.76)
		(stroke
			(width 0)
			(type default)
		)
		(layer "Edge.Cuts")
		(uuid "310c1614-64ea-4402-b095-2c72cc4d22fe")
	)
	(gr_line
		(start 127.7115 87.36001)
		(end 127.7115 95.76)
		(stroke
			(width 0)
			(type default)
		)
		(layer "Edge.Cuts")
		(uuid "36903027-2c07-4fc5-b616-5607c8688507")
	)
	(gr_line
		(start 129.4 104.12)
		(end 129.4 79.4)
		(stroke
			(width 0)
			(type default)
		)
		(layer "Edge.Cuts")
		(uuid "3900f981-0235-43c4-aefc-174e2a84b2e2")
	)
	(gr_line
		(start 90.23 87.36001)
		(end 91.9415 87.36001)
		(stroke
			(width 0)
			(type default)
		)
		(layer "Edge.Cuts")
		(uuid "3e8ee11a-3f2e-4dc7-b2fb-86980fd619a7")
	)
	(gr_line
		(start 115.54 95.76)
		(end 115.54 87.36001)
		(stroke
			(width 0)
			(type default)
		)
		(layer "Edge.Cuts")
		(uuid "447d3b52-a3c4-4c30-917b-5852560400b1")
	)
	(gr_line
		(start 88.6 79.4)
		(end 88.6 104.12)
		(stroke
			(width 0)
			(type default)
		)
		(layer "Edge.Cuts")
		(uuid "514a9e00-928f-44ef-b8d6-efacdb9669ab")
	)
	(gr_line
		(start 90.23 95.76)
		(end 90.23 87.36001)
		(stroke
			(width 0)
			(type default)
		)
		(layer "Edge.Cuts")
		(uuid "5537021a-80ca-4844-99f3-5b2ce572752a")
	)
	(gr_line
		(start 91.9415 87.36001)
		(end 91.9415 95.76)
		(stroke
			(width 0)
			(type default)
		)
		(layer "Edge.Cuts")
		(uuid "5f88acdc-8b71-4863-a415-83ba968ef0f1")
	)
	(gr_line
		(start 115 79.4)
		(end 115 77.4)
		(stroke
			(width 0)
			(type default)
		)
		(layer "Edge.Cuts")
		(uuid "6927ebd6-2cce-4ed0-8826-f4917491a6d4")
	)
	(gr_line
		(start 88.6 104.12)
		(end 103 104.12)
		(stroke
			(width 0)
			(type default)
		)
		(layer "Edge.Cuts")
		(uuid "7b0f1551-780b-4fef-b940-7a0b83de4b96")
	)
	(gr_line
		(start 117.2515 95.76)
		(end 115.54 95.76)
		(stroke
			(width 0)
			(type default)
		)
		(layer "Edge.Cuts")
		(uuid "88e162fe-b8ef-4fcb-8a48-2ef6dbac1394")
	)
	(gr_line
		(start 117.2515 87.36001)
		(end 117.2515 95.76)
		(stroke
			(width 0)
			(type default)
		)
		(layer "Edge.Cuts")
		(uuid "8cc1719b-ef64-446c-b1f8-0439c829acef")
	)
	(gr_line
		(start 100.9015 95.76)
		(end 99.19 95.76)
		(stroke
			(width 0)
			(type default)
		)
		(layer "Edge.Cuts")
		(uuid "9528bd8f-07be-47a4-96a3-74adf1acdcf8")
	)
	(gr_line
		(start 126 95.76)
		(end 126 87.36001)
		(stroke
			(width 0)
			(type default)
		)
		(layer "Edge.Cuts")
		(uuid "959f04f7-cc75-4137-9400-803ed10fc24f")
	)
	(gr_line
		(start 99.19 95.76)
		(end 99.19 87.36001)
		(stroke
			(width 0)
			(type default)
		)
		(layer "Edge.Cuts")
		(uuid "96a54755-6c4a-4727-bb02-9b5cf6134194")
	)
	(gr_line
		(start 103 106.12)
		(end 115 106.12)
		(stroke
			(width 0)
			(type default)
		)
		(layer "Edge.Cuts")
		(uuid "a5633b2b-f4b3-4d12-bbbb-69152b5b8161")
	)
	(gr_line
		(start 115 77.4)
		(end 103 77.4)
		(stroke
			(width 0)
			(type default)
		)
		(layer "Edge.Cuts")
		(uuid "b604c3a3-3ee9-497c-bf2e-c7a1307b0c14")
	)
	(gr_line
		(start 91.9415 95.76)
		(end 90.23 95.76)
		(stroke
			(width 0)
			(type default)
		)
		(layer "Edge.Cuts")
		(uuid "bbfe84a8-08ec-45ce-bd45-cb585e35d1bb")
	)
	(gr_line
		(start 115.54 87.36001)
		(end 117.2515 87.36001)
		(stroke
			(width 0)
			(type default)
		)
		(layer "Edge.Cuts")
		(uuid "ea5bfde6-2265-4b84-a855-c053b6dce893")
	)
	(gr_line
		(start 103 77.4)
		(end 103 79.4)
		(stroke
			(width 0)
			(type default)
		)
		(layer "Edge.Cuts")
		(uuid "f39c7ec3-002d-4af2-8e50-558b26216301")
	)
	(gr_line
		(start 127.7115 95.76)
		(end 126 95.76)
		(stroke
			(width 0)
			(type default)
		)
		(layer "Edge.Cuts")
		(uuid "fae16261-fb1f-4a3c-b44d-8bb25ff70696")
	)
	(gr_line
		(start 99.19 87.36001)
		(end 100.9015 87.36001)
		(stroke
			(width 0)
			(type default)
		)
		(layer "Edge.Cuts")
		(uuid "faebaa1c-039b-4d2e-bc35-0905b419df3c")
	)
	(zone
		(net 0)
		(net_name "")
		(layer "F.Cu")
		(uuid "55c8c894-766f-4453-91bb-ab38b74b8322")
		(hatch edge 0.5)
		(connect_pads
			(clearance 0.5)
		)
		(min_thickness 0.25)
		(filled_areas_thickness no)
		(fill yes
			(thermal_gap 0.5)
			(thermal_bridge_width 0.5)
			(island_removal_mode 1)
			(island_area_min 10)
		)
		(polygon
			(pts
				(xy 129 103.5) (xy 114.25 103.5) (xy 114.25 105.5) (xy 103.75 105.5) (xy 103.75 105.5) (xy 103.75 103.5)
				(xy 89.25 103.5) (xy 89.25 80) (xy 89.25 80) (xy 103.75 80) (xy 103.75 78) (xy 114 78) (xy 114 80.25)
				(xy 129 80.25)
			)
		)
		(filled_polygon
			(layer "F.Cu")
			(island)
			(pts
				(xy 113.943039 78.019685) (xy 113.988794 78.072489) (xy 114 78.124) (xy 114 80.25) (xy 128.7755 80.25)
				(xy 128.842539 80.269685) (xy 128.888294 80.322489) (xy 128.8995 80.374) (xy 128.8995 103.376) (xy 128.879815 103.443039)
				(xy 128.827011 103.488794) (xy 128.7755 103.5) (xy 114.25 103.5) (xy 114.25 105.376) (xy 114.230315 105.443039)
				(xy 114.177511 105.488794) (xy 114.126 105.5) (xy 103.874 105.5) (xy 103.806961 105.480315) (xy 103.761206 105.427511)
				(xy 103.75 105.376) (xy 103.75 103.5) (xy 89.374 103.5) (xy 89.306961 103.480315) (xy 89.261206 103.427511)
				(xy 89.25 103.376) (xy 89.25 95.825891) (xy 89.7295 95.825891) (xy 89.763608 95.953187) (xy 89.796554 96.01025)
				(xy 89.8295 96.067314) (xy 89.922686 96.1605) (xy 90.036814 96.226392) (xy 90.164108 96.2605) (xy 90.16411 96.2605)
				(xy 92.00739 96.2605) (xy 92.007392 96.2605) (xy 92.134686 96.226392) (xy 92.248814 96.1605) (xy 92.342 96.067314)
				(xy 92.407892 95.953186) (xy 92.442 95.825892) (xy 92.442 95.825891) (xy 98.6895 95.825891) (xy 98.723608 95.953187)
				(xy 98.756554 96.01025) (xy 98.7895 96.067314) (xy 98.882686 96.1605) (xy 98.996814 96.226392) (xy 99.124108 96.2605)
				(xy 99.12411 96.2605) (xy 100.96739 96.2605) (xy 100.967392 96.2605) (xy 101.094686 96.226392) (xy 101.208814 96.1605)
				(xy 101.302 96.067314) (xy 101.367892 95.953186) (xy 101.402 95.825892) (xy 101.402 95.825891) (xy 115.0395 95.825891)
				(xy 115.073608 95.953187) (xy 115.106554 96.01025) (xy 115.1395 96.067314) (xy 115.232686 96.1605)
				(xy 115.346814 96.226392) (xy 115.474108 96.2605) (xy 115.47411 96.2605) (xy 117.31739 96.2605)
				(xy 117.317392 96.2605) (xy 117.444686 96.226392) (xy 117.558814 96.1605) (xy 117.652 96.067314)
				(xy 117.717892 95.953186) (xy 117.752 95.825892) (xy 117.752 95.825891) (xy 125.4995 95.825891)
				(xy 125.533608 95.953187) (xy 125.566554 96.01025) (xy 125.5995 96.067314) (xy 125.692686 96.1605)
				(xy 125.806814 96.226392) (xy 125.934108 96.2605) (xy 125.93411 96.2605) (xy 127.77739 96.2605)
				(xy 127.777392 96.2605) (xy 127.904686 96.226392) (xy 128.018814 96.1605) (xy 128.112 96.067314)
				(xy 128.177892 95.953186) (xy 128.212 95.825892) (xy 128.212 87.294118) (xy 128.177892 87.166824)
				(xy 128.112 87.052696) (xy 128.018814 86.95951) (xy 127.96175 86.926564) (xy 127.904687 86.893618)
				(xy 127.841039 86.876564) (xy 127.777392 86.85951) (xy 126.065892 86.85951) (xy 125.934108 86.85951)
				(xy 125.806812 86.893618) (xy 125.692686 86.95951) (xy 125.692683 86.959512) (xy 125.599502 87.052693)
				(xy 125.5995 87.052696) (xy 125.533608 87.166822) (xy 125.4995 87.294118) (xy 125.4995 95.825891)
				(xy 117.752 95.825891) (xy 117.752 87.294118) (xy 117.717892 87.166824) (xy 117.652 87.052696) (xy 117.558814 86.95951)
				(xy 117.50175 86.926564) (xy 117.444687 86.893618) (xy 117.381039 86.876564) (xy 117.317392 86.85951)
				(xy 115.605892 86.85951) (xy 115.474108 86.85951) (xy 115.346812 86.893618) (xy 115.232686 86.95951)
				(xy 115.232683 86.959512) (xy 115.139502 87.052693) (xy 115.1395 87.052696) (xy 115.073608 87.166822)
				(xy 115.0395 87.294118) (xy 115.0395 95.825891) (xy 101.402 95.825891) (xy 101.402 87.294118) (xy 101.367892 87.166824)
				(xy 101.302 87.052696) (xy 101.208814 86.95951) (xy 101.15175 86.926564) (xy 101.094687 86.893618)
				(xy 101.031039 86.876564) (xy 100.967392 86.85951) (xy 99.255892 86.85951) (xy 99.124108 86.85951)
				(xy 98.996812 86.893618) (xy 98.882686 86.95951) (xy 98.882683 86.959512) (xy 98.789502 87.052693)
				(xy 98.7895 87.052696) (xy 98.723608 87.166822) (xy 98.6895 87.294118) (xy 98.6895 95.825891) (xy 92.442 95.825891)
				(xy 92.442 87.294118) (xy 92.407892 87.166824) (xy 92.342 87.052696) (xy 92.248814 86.95951) (xy 92.19175 86.926564)
				(xy 92.134687 86.893618) (xy 92.071039 86.876564) (xy 92.007392 86.85951) (xy 90.295892 86.85951)
				(xy 90.164108 86.85951) (xy 90.036812 86.893618) (xy 89.922686 86.95951) (xy 89.922683 86.959512)
				(xy 89.829502 87.052693) (xy 89.8295 87.052696) (xy 89.763608 87.166822) (xy 89.7295 87.294118)
				(xy 89.7295 95.825891) (xy 89.25 95.825891) (xy 89.25 80.124) (xy 89.269685 80.056961) (xy 89.322489 80.011206)
				(xy 89.374 80) (xy 103.75 80) (xy 103.75 78.124) (xy 103.769685 78.056961) (xy 103.822489 78.011206)
				(xy 103.874 78) (xy 113.876 78)
			)
		)
	)
	(zone
		(net 0)
		(net_name "")
		(layer "B.Cu")
		(uuid "59f80f26-bcd1-4569-8083-9b238acea0db")
		(hatch edge 0.5)
		(priority 1)
		(connect_pads
			(clearance 0.5)
		)
		(min_thickness 0.25)
		(filled_areas_thickness no)
		(fill yes
			(thermal_gap 0.5)
			(thermal_bridge_width 0.5)
			(island_removal_mode 1)
			(island_area_min 10)
		)
		(polygon
			(pts
				(xy 129 80.25) (xy 114 80.25) (xy 114 78) (xy 103.75 78) (xy 103.75 80) (xy 89.25 80) (xy 89.25 103.5)
				(xy 103.75 103.5) (xy 103.75 105.5) (xy 114.25 105.5) (xy 114.25 103.5) (xy 129 103.5)
			)
		)
		(filled_polygon
			(layer "B.Cu")
			(island)
			(pts
				(xy 113.943039 78.019685) (xy 113.988794 78.072489) (xy 114 78.124) (xy 114 80.25) (xy 128.7755 80.25)
				(xy 128.842539 80.269685) (xy 128.888294 80.322489) (xy 128.8995 80.374) (xy 128.8995 103.376) (xy 128.879815 103.443039)
				(xy 128.827011 103.488794) (xy 128.7755 103.5) (xy 114.25 103.5) (xy 114.25 105.376) (xy 114.230315 105.443039)
				(xy 114.177511 105.488794) (xy 114.126 105.5) (xy 103.874 105.5) (xy 103.806961 105.480315) (xy 103.761206 105.427511)
				(xy 103.75 105.376) (xy 103.75 103.5) (xy 89.374 103.5) (xy 89.306961 103.480315) (xy 89.261206 103.427511)
				(xy 89.25 103.376) (xy 89.25 95.825891) (xy 89.7295 95.825891) (xy 89.763608 95.953187) (xy 89.796554 96.01025)
				(xy 89.8295 96.067314) (xy 89.922686 96.1605) (xy 90.036814 96.226392) (xy 90.164108 96.2605) (xy 90.16411 96.2605)
				(xy 92.00739 96.2605) (xy 92.007392 96.2605) (xy 92.134686 96.226392) (xy 92.248814 96.1605) (xy 92.342 96.067314)
				(xy 92.407892 95.953186) (xy 92.442 95.825892) (xy 92.442 95.825891) (xy 98.6895 95.825891) (xy 98.723608 95.953187)
				(xy 98.756554 96.01025) (xy 98.7895 96.067314) (xy 98.882686 96.1605) (xy 98.996814 96.226392) (xy 99.124108 96.2605)
				(xy 99.12411 96.2605) (xy 100.96739 96.2605) (xy 100.967392 96.2605) (xy 101.094686 96.226392) (xy 101.208814 96.1605)
				(xy 101.302 96.067314) (xy 101.367892 95.953186) (xy 101.402 95.825892) (xy 101.402 95.825891) (xy 115.0395 95.825891)
				(xy 115.073608 95.953187) (xy 115.106554 96.01025) (xy 115.1395 96.067314) (xy 115.232686 96.1605)
				(xy 115.346814 96.226392) (xy 115.474108 96.2605) (xy 115.47411 96.2605) (xy 117.31739 96.2605)
				(xy 117.317392 96.2605) (xy 117.444686 96.226392) (xy 117.558814 96.1605) (xy 117.652 96.067314)
				(xy 117.717892 95.953186) (xy 117.752 95.825892) (xy 117.752 95.825891) (xy 125.4995 95.825891)
				(xy 125.533608 95.953187) (xy 125.566554 96.01025) (xy 125.5995 96.067314) (xy 125.692686 96.1605)
				(xy 125.806814 96.226392) (xy 125.934108 96.2605) (xy 125.93411 96.2605) (xy 127.77739 96.2605)
				(xy 127.777392 96.2605) (xy 127.904686 96.226392) (xy 128.018814 96.1605) (xy 128.112 96.067314)
				(xy 128.177892 95.953186) (xy 128.212 95.825892) (xy 128.212 87.294118) (xy 128.177892 87.166824)
				(xy 128.112 87.052696) (xy 128.018814 86.95951) (xy 127.96175 86.926564) (xy 127.904687 86.893618)
				(xy 127.841039 86.876564) (xy 127.777392 86.85951) (xy 126.065892 86.85951) (xy 125.934108 86.85951)
				(xy 125.806812 86.893618) (xy 125.692686 86.95951) (xy 125.692683 86.959512) (xy 125.599502 87.052693)
				(xy 125.5995 87.052696) (xy 125.533608 87.166822) (xy 125.4995 87.294118) (xy 125.4995 95.825891)
				(xy 117.752 95.825891) (xy 117.752 87.294118) (xy 117.717892 87.166824) (xy 117.652 87.052696) (xy 117.558814 86.95951)
				(xy 117.50175 86.926564) (xy 117.444687 86.893618) (xy 117.381039 86.876564) (xy 117.317392 86.85951)
				(xy 115.605892 86.85951) (xy 115.474108 86.85951) (xy 115.346812 86.893618) (xy 115.232686 86.95951)
				(xy 115.232683 86.959512) (xy 115.139502 87.052693) (xy 115.1395 87.052696) (xy 115.073608 87.166822)
				(xy 115.0395 87.294118) (xy 115.0395 95.825891) (xy 101.402 95.825891) (xy 101.402 87.294118) (xy 101.367892 87.166824)
				(xy 101.302 87.052696) (xy 101.208814 86.95951) (xy 101.15175 86.926564) (xy 101.094687 86.893618)
				(xy 101.031039 86.876564) (xy 100.967392 86.85951) (xy 99.255892 86.85951) (xy 99.124108 86.85951)
				(xy 98.996812 86.893618) (xy 98.882686 86.95951) (xy 98.882683 86.959512) (xy 98.789502 87.052693)
				(xy 98.7895 87.052696) (xy 98.723608 87.166822) (xy 98.6895 87.294118) (xy 98.6895 95.825891) (xy 92.442 95.825891)
				(xy 92.442 87.294118) (xy 92.407892 87.166824) (xy 92.342 87.052696) (xy 92.248814 86.95951) (xy 92.19175 86.926564)
				(xy 92.134687 86.893618) (xy 92.071039 86.876564) (xy 92.007392 86.85951) (xy 90.295892 86.85951)
				(xy 90.164108 86.85951) (xy 90.036812 86.893618) (xy 89.922686 86.95951) (xy 89.922683 86.959512)
				(xy 89.829502 87.052693) (xy 89.8295 87.052696) (xy 89.763608 87.166822) (xy 89.7295 87.294118)
				(xy 89.7295 95.825891) (xy 89.25 95.825891) (xy 89.25 80.124) (xy 89.269685 80.056961) (xy 89.322489 80.011206)
				(xy 89.374 80) (xy 103.75 80) (xy 103.75 78.124) (xy 103.769685 78.056961) (xy 103.822489 78.011206)
				(xy 103.874 78) (xy 113.876 78)
			)
		)
	)
	(group ""
		(uuid "7aa58883-cc90-4e3a-b196-fe4721cd4f6e")
		(members "02a36c1f-7ec2-4453-a146-d169a3c0a07f" "0cae4f8d-3d8e-47df-9098-e1ac93ced3bb"
			"0d24216b-ec34-498d-8716-9ca1cf681bcc" "2157ebbe-c886-430c-aaa3-18a0c9b2ac7b"
			"2c4c036d-6c6f-4584-8cfd-7287ffde77c8" "2c67a834-701b-47cd-9b48-e3228cf8b46d"
			"310c1614-64ea-4402-b095-2c72cc4d22fe" "36903027-2c07-4fc5-b616-5607c8688507"
			"3900f981-0235-43c4-aefc-174e2a84b2e2" "3e8ee11a-3f2e-4dc7-b2fb-86980fd619a7"
			"447d3b52-a3c4-4c30-917b-5852560400b1" "514a9e00-928f-44ef-b8d6-efacdb9669ab"
			"5537021a-80ca-4844-99f3-5b2ce572752a" "5f88acdc-8b71-4863-a415-83ba968ef0f1"
			"6927ebd6-2cce-4ed0-8826-f4917491a6d4" "7b0f1551-780b-4fef-b940-7a0b83de4b96"
			"88e162fe-b8ef-4fcb-8a48-2ef6dbac1394" "8cc1719b-ef64-446c-b1f8-0439c829acef"
			"9528bd8f-07be-47a4-96a3-74adf1acdcf8" "959f04f7-cc75-4137-9400-803ed10fc24f"
			"96a54755-6c4a-4727-bb02-9b5cf6134194" "a5633b2b-f4b3-4d12-bbbb-69152b5b8161"
			"b604c3a3-3ee9-497c-bf2e-c7a1307b0c14" "bbfe84a8-08ec-45ce-bd45-cb585e35d1bb"
			"ea5bfde6-2265-4b84-a855-c053b6dce893" "f39c7ec3-002d-4af2-8e50-558b26216301"
			"fae16261-fb1f-4a3c-b44d-8bb25ff70696" "faebaa1c-039b-4d2e-bc35-0905b419df3c"
		)
	)
)