(kicad_sch
	(version 20231120)
	(generator "eeschema")
	(generator_version "8.0")
	(uuid "91cc9d15-231f-4b99-b8f8-b41b9ee23926")
	(paper "A4")
	(lib_symbols
		(symbol "Amplifier_Operational:OPA4340UA"
			(pin_names
				(offset 0.127)
			)
			(exclude_from_sim no)
			(in_bom yes)
			(on_board yes)
			(property "Reference" "U"
				(at 0 5.08 0)
				(effects
					(font
						(size 1.27 1.27)
					)
					(justify left)
				)
			)
			(property "Value" "OPA4340UA"
				(at 0 -5.08 0)
				(effects
					(font
						(size 1.27 1.27)
					)
					(justify left)
				)
			)
			(property "Footprint" ""
				(at -1.27 2.54 0)
				(effects
					(font
						(size 1.27 1.27)
					)
					(hide yes)
				)
			)
			(property "Datasheet" "http://www.ti.com/lit/ds/symlink/opa340.pdf"
				(at 1.27 5.08 0)
				(effects
					(font
						(size 1.27 1.27)
					)
					(hide yes)
				)
			)
			(property "Description" "Quad Single-Supply, Rail-to-Rail Operational Amplifier, MicroAmplifier Series, SOIC-14"
				(at 0 0 0)
				(effects
					(font
						(size 1.27 1.27)
					)
					(hide yes)
				)
			)
			(property "ki_locked" ""
				(at 0 0 0)
				(effects
					(font
						(size 1.27 1.27)
					)
				)
			)
			(property "ki_keywords" "quad opamp"
				(at 0 0 0)
				(effects
					(font
						(size 1.27 1.27)
					)
					(hide yes)
				)
			)
			(property "ki_fp_filters" "SOIC*3.9x8.7mm*P1.27mm* DIP*W7.62mm* TSSOP*4.4x5mm*P0.65mm* SSOP*5.3x6.2mm*P0.65mm* MSOP*3x3mm*P0.5mm*"
				(at 0 0 0)
				(effects
					(font
						(size 1.27 1.27)
					)
					(hide yes)
				)
			)
			(symbol "OPA4340UA_1_1"
				(polyline
					(pts
						(xy -5.08 5.08) (xy 5.08 0) (xy -5.08 -5.08) (xy -5.08 5.08)
					)
					(stroke
						(width 0.254)
						(type default)
					)
					(fill
						(type background)
					)
				)
				(pin output line
					(at 7.62 0 180)
					(length 2.54)
					(name "~"
						(effects
							(font
								(size 1.27 1.27)
							)
						)
					)
					(number "1"
						(effects
							(font
								(size 1.27 1.27)
							)
						)
					)
				)
				(pin input line
					(at -7.62 -2.54 0)
					(length 2.54)
					(name "-"
						(effects
							(font
								(size 1.27 1.27)
							)
						)
					)
					(number "2"
						(effects
							(font
								(size 1.27 1.27)
							)
						)
					)
				)
				(pin input line
					(at -7.62 2.54 0)
					(length 2.54)
					(name "+"
						(effects
							(font
								(size 1.27 1.27)
							)
						)
					)
					(number "3"
						(effects
							(font
								(size 1.27 1.27)
							)
						)
					)
				)
			)
			(symbol "OPA4340UA_2_1"
				(polyline
					(pts
						(xy -5.08 5.08) (xy 5.08 0) (xy -5.08 -5.08) (xy -5.08 5.08)
					)
					(stroke
						(width 0.254)
						(type default)
					)
					(fill
						(type background)
					)
				)
				(pin input line
					(at -7.62 2.54 0)
					(length 2.54)
					(name "+"
						(effects
							(font
								(size 1.27 1.27)
							)
						)
					)
					(number "5"
						(effects
							(font
								(size 1.27 1.27)
							)
						)
					)
				)
				(pin input line
					(at -7.62 -2.54 0)
					(length 2.54)
					(name "-"
						(effects
							(font
								(size 1.27 1.27)
							)
						)
					)
					(number "6"
						(effects
							(font
								(size 1.27 1.27)
							)
						)
					)
				)
				(pin output line
					(at 7.62 0 180)
					(length 2.54)
					(name "~"
						(effects
							(font
								(size 1.27 1.27)
							)
						)
					)
					(number "7"
						(effects
							(font
								(size 1.27 1.27)
							)
						)
					)
				)
			)
			(symbol "OPA4340UA_3_1"
				(polyline
					(pts
						(xy -5.08 5.08) (xy 5.08 0) (xy -5.08 -5.08) (xy -5.08 5.08)
					)
					(stroke
						(width 0.254)
						(type default)
					)
					(fill
						(type background)
					)
				)
				(pin input line
					(at -7.62 2.54 0)
					(length 2.54)
					(name "+"
						(effects
							(font
								(size 1.27 1.27)
							)
						)
					)
					(number "10"
						(effects
							(font
								(size 1.27 1.27)
							)
						)
					)
				)
				(pin output line
					(at 7.62 0 180)
					(length 2.54)
					(name "~"
						(effects
							(font
								(size 1.27 1.27)
							)
						)
					)
					(number "8"
						(effects
							(font
								(size 1.27 1.27)
							)
						)
					)
				)
				(pin input line
					(at -7.62 -2.54 0)
					(length 2.54)
					(name "-"
						(effects
							(font
								(size 1.27 1.27)
							)
						)
					)
					(number "9"
						(effects
							(font
								(size 1.27 1.27)
							)
						)
					)
				)
			)
			(symbol "OPA4340UA_4_1"
				(polyline
					(pts
						(xy -5.08 5.08) (xy 5.08 0) (xy -5.08 -5.08) (xy -5.08 5.08)
					)
					(stroke
						(width 0.254)
						(type default)
					)
					(fill
						(type background)
					)
				)
				(pin input line
					(at -7.62 2.54 0)
					(length 2.54)
					(name "+"
						(effects
							(font
								(size 1.27 1.27)
							)
						)
					)
					(number "12"
						(effects
							(font
								(size 1.27 1.27)
							)
						)
					)
				)
				(pin input line
					(at -7.62 -2.54 0)
					(length 2.54)
					(name "-"
						(effects
							(font
								(size 1.27 1.27)
							)
						)
					)
					(number "13"
						(effects
							(font
								(size 1.27 1.27)
							)
						)
					)
				)
				(pin output line
					(at 7.62 0 180)
					(length 2.54)
					(name "~"
						(effects
							(font
								(size 1.27 1.27)
							)
						)
					)
					(number "14"
						(effects
							(font
								(size 1.27 1.27)
							)
						)
					)
				)
			)
			(symbol "OPA4340UA_5_1"
				(pin power_in line
					(at -2.54 -7.62 90)
					(length 3.81)
					(name "V-"
						(effects
							(font
								(size 1.27 1.27)
							)
						)
					)
					(number "11"
						(effects
							(font
								(size 1.27 1.27)
							)
						)
					)
				)
				(pin power_in line
					(at -2.54 7.62 270)
					(length 3.81)
					(name "V+"
						(effects
							(font
								(size 1.27 1.27)
							)
						)
					)
					(number "4"
						(effects
							(font
								(size 1.27 1.27)
							)
						)
					)
				)
			)
		)
		(symbol "Connector:Conn_01x05_Female"
			(pin_names
				(offset 1.016) hide)
			(exclude_from_sim no)
			(in_bom yes)
			(on_board yes)
			(property "Reference" "J"
				(at 0 7.62 0)
				(effects
					(font
						(size 1.27 1.27)
					)
				)
			)
			(property "Value" "Conn_01x05_Female"
				(at 0 -7.62 0)
				(effects
					(font
						(size 1.27 1.27)
					)
				)
			)
			(property "Footprint" ""
				(at 0 0 0)
				(effects
					(font
						(size 1.27 1.27)
					)
					(hide yes)
				)
			)
			(property "Datasheet" "~"
				(at 0 0 0)
				(effects
					(font
						(size 1.27 1.27)
					)
					(hide yes)
				)
			)
			(property "Description" "Generic connector, single row, 01x05, script generated (kicad-library-utils/schlib/autogen/connector/)"
				(at 0 0 0)
				(effects
					(font
						(size 1.27 1.27)
					)
					(hide yes)
				)
			)
			(property "ki_keywords" "connector"
				(at 0 0 0)
				(effects
					(font
						(size 1.27 1.27)
					)
					(hide yes)
				)
			)
			(property "ki_fp_filters" "Connector*:*_1x??_*"
				(at 0 0 0)
				(effects
					(font
						(size 1.27 1.27)
					)
					(hide yes)
				)
			)
			(symbol "Conn_01x05_Female_1_1"
				(arc
					(start 0 -4.572)
					(mid -0.5058 -5.08)
					(end 0 -5.588)
					(stroke
						(width 0.1524)
						(type default)
					)
					(fill
						(type none)
					)
				)
				(arc
					(start 0 -2.032)
					(mid -0.5058 -2.54)
					(end 0 -3.048)
					(stroke
						(width 0.1524)
						(type default)
					)
					(fill
						(type none)
					)
				)
				(polyline
					(pts
						(xy -1.27 -5.08) (xy -0.508 -5.08)
					)
					(stroke
						(width 0.1524)
						(type default)
					)
					(fill
						(type none)
					)
				)
				(polyline
					(pts
						(xy -1.27 -2.54) (xy -0.508 -2.54)
					)
					(stroke
						(width 0.1524)
						(type default)
					)
					(fill
						(type none)
					)
				)
				(polyline
					(pts
						(xy -1.27 0) (xy -0.508 0)
					)
					(stroke
						(width 0.1524)
						(type default)
					)
					(fill
						(type none)
					)
				)
				(polyline
					(pts
						(xy -1.27 2.54) (xy -0.508 2.54)
					)
					(stroke
						(width 0.1524)
						(type default)
					)
					(fill
						(type none)
					)
				)
				(polyline
					(pts
						(xy -1.27 5.08) (xy -0.508 5.08)
					)
					(stroke
						(width 0.1524)
						(type default)
					)
					(fill
						(type none)
					)
				)
				(arc
					(start 0 0.508)
					(mid -0.5058 0)
					(end 0 -0.508)
					(stroke
						(width 0.1524)
						(type default)
					)
					(fill
						(type none)
					)
				)
				(arc
					(start 0 3.048)
					(mid -0.5058 2.54)
					(end 0 2.032)
					(stroke
						(width 0.1524)
						(type default)
					)
					(fill
						(type none)
					)
				)
				(arc
					(start 0 5.588)
					(mid -0.5058 5.08)
					(end 0 4.572)
					(stroke
						(width 0.1524)
						(type default)
					)
					(fill
						(type none)
					)
				)
				(pin passive line
					(at -5.08 5.08 0)
					(length 3.81)
					(name "Pin_1"
						(effects
							(font
								(size 1.27 1.27)
							)
						)
					)
					(number "1"
						(effects
							(font
								(size 1.27 1.27)
							)
						)
					)
				)
				(pin passive line
					(at -5.08 2.54 0)
					(length 3.81)
					(name "Pin_2"
						(effects
							(font
								(size 1.27 1.27)
							)
						)
					)
					(number "2"
						(effects
							(font
								(size 1.27 1.27)
							)
						)
					)
				)
				(pin passive line
					(at -5.08 0 0)
					(length 3.81)
					(name "Pin_3"
						(effects
							(font
								(size 1.27 1.27)
							)
						)
					)
					(number "3"
						(effects
							(font
								(size 1.27 1.27)
							)
						)
					)
				)
				(pin passive line
					(at -5.08 -2.54 0)
					(length 3.81)
					(name "Pin_4"
						(effects
							(font
								(size 1.27 1.27)
							)
						)
					)
					(number "4"
						(effects
							(font
								(size 1.27 1.27)
							)
						)
					)
				)
				(pin passive line
					(at -5.08 -5.08 0)
					(length 3.81)
					(name "Pin_5"
						(effects
							(font
								(size 1.27 1.27)
							)
						)
					)
					(number "5"
						(effects
							(font
								(size 1.27 1.27)
							)
						)
					)
				)
			)
		)
		(symbol "Device:C"
			(pin_numbers hide)
			(pin_names
				(offset 0.254)
			)
			(exclude_from_sim no)
			(in_bom yes)
			(on_board yes)
			(property "Reference" "C"
				(at 0.635 2.54 0)
				(effects
					(font
						(size 1.27 1.27)
					)
					(justify left)
				)
			)
			(property "Value" "C"
				(at 0.635 -2.54 0)
				(effects
					(font
						(size 1.27 1.27)
					)
					(justify left)
				)
			)
			(property "Footprint" ""
				(at 0.9652 -3.81 0)
				(effects
					(font
						(size 1.27 1.27)
					)
					(hide yes)
				)
			)
			(property "Datasheet" "~"
				(at 0 0 0)
				(effects
					(font
						(size 1.27 1.27)
					)
					(hide yes)
				)
			)
			(property "Description" "Unpolarized capacitor"
				(at 0 0 0)
				(effects
					(font
						(size 1.27 1.27)
					)
					(hide yes)
				)
			)
			(property "ki_keywords" "cap capacitor"
				(at 0 0 0)
				(effects
					(font
						(size 1.27 1.27)
					)
					(hide yes)
				)
			)
			(property "ki_fp_filters" "C_*"
				(at 0 0 0)
				(effects
					(font
						(size 1.27 1.27)
					)
					(hide yes)
				)
			)
			(symbol "C_0_1"
				(polyline
					(pts
						(xy -2.032 -0.762) (xy 2.032 -0.762)
					)
					(stroke
						(width 0.508)
						(type default)
					)
					(fill
						(type none)
					)
				)
				(polyline
					(pts
						(xy -2.032 0.762) (xy 2.032 0.762)
					)
					(stroke
						(width 0.508)
						(type default)
					)
					(fill
						(type none)
					)
				)
			)
			(symbol "C_1_1"
				(pin passive line
					(at 0 3.81 270)
					(length 2.794)
					(name "~"
						(effects
							(font
								(size 1.27 1.27)
							)
						)
					)
					(number "1"
						(effects
							(font
								(size 1.27 1.27)
							)
						)
					)
				)
				(pin passive line
					(at 0 -3.81 90)
					(length 2.794)
					(name "~"
						(effects
							(font
								(size 1.27 1.27)
							)
						)
					)
					(number "2"
						(effects
							(font
								(size 1.27 1.27)
							)
						)
					)
				)
			)
		)
		(symbol "Device:R_US"
			(pin_numbers hide)
			(pin_names
				(offset 0)
			)
			(exclude_from_sim no)
			(in_bom yes)
			(on_board yes)
			(property "Reference" "R"
				(at 2.54 0 90)
				(effects
					(font
						(size 1.27 1.27)
					)
				)
			)
			(property "Value" "R_US"
				(at -2.54 0 90)
				(effects
					(font
						(size 1.27 1.27)
					)
				)
			)
			(property "Footprint" ""
				(at 1.016 -0.254 90)
				(effects
					(font
						(size 1.27 1.27)
					)
					(hide yes)
				)
			)
			(property "Datasheet" "~"
				(at 0 0 0)
				(effects
					(font
						(size 1.27 1.27)
					)
					(hide yes)
				)
			)
			(property "Description" "Resistor, US symbol"
				(at 0 0 0)
				(effects
					(font
						(size 1.27 1.27)
					)
					(hide yes)
				)
			)
			(property "ki_keywords" "R res resistor"
				(at 0 0 0)
				(effects
					(font
						(size 1.27 1.27)
					)
					(hide yes)
				)
			)
			(property "ki_fp_filters" "R_*"
				(at 0 0 0)
				(effects
					(font
						(size 1.27 1.27)
					)
					(hide yes)
				)
			)
			(symbol "R_US_0_1"
				(polyline
					(pts
						(xy 0 -2.286) (xy 0 -2.54)
					)
					(stroke
						(width 0)
						(type default)
					)
					(fill
						(type none)
					)
				)
				(polyline
					(pts
						(xy 0 2.286) (xy 0 2.54)
					)
					(stroke
						(width 0)
						(type default)
					)
					(fill
						(type none)
					)
				)
				(polyline
					(pts
						(xy 0 -0.762) (xy 1.016 -1.143) (xy 0 -1.524) (xy -1.016 -1.905) (xy 0 -2.286)
					)
					(stroke
						(width 0)
						(type default)
					)
					(fill
						(type none)
					)
				)
				(polyline
					(pts
						(xy 0 0.762) (xy 1.016 0.381) (xy 0 0) (xy -1.016 -0.381) (xy 0 -0.762)
					)
					(stroke
						(width 0)
						(type default)
					)
					(fill
						(type none)
					)
				)
				(polyline
					(pts
						(xy 0 2.286) (xy 1.016 1.905) (xy 0 1.524) (xy -1.016 1.143) (xy 0 0.762)
					)
					(stroke
						(width 0)
						(type default)
					)
					(fill
						(type none)
					)
				)
			)
			(symbol "R_US_1_1"
				(pin passive line
					(at 0 3.81 270)
					(length 1.27)
					(name "~"
						(effects
							(font
								(size 1.27 1.27)
							)
						)
					)
					(number "1"
						(effects
							(font
								(size 1.27 1.27)
							)
						)
					)
				)
				(pin passive line
					(at 0 -3.81 90)
					(length 1.27)
					(name "~"
						(effects
							(font
								(size 1.27 1.27)
							)
						)
					)
					(number "2"
						(effects
							(font
								(size 1.27 1.27)
							)
						)
					)
				)
			)
		)
		(symbol "Diode:BAT54S"
			(pin_names
				(offset 0)
			)
			(exclude_from_sim no)
			(in_bom yes)
			(on_board yes)
			(property "Reference" "D"
				(at 2.54 -5.08 0)
				(effects
					(font
						(size 1.27 1.27)
					)
					(justify left)
				)
			)
			(property "Value" "BAT54S"
				(at -6.35 3.175 0)
				(effects
					(font
						(size 1.27 1.27)
					)
					(justify left)
				)
			)
			(property "Footprint" "Package_TO_SOT_SMD:SOT-23"
				(at 1.905 3.175 0)
				(effects
					(font
						(size 1.27 1.27)
					)
					(justify left)
					(hide yes)
				)
			)
			(property "Datasheet" "https://www.diodes.com/assets/Datasheets/ds11005.pdf"
				(at -3.048 0 0)
				(effects
					(font
						(size 1.27 1.27)
					)
					(hide yes)
				)
			)
			(property "Description" "Vr 30V, If 200mA, Dual schottky barrier diode, in series, SOT-323"
				(at 0 0 0)
				(effects
					(font
						(size 1.27 1.27)
					)
					(hide yes)
				)
			)
			(property "ki_keywords" "schottky diode"
				(at 0 0 0)
				(effects
					(font
						(size 1.27 1.27)
					)
					(hide yes)
				)
			)
			(property "ki_fp_filters" "SOT?23*"
				(at 0 0 0)
				(effects
					(font
						(size 1.27 1.27)
					)
					(hide yes)
				)
			)
			(symbol "BAT54S_0_1"
				(polyline
					(pts
						(xy -3.81 0) (xy -1.27 0)
					)
					(stroke
						(width 0)
						(type default)
					)
					(fill
						(type none)
					)
				)
				(polyline
					(pts
						(xy -3.175 -1.27) (xy -3.175 -1.016)
					)
					(stroke
						(width 0)
						(type default)
					)
					(fill
						(type none)
					)
				)
				(polyline
					(pts
						(xy -2.54 -1.27) (xy -3.175 -1.27)
					)
					(stroke
						(width 0)
						(type default)
					)
					(fill
						(type none)
					)
				)
				(polyline
					(pts
						(xy -2.54 -1.27) (xy -2.54 1.27)
					)
					(stroke
						(width 0)
						(type default)
					)
					(fill
						(type none)
					)
				)
				(polyline
					(pts
						(xy -2.54 1.27) (xy -1.905 1.27)
					)
					(stroke
						(width 0)
						(type default)
					)
					(fill
						(type none)
					)
				)
				(polyline
					(pts
						(xy -1.905 0) (xy 1.905 0)
					)
					(stroke
						(width 0)
						(type default)
					)
					(fill
						(type none)
					)
				)
				(polyline
					(pts
						(xy -1.905 1.27) (xy -1.905 1.016)
					)
					(stroke
						(width 0)
						(type default)
					)
					(fill
						(type none)
					)
				)
				(polyline
					(pts
						(xy 1.27 0) (xy 3.81 0)
					)
					(stroke
						(width 0)
						(type default)
					)
					(fill
						(type none)
					)
				)
				(polyline
					(pts
						(xy 3.175 -1.27) (xy 3.175 -1.016)
					)
					(stroke
						(width 0)
						(type default)
					)
					(fill
						(type none)
					)
				)
				(polyline
					(pts
						(xy 3.81 -1.27) (xy 3.175 -1.27)
					)
					(stroke
						(width 0)
						(type default)
					)
					(fill
						(type none)
					)
				)
				(polyline
					(pts
						(xy 3.81 -1.27) (xy 3.81 1.27)
					)
					(stroke
						(width 0)
						(type default)
					)
					(fill
						(type none)
					)
				)
				(polyline
					(pts
						(xy 3.81 1.27) (xy 4.445 1.27)
					)
					(stroke
						(width 0)
						(type default)
					)
					(fill
						(type none)
					)
				)
				(polyline
					(pts
						(xy 4.445 1.27) (xy 4.445 1.016)
					)
					(stroke
						(width 0)
						(type default)
					)
					(fill
						(type none)
					)
				)
				(polyline
					(pts
						(xy -4.445 1.27) (xy -4.445 -1.27) (xy -2.54 0) (xy -4.445 1.27)
					)
					(stroke
						(width 0)
						(type default)
					)
					(fill
						(type none)
					)
				)
				(polyline
					(pts
						(xy 1.905 1.27) (xy 1.905 -1.27) (xy 3.81 0) (xy 1.905 1.27)
					)
					(stroke
						(width 0)
						(type default)
					)
					(fill
						(type none)
					)
				)
				(circle
					(center 0 0)
					(radius 0.254)
					(stroke
						(width 0)
						(type default)
					)
					(fill
						(type outline)
					)
				)
			)
			(symbol "BAT54S_1_1"
				(pin passive line
					(at -7.62 0 0)
					(length 3.81)
					(name "A"
						(effects
							(font
								(size 1.27 1.27)
							)
						)
					)
					(number "1"
						(effects
							(font
								(size 1.27 1.27)
							)
						)
					)
				)
				(pin passive line
					(at 7.62 0 180)
					(length 3.81)
					(name "K"
						(effects
							(font
								(size 1.27 1.27)
							)
						)
					)
					(number "2"
						(effects
							(font
								(size 1.27 1.27)
							)
						)
					)
				)
				(pin passive line
					(at 0 -5.08 90)
					(length 5.08)
					(name "COM"
						(effects
							(font
								(size 1.27 1.27)
							)
						)
					)
					(number "3"
						(effects
							(font
								(size 1.27 1.27)
							)
						)
					)
				)
			)
		)
		(symbol "Mechanical:MountingHole"
			(pin_names
				(offset 1.016)
			)
			(exclude_from_sim no)
			(in_bom yes)
			(on_board yes)
			(property "Reference" "H"
				(at 0 5.08 0)
				(effects
					(font
						(size 1.27 1.27)
					)
				)
			)
			(property "Value" "MountingHole"
				(at 0 3.175 0)
				(effects
					(font
						(size 1.27 1.27)
					)
				)
			)
			(property "Footprint" ""
				(at 0 0 0)
				(effects
					(font
						(size 1.27 1.27)
					)
					(hide yes)
				)
			)
			(property "Datasheet" "~"
				(at 0 0 0)
				(effects
					(font
						(size 1.27 1.27)
					)
					(hide yes)
				)
			)
			(property "Description" "Mounting Hole without connection"
				(at 0 0 0)
				(effects
					(font
						(size 1.27 1.27)
					)
					(hide yes)
				)
			)
			(property "ki_keywords" "mounting hole"
				(at 0 0 0)
				(effects
					(font
						(size 1.27 1.27)
					)
					(hide yes)
				)
			)
			(property "ki_fp_filters" "MountingHole*"
				(at 0 0 0)
				(effects
					(font
						(size 1.27 1.27)
					)
					(hide yes)
				)
			)
			(symbol "MountingHole_0_1"
				(circle
					(center 0 0)
					(radius 1.27)
					(stroke
						(width 1.27)
						(type default)
					)
					(fill
						(type none)
					)
				)
			)
		)
		(symbol "power:+2V5"
			(power)
			(pin_names
				(offset 0)
			)
			(exclude_from_sim no)
			(in_bom yes)
			(on_board yes)
			(property "Reference" "#PWR"
				(at 0 -3.81 0)
				(effects
					(font
						(size 1.27 1.27)
					)
					(hide yes)
				)
			)
			(property "Value" "+2V5"
				(at 0 3.556 0)
				(effects
					(font
						(size 1.27 1.27)
					)
				)
			)
			(property "Footprint" ""
				(at 0 0 0)
				(effects
					(font
						(size 1.27 1.27)
					)
					(hide yes)
				)
			)
			(property "Datasheet" ""
				(at 0 0 0)
				(effects
					(font
						(size 1.27 1.27)
					)
					(hide yes)
				)
			)
			(property "Description" "Power symbol creates a global label with name \"+2V5\""
				(at 0 0 0)
				(effects
					(font
						(size 1.27 1.27)
					)
					(hide yes)
				)
			)
			(property "ki_keywords" "global power"
				(at 0 0 0)
				(effects
					(font
						(size 1.27 1.27)
					)
					(hide yes)
				)
			)
			(symbol "+2V5_0_1"
				(polyline
					(pts
						(xy -0.762 1.27) (xy 0 2.54)
					)
					(stroke
						(width 0)
						(type default)
					)
					(fill
						(type none)
					)
				)
				(polyline
					(pts
						(xy 0 0) (xy 0 2.54)
					)
					(stroke
						(width 0)
						(type default)
					)
					(fill
						(type none)
					)
				)
				(polyline
					(pts
						(xy 0 2.54) (xy 0.762 1.27)
					)
					(stroke
						(width 0)
						(type default)
					)
					(fill
						(type none)
					)
				)
			)
			(symbol "+2V5_1_1"
				(pin power_in line
					(at 0 0 90)
					(length 0) hide
					(name "+2V5"
						(effects
							(font
								(size 1.27 1.27)
							)
						)
					)
					(number "1"
						(effects
							(font
								(size 1.27 1.27)
							)
						)
					)
				)
			)
		)
		(symbol "power:+5V"
			(power)
			(pin_names
				(offset 0)
			)
			(exclude_from_sim no)
			(in_bom yes)
			(on_board yes)
			(property "Reference" "#PWR"
				(at 0 -3.81 0)
				(effects
					(font
						(size 1.27 1.27)
					)
					(hide yes)
				)
			)
			(property "Value" "+5V"
				(at 0 3.556 0)
				(effects
					(font
						(size 1.27 1.27)
					)
				)
			)
			(property "Footprint" ""
				(at 0 0 0)
				(effects
					(font
						(size 1.27 1.27)
					)
					(hide yes)
				)
			)
			(property "Datasheet" ""
				(at 0 0 0)
				(effects
					(font
						(size 1.27 1.27)
					)
					(hide yes)
				)
			)
			(property "Description" "Power symbol creates a global label with name \"+5V\""
				(at 0 0 0)
				(effects
					(font
						(size 1.27 1.27)
					)
					(hide yes)
				)
			)
			(property "ki_keywords" "global power"
				(at 0 0 0)
				(effects
					(font
						(size 1.27 1.27)
					)
					(hide yes)
				)
			)
			(symbol "+5V_0_1"
				(polyline
					(pts
						(xy -0.762 1.27) (xy 0 2.54)
					)
					(stroke
						(width 0)
						(type default)
					)
					(fill
						(type none)
					)
				)
				(polyline
					(pts
						(xy 0 0) (xy 0 2.54)
					)
					(stroke
						(width 0)
						(type default)
					)
					(fill
						(type none)
					)
				)
				(polyline
					(pts
						(xy 0 2.54) (xy 0.762 1.27)
					)
					(stroke
						(width 0)
						(type default)
					)
					(fill
						(type none)
					)
				)
			)
			(symbol "+5V_1_1"
				(pin power_in line
					(at 0 0 90)
					(length 0) hide
					(name "+5V"
						(effects
							(font
								(size 1.27 1.27)
							)
						)
					)
					(number "1"
						(effects
							(font
								(size 1.27 1.27)
							)
						)
					)
				)
			)
		)
		(symbol "power:GND"
			(power)
			(pin_names
				(offset 0)
			)
			(exclude_from_sim no)
			(in_bom yes)
			(on_board yes)
			(property "Reference" "#PWR"
				(at 0 -6.35 0)
				(effects
					(font
						(size 1.27 1.27)
					)
					(hide yes)
				)
			)
			(property "Value" "GND"
				(at 0 -3.81 0)
				(effects
					(font
						(size 1.27 1.27)
					)
				)
			)
			(property "Footprint" ""
				(at 0 0 0)
				(effects
					(font
						(size 1.27 1.27)
					)
					(hide yes)
				)
			)
			(property "Datasheet" ""
				(at 0 0 0)
				(effects
					(font
						(size 1.27 1.27)
					)
					(hide yes)
				)
			)
			(property "Description" "Power symbol creates a global label with name \"GND\" , ground"
				(at 0 0 0)
				(effects
					(font
						(size 1.27 1.27)
					)
					(hide yes)
				)
			)
			(property "ki_keywords" "global power"
				(at 0 0 0)
				(effects
					(font
						(size 1.27 1.27)
					)
					(hide yes)
				)
			)
			(symbol "GND_0_1"
				(polyline
					(pts
						(xy 0 0) (xy 0 -1.27) (xy 1.27 -1.27) (xy 0 -2.54) (xy -1.27 -1.27) (xy 0 -1.27)
					)
					(stroke
						(width 0)
						(type default)
					)
					(fill
						(type none)
					)
				)
			)
			(symbol "GND_1_1"
				(pin power_in line
					(at 0 0 270)
					(length 0) hide
					(name "GND"
						(effects
							(font
								(size 1.27 1.27)
							)
						)
					)
					(number "1"
						(effects
							(font
								(size 1.27 1.27)
							)
						)
					)
				)
			)
		)
		(symbol "symbols:SD008-2171-112"
			(pin_names
				(offset 0.254) hide)
			(exclude_from_sim no)
			(in_bom yes)
			(on_board yes)
			(property "Reference" "D"
				(at 2.54 -5.08 0)
				(effects
					(font
						(size 1.27 1.27)
					)
					(justify left)
				)
			)
			(property "Value" "SD008-2171-112"
				(at 5.08 5.08 0)
				(effects
					(font
						(size 1.27 1.27)
					)
				)
			)
			(property "Footprint" "Package_TO_SOT_THT:TO-18-3"
				(at 0 8.89 0)
				(effects
					(font
						(size 1.27 1.27)
					)
					(hide yes)
				)
			)
			(property "Datasheet" "https://www.hamamatsu.com/resources/pdf/ssd/s5971_etc_kpin1025e.pdf"
				(at 3.556 -19.05 0)
				(effects
					(font
						(size 1.27 1.27)
					)
					(hide yes)
				)
			)
			(property "Description" "Si PIN Photodiode, 0.1 GHz, TO-18-3"
				(at 3.556 -16.51 0)
				(effects
					(font
						(size 1.27 1.27)
					)
					(hide yes)
				)
			)
			(property "ki_keywords" "opto photodiode"
				(at 0 0 0)
				(effects
					(font
						(size 1.27 1.27)
					)
					(hide yes)
				)
			)
			(property "ki_fp_filters" "TO?18*"
				(at 0 0 0)
				(effects
					(font
						(size 1.27 1.27)
					)
					(hide yes)
				)
			)
			(symbol "SD008-2171-112_0_0"
				(pin passive line
					(at 0 -7.62 90)
					(length 3.81)
					(name "C"
						(effects
							(font
								(size 1.27 1.27)
							)
						)
					)
					(number "2"
						(effects
							(font
								(size 1.27 1.27)
							)
						)
					)
				)
			)
			(symbol "SD008-2171-112_0_1"
				(polyline
					(pts
						(xy -1.27 0) (xy -3.81 0)
					)
					(stroke
						(width 0)
						(type default)
					)
					(fill
						(type none)
					)
				)
				(polyline
					(pts
						(xy -1.27 1.27) (xy -1.27 -1.27)
					)
					(stroke
						(width 0.1524)
						(type default)
					)
					(fill
						(type none)
					)
				)
				(polyline
					(pts
						(xy -0.762 1.778) (xy -0.254 1.778)
					)
					(stroke
						(width 0)
						(type default)
					)
					(fill
						(type none)
					)
				)
				(polyline
					(pts
						(xy 3.81 0) (xy 1.27 0)
					)
					(stroke
						(width 0)
						(type default)
					)
					(fill
						(type none)
					)
				)
				(polyline
					(pts
						(xy 0.762 3.302) (xy -0.762 1.778) (xy -0.762 2.286)
					)
					(stroke
						(width 0)
						(type default)
					)
					(fill
						(type none)
					)
				)
				(polyline
					(pts
						(xy -1.27 0) (xy 1.27 1.27) (xy 1.27 -1.27) (xy -1.27 0)
					)
					(stroke
						(width 0)
						(type default)
					)
					(fill
						(type outline)
					)
				)
				(polyline
					(pts
						(xy 2.032 3.302) (xy 0.508 1.778) (xy 0.508 2.286) (xy 0.508 1.778) (xy 1.016 1.778)
					)
					(stroke
						(width 0)
						(type default)
					)
					(fill
						(type none)
					)
				)
				(circle
					(center 0 0)
					(radius 3.81)
					(stroke
						(width 0)
						(type default)
					)
					(fill
						(type none)
					)
				)
			)
			(symbol "SD008-2171-112_1_1"
				(pin passive line
					(at 7.62 0 180)
					(length 3.81)
					(name "1"
						(effects
							(font
								(size 1.27 1.27)
							)
						)
					)
					(number "1"
						(effects
							(font
								(size 1.27 1.27)
							)
						)
					)
				)
				(pin passive line
					(at -7.62 0 0)
					(length 3.81)
					(name "K"
						(effects
							(font
								(size 1.27 1.27)
							)
						)
					)
					(number "3"
						(effects
							(font
								(size 1.27 1.27)
							)
						)
					)
				)
			)
		)
	)
	(junction
		(at 107.95 83.82)
		(diameter 0)
		(color 0 0 0 0)
		(uuid "05ccbad4-30a6-485c-b2cb-b16619290ecc")
	)
	(junction
		(at 154.94 83.82)
		(diameter 0)
		(color 0 0 0 0)
		(uuid "140e3bec-458d-4dd4-8a80-5309189a5c7e")
	)
	(junction
		(at 86.36 58.42)
		(diameter 0)
		(color 0 0 0 0)
		(uuid "1a410f79-3cc3-43d6-ab79-3ee4d0fcb019")
	)
	(junction
		(at 60.96 68.58)
		(diameter 0)
		(color 0 0 0 0)
		(uuid "1b5b6fc4-50f6-4e16-83ab-1b7b94c34308")
	)
	(junction
		(at 49.53 104.14)
		(diameter 0)
		(color 0 0 0 0)
		(uuid "1bdaf28f-1306-4c91-9bcb-c6954cc155f1")
	)
	(junction
		(at 175.26 109.22)
		(diameter 0)
		(color 0 0 0 0)
		(uuid "2110ff94-e413-4e48-bebf-b7d005a2cfb8")
	)
	(junction
		(at 237.49 85.09)
		(diameter 0)
		(color 0 0 0 0)
		(uuid "4a1d50bf-235e-43b3-80f7-8e01aa69830d")
	)
	(junction
		(at 60.96 81.28)
		(diameter 0)
		(color 0 0 0 0)
		(uuid "4f04f1c9-6ef2-4cea-a959-da7b93f8e903")
	)
	(junction
		(at 175.26 96.52)
		(diameter 0)
		(color 0 0 0 0)
		(uuid "66ae5115-db37-49b8-8323-dd2e6ac48a14")
	)
	(junction
		(at 265.43 57.15)
		(diameter 0)
		(color 0 0 0 0)
		(uuid "7482c3e3-be5b-4b32-805f-710c4c71c5d6")
	)
	(junction
		(at 135.89 83.82)
		(diameter 0)
		(color 0 0 0 0)
		(uuid "8df70163-b171-4378-bfc3-23730b533160")
	)
	(junction
		(at 217.17 85.09)
		(diameter 0)
		(color 0 0 0 0)
		(uuid "b935c6a3-dab2-443d-975d-db0774a1a4f2")
	)
	(junction
		(at 265.43 71.12)
		(diameter 0)
		(color 0 0 0 0)
		(uuid "c7b0f0e8-93cf-4256-88c2-1791c414ec9c")
	)
	(junction
		(at 86.36 68.58)
		(diameter 0)
		(color 0 0 0 0)
		(uuid "ce68c610-77a4-4139-b730-57641a4895fd")
	)
	(junction
		(at 237.49 71.12)
		(diameter 0)
		(color 0 0 0 0)
		(uuid "e27a1595-24c5-40d7-a257-9a65197ac927")
	)
	(junction
		(at 236.22 71.12)
		(diameter 0)
		(color 0 0 0 0)
		(uuid "e4909e92-cdcf-43fa-9b82-37c67acecf57")
	)
	(junction
		(at 86.36 83.82)
		(diameter 0)
		(color 0 0 0 0)
		(uuid "efd9bd2f-0963-4053-9bff-bc780292f38f")
	)
	(wire
		(pts
			(xy 68.58 166.37) (xy 68.58 168.91)
		)
		(stroke
			(width 0)
			(type default)
		)
		(uuid "01060d02-d926-443f-a1da-9fd895f0484b")
	)
	(wire
		(pts
			(xy 265.43 87.63) (xy 265.43 71.12)
		)
		(stroke
			(width 0)
			(type default)
		)
		(uuid "01282456-cf7b-4980-b32d-53b021e6f030")
	)
	(wire
		(pts
			(xy 86.36 83.82) (xy 95.25 83.82)
		)
		(stroke
			(width 0)
			(type default)
		)
		(uuid "073e3030-ff65-4445-b2ac-61824cc7b651")
	)
	(wire
		(pts
			(xy 154.94 71.12) (xy 154.94 83.82)
		)
		(stroke
			(width 0)
			(type default)
		)
		(uuid "0c69610b-dd12-4b55-8aba-38474e6f00bc")
	)
	(wire
		(pts
			(xy 224.79 71.12) (xy 154.94 71.12)
		)
		(stroke
			(width 0)
			(type default)
		)
		(uuid "11adedd5-9b67-4c58-89be-94611342ac7f")
	)
	(wire
		(pts
			(xy 60.96 68.58) (xy 60.96 81.28)
		)
		(stroke
			(width 0)
			(type default)
		)
		(uuid "1306feb8-ca7a-4bbe-a877-09c955d01e84")
	)
	(wire
		(pts
			(xy 60.96 58.42) (xy 60.96 68.58)
		)
		(stroke
			(width 0)
			(type default)
		)
		(uuid "138cad5f-37f6-45c3-aaa4-93e1b71ce320")
	)
	(wire
		(pts
			(xy 107.95 83.82) (xy 107.95 87.63)
		)
		(stroke
			(width 0)
			(type default)
		)
		(uuid "1466c364-dc36-408c-86d1-132c74432c95")
	)
	(wire
		(pts
			(xy 102.87 102.87) (xy 107.95 102.87)
		)
		(stroke
			(width 0)
			(type default)
		)
		(uuid "1aea6496-f6f9-4809-9b8c-591097057acd")
	)
	(wire
		(pts
			(xy 130.81 83.82) (xy 135.89 83.82)
		)
		(stroke
			(width 0)
			(type default)
		)
		(uuid "228d4fff-359e-433c-8eb5-fb6d8bafe2fb")
	)
	(wire
		(pts
			(xy 135.89 83.82) (xy 135.89 87.63)
		)
		(stroke
			(width 0)
			(type default)
		)
		(uuid "2320eee0-efab-425b-b515-52bfea680e1b")
	)
	(wire
		(pts
			(xy 72.39 58.42) (xy 60.96 58.42)
		)
		(stroke
			(width 0)
			(type default)
		)
		(uuid "24ec12bb-2e5c-4cef-ba5a-f055fdbace6d")
	)
	(wire
		(pts
			(xy 163.83 129.54) (xy 172.72 129.54)
		)
		(stroke
			(width 0)
			(type default)
		)
		(uuid "26ed283b-f8f2-447f-a539-bd2ff2280901")
	)
	(wire
		(pts
			(xy 236.22 57.15) (xy 236.22 71.12)
		)
		(stroke
			(width 0)
			(type default)
		)
		(uuid "31243f78-e18b-4a8a-a935-b5675aada5be")
	)
	(wire
		(pts
			(xy 227.33 135.89) (xy 248.92 135.89)
		)
		(stroke
			(width 0)
			(type default)
		)
		(uuid "3526da3b-7d92-4de5-a2be-4e30767aca96")
	)
	(wire
		(pts
			(xy 67.31 81.28) (xy 60.96 81.28)
		)
		(stroke
			(width 0)
			(type default)
		)
		(uuid "36050620-6460-4c0a-aab8-53dec8647a35")
	)
	(wire
		(pts
			(xy 191.77 96.52) (xy 175.26 96.52)
		)
		(stroke
			(width 0)
			(type default)
		)
		(uuid "364ea2c2-78e5-462a-8063-a97c8bf17296")
	)
	(wire
		(pts
			(xy 172.72 114.3) (xy 172.72 129.54)
		)
		(stroke
			(width 0)
			(type default)
		)
		(uuid "3711e39b-848e-4d34-b93b-426e10ca4c27")
	)
	(wire
		(pts
			(xy 80.01 68.58) (xy 86.36 68.58)
		)
		(stroke
			(width 0)
			(type default)
		)
		(uuid "3e7c5d3e-a53a-48a9-8dfe-80b4144ae806")
	)
	(wire
		(pts
			(xy 232.41 85.09) (xy 237.49 85.09)
		)
		(stroke
			(width 0)
			(type default)
		)
		(uuid "40ba6d0b-4da2-4ad5-81b7-274ba039e161")
	)
	(wire
		(pts
			(xy 265.43 57.15) (xy 265.43 50.8)
		)
		(stroke
			(width 0)
			(type default)
		)
		(uuid "4366207b-6958-4b36-aa31-d2604771befd")
	)
	(wire
		(pts
			(xy 39.37 114.3) (xy 49.53 114.3)
		)
		(stroke
			(width 0)
			(type default)
		)
		(uuid "4c6d07cf-e380-4d1c-9eaa-0cf4191b57ce")
	)
	(wire
		(pts
			(xy 66.04 86.36) (xy 66.04 104.14)
		)
		(stroke
			(width 0)
			(type default)
		)
		(uuid "4dc97175-e193-4196-a7ee-23101026d6b5")
	)
	(wire
		(pts
			(xy 170.18 109.22) (xy 175.26 109.22)
		)
		(stroke
			(width 0)
			(type default)
		)
		(uuid "523e7c9b-c268-4743-a4db-35f0f342e4d1")
	)
	(wire
		(pts
			(xy 237.49 71.12) (xy 237.49 85.09)
		)
		(stroke
			(width 0)
			(type default)
		)
		(uuid "59278100-d0fc-4373-b006-3d86c0232bb3")
	)
	(wire
		(pts
			(xy 66.04 104.14) (xy 49.53 104.14)
		)
		(stroke
			(width 0)
			(type default)
		)
		(uuid "59c2237c-3e5b-4f88-9d4d-b890128e8de2")
	)
	(wire
		(pts
			(xy 252.73 57.15) (xy 265.43 57.15)
		)
		(stroke
			(width 0)
			(type default)
		)
		(uuid "6123f8da-6468-45ed-ab7a-84a2f707742b")
	)
	(wire
		(pts
			(xy 175.26 96.52) (xy 175.26 109.22)
		)
		(stroke
			(width 0)
			(type default)
		)
		(uuid "620c09af-46bc-4b91-8a27-f16fdd73f1dc")
	)
	(wire
		(pts
			(xy 175.26 85.09) (xy 175.26 96.52)
		)
		(stroke
			(width 0)
			(type default)
		)
		(uuid "6be529e3-15ea-44a0-ab0f-4fb31fb52d84")
	)
	(wire
		(pts
			(xy 227.33 133.35) (xy 243.84 133.35)
		)
		(stroke
			(width 0)
			(type default)
		)
		(uuid "6c14f7c5-9a0d-429f-bcbc-c17cfd4477f2")
	)
	(wire
		(pts
			(xy 49.53 81.28) (xy 60.96 81.28)
		)
		(stroke
			(width 0)
			(type default)
		)
		(uuid "6dc326be-df6e-4191-aca1-6054ef837fa0")
	)
	(wire
		(pts
			(xy 49.53 85.09) (xy 49.53 81.28)
		)
		(stroke
			(width 0)
			(type default)
		)
		(uuid "6e1bb30a-5ec9-4a39-b1f3-20b19345741b")
	)
	(wire
		(pts
			(xy 68.58 148.59) (xy 68.58 151.13)
		)
		(stroke
			(width 0)
			(type default)
		)
		(uuid "74daa845-acb9-4fa8-9938-ce3e5ecdd951")
	)
	(wire
		(pts
			(xy 193.04 111.76) (xy 199.39 111.76)
		)
		(stroke
			(width 0)
			(type default)
		)
		(uuid "7fc79434-68e5-4929-8cc5-dab365123976")
	)
	(wire
		(pts
			(xy 154.94 109.22) (xy 162.56 109.22)
		)
		(stroke
			(width 0)
			(type default)
		)
		(uuid "806de6cf-bda7-4250-9ba8-cf4b7e2ad84e")
	)
	(wire
		(pts
			(xy 236.22 71.12) (xy 237.49 71.12)
		)
		(stroke
			(width 0)
			(type default)
		)
		(uuid "83a94008-c3b8-4e15-8d4f-096fd7e7d487")
	)
	(wire
		(pts
			(xy 86.36 43.18) (xy 95.25 43.18)
		)
		(stroke
			(width 0)
			(type default)
		)
		(uuid "87276e4d-a5f0-4911-bd67-eaf2d4752537")
	)
	(wire
		(pts
			(xy 177.8 114.3) (xy 172.72 114.3)
		)
		(stroke
			(width 0)
			(type default)
		)
		(uuid "8ad715de-01b2-4d1c-920c-7908390c62c6")
	)
	(wire
		(pts
			(xy 86.36 68.58) (xy 86.36 83.82)
		)
		(stroke
			(width 0)
			(type default)
		)
		(uuid "8b13fde6-8e5b-44f7-a807-e2c61c116cdc")
	)
	(wire
		(pts
			(xy 228.6 105.41) (xy 236.22 105.41)
		)
		(stroke
			(width 0)
			(type default)
		)
		(uuid "93985356-1ca2-4358-b6e9-ce1d03859460")
	)
	(wire
		(pts
			(xy 49.53 114.3) (xy 49.53 104.14)
		)
		(stroke
			(width 0)
			(type default)
		)
		(uuid "9e783d0e-e778-4dde-98c9-e4b2d121367f")
	)
	(wire
		(pts
			(xy 86.36 58.42) (xy 86.36 68.58)
		)
		(stroke
			(width 0)
			(type default)
		)
		(uuid "9f3cf70e-e8b7-41cf-97f2-6c7fa01d339d")
	)
	(wire
		(pts
			(xy 256.54 87.63) (xy 265.43 87.63)
		)
		(stroke
			(width 0)
			(type default)
		)
		(uuid "a1e6ead0-7007-4e2a-8d2b-9579c5fe66bb")
	)
	(wire
		(pts
			(xy 182.88 85.09) (xy 175.26 85.09)
		)
		(stroke
			(width 0)
			(type default)
		)
		(uuid "a347e3e2-46c3-40dc-a41f-fc22511d3f1d")
	)
	(wire
		(pts
			(xy 245.11 57.15) (xy 236.22 57.15)
		)
		(stroke
			(width 0)
			(type default)
		)
		(uuid "a42bca80-b0d3-4f96-b139-af8a66e350c6")
	)
	(wire
		(pts
			(xy 49.53 100.33) (xy 49.53 104.14)
		)
		(stroke
			(width 0)
			(type default)
		)
		(uuid "a4df5500-fa23-47b5-9927-181cf70e0f0d")
	)
	(wire
		(pts
			(xy 154.94 83.82) (xy 154.94 109.22)
		)
		(stroke
			(width 0)
			(type default)
		)
		(uuid "ac230eb0-16c3-409d-b2b7-09ba06d2e271")
	)
	(wire
		(pts
			(xy 241.3 90.17) (xy 236.22 90.17)
		)
		(stroke
			(width 0)
			(type default)
		)
		(uuid "adb1a400-f9a5-4a56-a9f8-1d38070adc23")
	)
	(wire
		(pts
			(xy 175.26 109.22) (xy 177.8 109.22)
		)
		(stroke
			(width 0)
			(type default)
		)
		(uuid "b446ebe7-5ddc-4fe4-b7a2-83ac664c218b")
	)
	(wire
		(pts
			(xy 207.01 96.52) (xy 217.17 96.52)
		)
		(stroke
			(width 0)
			(type default)
		)
		(uuid "b8f95096-e77d-4053-b6ea-88c1920a17a0")
	)
	(wire
		(pts
			(xy 130.81 102.87) (xy 135.89 102.87)
		)
		(stroke
			(width 0)
			(type default)
		)
		(uuid "ba373dcb-472e-42b0-99d6-c44dd8978574")
	)
	(wire
		(pts
			(xy 190.5 85.09) (xy 217.17 85.09)
		)
		(stroke
			(width 0)
			(type default)
		)
		(uuid "c04accce-11f2-4bb2-a408-2aa3d35611a9")
	)
	(wire
		(pts
			(xy 107.95 102.87) (xy 107.95 95.25)
		)
		(stroke
			(width 0)
			(type default)
		)
		(uuid "c372f24f-ef56-4bb7-b7f6-aeae7e59ea76")
	)
	(wire
		(pts
			(xy 232.41 71.12) (xy 236.22 71.12)
		)
		(stroke
			(width 0)
			(type default)
		)
		(uuid "c3750761-a68b-4df5-a659-25ac3172c33e")
	)
	(wire
		(pts
			(xy 102.87 83.82) (xy 107.95 83.82)
		)
		(stroke
			(width 0)
			(type default)
		)
		(uuid "c422b580-7e9a-4bfb-8c68-679ba03def89")
	)
	(wire
		(pts
			(xy 86.36 58.42) (xy 86.36 43.18)
		)
		(stroke
			(width 0)
			(type default)
		)
		(uuid "c63f1088-89c8-4ef0-8ccd-395e5d95dc80")
	)
	(wire
		(pts
			(xy 80.01 58.42) (xy 86.36 58.42)
		)
		(stroke
			(width 0)
			(type default)
		)
		(uuid "cba96a0f-ec66-4bc8-8e1d-416d6b5861ef")
	)
	(wire
		(pts
			(xy 237.49 85.09) (xy 241.3 85.09)
		)
		(stroke
			(width 0)
			(type default)
		)
		(uuid "cf41b15d-5f39-47a0-b6fc-7e84b79a76b5")
	)
	(wire
		(pts
			(xy 217.17 96.52) (xy 217.17 85.09)
		)
		(stroke
			(width 0)
			(type default)
		)
		(uuid "d14cbb52-a981-4ee2-bf92-3ede98b51c5c")
	)
	(wire
		(pts
			(xy 67.31 86.36) (xy 66.04 86.36)
		)
		(stroke
			(width 0)
			(type default)
		)
		(uuid "d64bf37b-f72e-414d-ba72-4b4407c70efa")
	)
	(wire
		(pts
			(xy 72.39 68.58) (xy 60.96 68.58)
		)
		(stroke
			(width 0)
			(type default)
		)
		(uuid "d64f33c5-9bdd-4778-9fbb-204bfca6bbce")
	)
	(wire
		(pts
			(xy 237.49 71.12) (xy 245.11 71.12)
		)
		(stroke
			(width 0)
			(type default)
		)
		(uuid "d807239d-eb3b-43d8-a390-65dcb025403d")
	)
	(wire
		(pts
			(xy 135.89 83.82) (xy 154.94 83.82)
		)
		(stroke
			(width 0)
			(type default)
		)
		(uuid "e0180d5a-573d-4325-a23c-0f0a6c379f1b")
	)
	(wire
		(pts
			(xy 265.43 57.15) (xy 265.43 71.12)
		)
		(stroke
			(width 0)
			(type default)
		)
		(uuid "e1203bde-895a-41a0-81ea-3b54c4857ed5")
	)
	(wire
		(pts
			(xy 86.36 83.82) (xy 82.55 83.82)
		)
		(stroke
			(width 0)
			(type default)
		)
		(uuid "e523f2fb-dc17-4768-b7fa-c8890c8338ea")
	)
	(wire
		(pts
			(xy 217.17 85.09) (xy 224.79 85.09)
		)
		(stroke
			(width 0)
			(type default)
		)
		(uuid "e992af1d-7193-40dd-87ed-12de8b8e5fb6")
	)
	(wire
		(pts
			(xy 265.43 71.12) (xy 252.73 71.12)
		)
		(stroke
			(width 0)
			(type default)
		)
		(uuid "f6a38c96-8860-4d64-b8fb-59313b8427a4")
	)
	(wire
		(pts
			(xy 107.95 83.82) (xy 123.19 83.82)
		)
		(stroke
			(width 0)
			(type default)
		)
		(uuid "f78be9b6-2925-4138-b9d5-8932a4f78806")
	)
	(wire
		(pts
			(xy 236.22 90.17) (xy 236.22 105.41)
		)
		(stroke
			(width 0)
			(type default)
		)
		(uuid "f8d1b460-080d-4d8a-b385-a33654d59ce7")
	)
	(wire
		(pts
			(xy 265.43 50.8) (xy 274.32 50.8)
		)
		(stroke
			(width 0)
			(type default)
		)
		(uuid "fbb9fc91-424c-48f9-b2a9-2298976821ee")
	)
	(wire
		(pts
			(xy 135.89 102.87) (xy 135.89 95.25)
		)
		(stroke
			(width 0)
			(type default)
		)
		(uuid "fd388763-8264-4f31-909e-d141c952729d")
	)
	(wire
		(pts
			(xy 199.39 111.76) (xy 199.39 101.6)
		)
		(stroke
			(width 0)
			(type default)
		)
		(uuid "fdcc8763-451a-4a36-b7b4-9024354c9f99")
	)
	(text "PART VALUES LIKLEY ALL WACKY HERE"
		(exclude_from_sim no)
		(at 64.77 30.48 0)
		(effects
			(font
				(size 2 2)
			)
			(justify left bottom)
		)
		(uuid "0f00f86e-ca6c-4042-8249-1dd2455f171f")
	)
	(text "full-wave precision rectrifier\ngenerates DC signal from an AC input"
		(exclude_from_sim no)
		(at 173.99 64.77 0)
		(effects
			(font
				(size 1.27 1.27)
			)
			(justify left bottom)
		)
		(uuid "4fdb8c86-5d54-407f-a36e-218b7356f80f")
	)
	(text "AC coupling filter\ncould be fancier\nfilter if needed"
		(exclude_from_sim no)
		(at 93.98 113.03 0)
		(effects
			(font
				(size 1.27 1.27)
			)
			(justify left bottom)
		)
		(uuid "6b313aef-ec93-4708-afff-dc528832dccf")
	)
	(text "use +2.5V as reference\nfor external DMM ?"
		(exclude_from_sim no)
		(at 252.73 34.29 0)
		(effects
			(font
				(size 1.27 1.27)
			)
			(justify left bottom)
		)
		(uuid "8c914bf1-8746-478e-abff-badf28415a38")
	)
	(text "check for light tight box\nby checking DC level\nat the detector output\nhere"
		(exclude_from_sim no)
		(at 90.932 40.386 0)
		(effects
			(font
				(size 1.27 1.27)
			)
			(justify left bottom)
		)
		(uuid "c98bd64e-d7a9-49da-b1c8-9ff3fc84f895")
	)
	(text "the detector stage op-amps\nuse +5V and GND,\nand a +2.5V ref"
		(exclude_from_sim no)
		(at 88.9 161.29 0)
		(effects
			(font
				(size 1.27 1.27)
			)
			(justify left bottom)
		)
		(uuid "d537c01e-5eb6-4bfa-bb2f-cd50b971a6d2")
	)
	(global_label "light-tight"
		(shape input)
		(at 95.25 43.18 0)
		(fields_autoplaced yes)
		(effects
			(font
				(size 1.27 1.27)
			)
			(justify left)
		)
		(uuid "0b864b07-a61a-476a-8ddb-281202340347")
		(property "Intersheetrefs" "${INTERSHEET_REFS}"
			(at 108.4555 43.18 0)
			(effects
				(font
					(size 1.27 1.27)
				)
				(justify left)
				(hide yes)
			)
		)
	)
	(global_label "light-tight"
		(shape input)
		(at 227.33 128.27 0)
		(fields_autoplaced yes)
		(effects
			(font
				(size 1.27 1.27)
			)
			(justify left)
		)
		(uuid "2a96f48c-32f7-4d5a-86aa-eaafc0d05e76")
		(property "Intersheetrefs" "${INTERSHEET_REFS}"
			(at 240.5355 128.27 0)
			(effects
				(font
					(size 1.27 1.27)
				)
				(justify left)
				(hide yes)
			)
		)
	)
	(global_label "detect"
		(shape input)
		(at 227.33 130.81 0)
		(fields_autoplaced yes)
		(effects
			(font
				(size 1.27 1.27)
			)
			(justify left)
		)
		(uuid "5c286cef-c125-4b26-b52a-32369d0c9c9c")
		(property "Intersheetrefs" "${INTERSHEET_REFS}"
			(at 236.1814 130.81 0)
			(effects
				(font
					(size 1.27 1.27)
				)
				(justify left)
				(hide yes)
			)
		)
	)
	(global_label "detect"
		(shape input)
		(at 274.32 50.8 0)
		(fields_autoplaced yes)
		(effects
			(font
				(size 1.27 1.27)
			)
			(justify left)
		)
		(uuid "a44cd2ca-a375-4d78-8614-5d33377e70e6")
		(property "Intersheetrefs" "${INTERSHEET_REFS}"
			(at 283.1714 50.8 0)
			(effects
				(font
					(size 1.27 1.27)
				)
				(justify left)
				(hide yes)
			)
		)
	)
	(symbol
		(lib_id "power:GND")
		(at 68.58 168.91 0)
		(unit 1)
		(exclude_from_sim no)
		(in_bom yes)
		(on_board yes)
		(dnp no)
		(fields_autoplaced yes)
		(uuid "18ffd4d0-8e00-444e-b7bc-85e17ac39498")
		(property "Reference" "#PWR03"
			(at 68.58 175.26 0)
			(effects
				(font
					(size 1.27 1.27)
				)
				(hide yes)
			)
		)
		(property "Value" "GND"
			(at 68.58 173.99 0)
			(effects
				(font
					(size 1.27 1.27)
				)
			)
		)
		(property "Footprint" ""
			(at 68.58 168.91 0)
			(effects
				(font
					(size 1.27 1.27)
				)
				(hide yes)
			)
		)
		(property "Datasheet" ""
			(at 68.58 168.91 0)
			(effects
				(font
					(size 1.27 1.27)
				)
				(hide yes)
			)
		)
		(property "Description" ""
			(at 68.58 168.91 0)
			(effects
				(font
					(size 1.27 1.27)
				)
				(hide yes)
			)
		)
		(pin "1"
			(uuid "5f62e64d-67bc-43f2-8971-4d5d037bd99e")
		)
		(instances
			(project "UV-Detector"
				(path "/91cc9d15-231f-4b99-b8f8-b41b9ee23926"
					(reference "#PWR03")
					(unit 1)
				)
			)
		)
	)
	(symbol
		(lib_id "Device:R_US")
		(at 248.92 71.12 90)
		(unit 1)
		(exclude_from_sim no)
		(in_bom yes)
		(on_board yes)
		(dnp no)
		(fields_autoplaced yes)
		(uuid "1c55660d-ddda-4a93-8e18-40cbccee4bd6")
		(property "Reference" "R5"
			(at 248.92 64.77 90)
			(effects
				(font
					(size 1.27 1.27)
				)
			)
		)
		(property "Value" "10K"
			(at 248.92 67.31 90)
			(effects
				(font
					(size 1.27 1.27)
				)
			)
		)
		(property "Footprint" "Resistor_SMD:R_0805_2012Metric_Pad1.20x1.40mm_HandSolder"
			(at 249.174 70.104 90)
			(effects
				(font
					(size 1.27 1.27)
				)
				(hide yes)
			)
		)
		(property "Datasheet" "~"
			(at 248.92 71.12 0)
			(effects
				(font
					(size 1.27 1.27)
				)
				(hide yes)
			)
		)
		(property "Description" ""
			(at 248.92 71.12 0)
			(effects
				(font
					(size 1.27 1.27)
				)
				(hide yes)
			)
		)
		(pin "1"
			(uuid "a29f0521-acc6-485f-af62-bae3bc938dfc")
		)
		(pin "2"
			(uuid "bcb574ee-f6a7-44ff-b4d8-18583845d78d")
		)
		(instances
			(project "UV-Detector"
				(path "/91cc9d15-231f-4b99-b8f8-b41b9ee23926"
					(reference "R5")
					(unit 1)
				)
			)
		)
	)
	(symbol
		(lib_id "Connector:Conn_01x05_Female")
		(at 222.25 133.35 180)
		(unit 1)
		(exclude_from_sim no)
		(in_bom yes)
		(on_board yes)
		(dnp no)
		(fields_autoplaced yes)
		(uuid "231c0b0c-227f-4ab8-9f54-2fa6c90324fd")
		(property "Reference" "J2"
			(at 222.885 123.19 0)
			(effects
				(font
					(size 1.27 1.27)
				)
			)
		)
		(property "Value" "Conn_01x05_Female"
			(at 222.885 125.73 0)
			(effects
				(font
					(size 1.27 1.27)
				)
			)
		)
		(property "Footprint" "Connector_PinSocket_2.54mm:PinSocket_1x05_P2.54mm_Vertical"
			(at 222.25 133.35 0)
			(effects
				(font
					(size 1.27 1.27)
				)
				(hide yes)
			)
		)
		(property "Datasheet" "~"
			(at 222.25 133.35 0)
			(effects
				(font
					(size 1.27 1.27)
				)
				(hide yes)
			)
		)
		(property "Description" "Generic connector, single row, 01x05, script generated (kicad-library-utils/schlib/autogen/connector/)"
			(at 222.25 133.35 0)
			(effects
				(font
					(size 1.27 1.27)
				)
				(hide yes)
			)
		)
		(pin "5"
			(uuid "5253e650-402e-4af6-bda7-f5b9acaa677d")
		)
		(pin "4"
			(uuid "ceb45fb8-2b62-4137-9e2b-3624cbcece3f")
		)
		(pin "1"
			(uuid "bd1296dd-e36b-4c9c-b981-447d991be6e6")
		)
		(pin "2"
			(uuid "3ecb1332-ceaf-4acd-be2f-be0127150359")
		)
		(pin "3"
			(uuid "675ec166-eb4b-4c57-afd5-4cd217bd4822")
		)
		(instances
			(project "UV-Detector"
				(path "/91cc9d15-231f-4b99-b8f8-b41b9ee23926"
					(reference "J2")
					(unit 1)
				)
			)
		)
	)
	(symbol
		(lib_id "symbols:SD008-2171-112")
		(at 49.53 92.71 270)
		(unit 1)
		(exclude_from_sim no)
		(in_bom yes)
		(on_board yes)
		(dnp no)
		(uuid "267847c0-2086-43ab-abf2-9ecca9b712da")
		(property "Reference" "D3"
			(at 54.61 91.4399 90)
			(effects
				(font
					(size 1.27 1.27)
				)
				(justify left)
			)
		)
		(property "Value" "SD008-2171-112"
			(at 26.162 86.614 90)
			(effects
				(font
					(size 1.27 1.27)
				)
				(justify left)
			)
		)
		(property "Footprint" "Package_TO_SOT_THT:TO-46-3"
			(at 58.42 92.71 0)
			(effects
				(font
					(size 1.27 1.27)
				)
				(hide yes)
			)
		)
		(property "Datasheet" "https://www.hamamatsu.com/resources/pdf/ssd/s5971_etc_kpin1025e.pdf"
			(at 30.48 96.266 0)
			(effects
				(font
					(size 1.27 1.27)
				)
				(hide yes)
			)
		)
		(property "Description" "Si PIN Photodiode, 0.1 GHz, TO-18-3"
			(at 33.02 96.266 0)
			(effects
				(font
					(size 1.27 1.27)
				)
				(hide yes)
			)
		)
		(pin "2"
			(uuid "a31ab774-1533-4b03-a959-517b9362d6af")
		)
		(pin "3"
			(uuid "399dee8a-ee3d-41fa-84ef-5b470fe9ab6e")
		)
		(pin "1"
			(uuid "112a1c31-1095-45a6-8e4c-292b17f0b615")
		)
		(instances
			(project "UV-Detector"
				(path "/91cc9d15-231f-4b99-b8f8-b41b9ee23926"
					(reference "D3")
					(unit 1)
				)
			)
		)
	)
	(symbol
		(lib_id "Amplifier_Operational:OPA4340UA")
		(at 71.12 158.75 0)
		(unit 5)
		(exclude_from_sim no)
		(in_bom yes)
		(on_board yes)
		(dnp no)
		(fields_autoplaced yes)
		(uuid "2bacdaf9-c4c1-4277-861e-e85558fabac0")
		(property "Reference" "U1"
			(at 69.85 157.48 0)
			(effects
				(font
					(size 1.27 1.27)
				)
				(justify left)
			)
		)
		(property "Value" "OPA4340UA"
			(at 69.85 160.02 0)
			(effects
				(font
					(size 1.27 1.27)
				)
				(justify left)
			)
		)
		(property "Footprint" "Package_SO:SOIC-14_3.9x8.7mm_P1.27mm"
			(at 69.85 156.21 0)
			(effects
				(font
					(size 1.27 1.27)
				)
				(hide yes)
			)
		)
		(property "Datasheet" "http://www.ti.com/lit/ds/symlink/opa340.pdf"
			(at 72.39 153.67 0)
			(effects
				(font
					(size 1.27 1.27)
				)
				(hide yes)
			)
		)
		(property "Description" ""
			(at 71.12 158.75 0)
			(effects
				(font
					(size 1.27 1.27)
				)
				(hide yes)
			)
		)
		(pin "3"
			(uuid "2b3cfe76-ed02-4d0e-b718-178c1d687fff")
		)
		(pin "12"
			(uuid "56338be3-6a58-4b5d-98fa-8144be26e1fb")
		)
		(pin "14"
			(uuid "18606cca-477b-4492-a002-cf4d5b671840")
		)
		(pin "4"
			(uuid "303f4dd8-eafa-4d3c-825c-3f9425bbe4a0")
		)
		(pin "1"
			(uuid "46cddc40-5991-40e2-8e7b-4d4734e260b8")
		)
		(pin "2"
			(uuid "b1d2c095-6a2e-4a7e-a9c4-39e366e26958")
		)
		(pin "5"
			(uuid "ed8ba09c-70f0-4c20-b3cf-eec9aa5da44c")
		)
		(pin "6"
			(uuid "ce61f3ef-1329-4e21-b4c3-65be0fc76113")
		)
		(pin "7"
			(uuid "513442fc-5602-4a87-895e-a3e70116103c")
		)
		(pin "11"
			(uuid "c21416bb-d060-4064-9fe2-225f85722a63")
		)
		(pin "13"
			(uuid "1438ba5d-481f-4238-8293-d38f9435d13a")
		)
		(pin "10"
			(uuid "22d92ecb-219e-469a-a459-7c93061bc3da")
		)
		(pin "8"
			(uuid "9c9b6c89-1d98-4b95-8acd-8cdc8e79ddc5")
		)
		(pin "9"
			(uuid "0b129bc4-e7e4-4b04-b2b0-f1a9c5e1ed71")
		)
		(instances
			(project "UV-Detector"
				(path "/91cc9d15-231f-4b99-b8f8-b41b9ee23926"
					(reference "U1")
					(unit 5)
				)
			)
		)
	)
	(symbol
		(lib_id "Device:R_US")
		(at 228.6 85.09 90)
		(unit 1)
		(exclude_from_sim no)
		(in_bom yes)
		(on_board yes)
		(dnp no)
		(fields_autoplaced yes)
		(uuid "2e8c9506-a8b2-44cf-8749-9779d8c3aa3b")
		(property "Reference" "R4"
			(at 228.6 78.74 90)
			(effects
				(font
					(size 1.27 1.27)
				)
			)
		)
		(property "Value" "4.99K"
			(at 228.6 81.28 90)
			(effects
				(font
					(size 1.27 1.27)
				)
			)
		)
		(property "Footprint" "Resistor_SMD:R_0805_2012Metric_Pad1.20x1.40mm_HandSolder"
			(at 228.854 84.074 90)
			(effects
				(font
					(size 1.27 1.27)
				)
				(hide yes)
			)
		)
		(property "Datasheet" "~"
			(at 228.6 85.09 0)
			(effects
				(font
					(size 1.27 1.27)
				)
				(hide yes)
			)
		)
		(property "Description" ""
			(at 228.6 85.09 0)
			(effects
				(font
					(size 1.27 1.27)
				)
				(hide yes)
			)
		)
		(pin "1"
			(uuid "27694b7e-39e7-4733-8903-bd942c246cd1")
		)
		(pin "2"
			(uuid "27385113-594d-4c77-94b9-3aed0c00b6dc")
		)
		(instances
			(project "UV-Detector"
				(path "/91cc9d15-231f-4b99-b8f8-b41b9ee23926"
					(reference "R4")
					(unit 1)
				)
			)
		)
	)
	(symbol
		(lib_id "Device:R_US")
		(at 76.2 68.58 90)
		(unit 1)
		(exclude_from_sim no)
		(in_bom yes)
		(on_board yes)
		(dnp no)
		(uuid "2ec97749-5b3f-4758-9832-029e64ca8f3c")
		(property "Reference" "R6"
			(at 72.39 66.04 90)
			(effects
				(font
					(size 1.27 1.27)
				)
			)
		)
		(property "Value" "10K"
			(at 72.39 71.12 90)
			(effects
				(font
					(size 1.27 1.27)
				)
			)
		)
		(property "Footprint" "Resistor_SMD:R_0805_2012Metric_Pad1.20x1.40mm_HandSolder"
			(at 76.454 67.564 90)
			(effects
				(font
					(size 1.27 1.27)
				)
				(hide yes)
			)
		)
		(property "Datasheet" "~"
			(at 76.2 68.58 0)
			(effects
				(font
					(size 1.27 1.27)
				)
				(hide yes)
			)
		)
		(property "Description" ""
			(at 76.2 68.58 0)
			(effects
				(font
					(size 1.27 1.27)
				)
				(hide yes)
			)
		)
		(pin "1"
			(uuid "5f763eb1-50c8-4341-abe7-d251999b46b0")
		)
		(pin "2"
			(uuid "953a2b3f-944d-4005-9eac-d970a5746e18")
		)
		(instances
			(project "UV-Detector"
				(path "/91cc9d15-231f-4b99-b8f8-b41b9ee23926"
					(reference "R6")
					(unit 1)
				)
			)
		)
	)
	(symbol
		(lib_id "power:GND")
		(at 41.91 92.71 0)
		(unit 1)
		(exclude_from_sim no)
		(in_bom yes)
		(on_board yes)
		(dnp no)
		(fields_autoplaced yes)
		(uuid "378d7fd1-6af6-4cf8-bf3e-98d3bf96433a")
		(property "Reference" "#PWR012"
			(at 41.91 99.06 0)
			(effects
				(font
					(size 1.27 1.27)
				)
				(hide yes)
			)
		)
		(property "Value" "GND"
			(at 41.91 97.79 0)
			(effects
				(font
					(size 1.27 1.27)
				)
			)
		)
		(property "Footprint" ""
			(at 41.91 92.71 0)
			(effects
				(font
					(size 1.27 1.27)
				)
				(hide yes)
			)
		)
		(property "Datasheet" ""
			(at 41.91 92.71 0)
			(effects
				(font
					(size 1.27 1.27)
				)
				(hide yes)
			)
		)
		(property "Description" ""
			(at 41.91 92.71 0)
			(effects
				(font
					(size 1.27 1.27)
				)
				(hide yes)
			)
		)
		(pin "1"
			(uuid "95f82dc3-225a-499c-a7ec-12953c7b0264")
		)
		(instances
			(project "UV-Detector"
				(path "/91cc9d15-231f-4b99-b8f8-b41b9ee23926"
					(reference "#PWR012")
					(unit 1)
				)
			)
		)
	)
	(symbol
		(lib_id "Mechanical:MountingHole")
		(at 191.77 147.32 0)
		(unit 1)
		(exclude_from_sim no)
		(in_bom yes)
		(on_board yes)
		(dnp no)
		(fields_autoplaced yes)
		(uuid "3b51459e-9276-4a81-9fd0-18a37f742b56")
		(property "Reference" "H2"
			(at 194.31 146.0499 0)
			(effects
				(font
					(size 1.27 1.27)
				)
				(justify left)
			)
		)
		(property "Value" "MountingHole"
			(at 194.31 148.5899 0)
			(effects
				(font
					(size 1.27 1.27)
				)
				(justify left)
			)
		)
		(property "Footprint" "MountingHole:MountingHole_2.7mm_M2.5"
			(at 191.77 147.32 0)
			(effects
				(font
					(size 1.27 1.27)
				)
				(hide yes)
			)
		)
		(property "Datasheet" "~"
			(at 191.77 147.32 0)
			(effects
				(font
					(size 1.27 1.27)
				)
				(hide yes)
			)
		)
		(property "Description" "Mounting Hole without connection"
			(at 191.77 147.32 0)
			(effects
				(font
					(size 1.27 1.27)
				)
				(hide yes)
			)
		)
		(instances
			(project "UV-Detector"
				(path "/91cc9d15-231f-4b99-b8f8-b41b9ee23926"
					(reference "H2")
					(unit 1)
				)
			)
		)
	)
	(symbol
		(lib_id "Device:R_US")
		(at 186.69 85.09 90)
		(unit 1)
		(exclude_from_sim no)
		(in_bom yes)
		(on_board yes)
		(dnp no)
		(fields_autoplaced yes)
		(uuid "3e33c480-c73d-4170-8159-7579bb7dd6f4")
		(property "Reference" "R2"
			(at 186.69 78.74 90)
			(effects
				(font
					(size 1.27 1.27)
				)
			)
		)
		(property "Value" "10K"
			(at 186.69 81.28 90)
			(effects
				(font
					(size 1.27 1.27)
				)
			)
		)
		(property "Footprint" "Resistor_SMD:R_0805_2012Metric_Pad1.20x1.40mm_HandSolder"
			(at 186.944 84.074 90)
			(effects
				(font
					(size 1.27 1.27)
				)
				(hide yes)
			)
		)
		(property "Datasheet" "~"
			(at 186.69 85.09 0)
			(effects
				(font
					(size 1.27 1.27)
				)
				(hide yes)
			)
		)
		(property "Description" ""
			(at 186.69 85.09 0)
			(effects
				(font
					(size 1.27 1.27)
				)
				(hide yes)
			)
		)
		(pin "1"
			(uuid "df99f546-3660-4380-bc8a-d5e0bde87638")
		)
		(pin "2"
			(uuid "5f8a95ce-c84c-44cb-a4a7-30c50f5d07de")
		)
		(instances
			(project "UV-Detector"
				(path "/91cc9d15-231f-4b99-b8f8-b41b9ee23926"
					(reference "R2")
					(unit 1)
				)
			)
		)
	)
	(symbol
		(lib_id "power:+2V5")
		(at 228.6 105.41 0)
		(unit 1)
		(exclude_from_sim no)
		(in_bom yes)
		(on_board yes)
		(dnp no)
		(fields_autoplaced yes)
		(uuid "5fa57235-4e15-4e88-942e-00ba7095ef6f")
		(property "Reference" "#PWR05"
			(at 228.6 109.22 0)
			(effects
				(font
					(size 1.27 1.27)
				)
				(hide yes)
			)
		)
		(property "Value" "+2V5"
			(at 228.6 100.33 0)
			(effects
				(font
					(size 1.27 1.27)
				)
			)
		)
		(property "Footprint" ""
			(at 228.6 105.41 0)
			(effects
				(font
					(size 1.27 1.27)
				)
				(hide yes)
			)
		)
		(property "Datasheet" ""
			(at 228.6 105.41 0)
			(effects
				(font
					(size 1.27 1.27)
				)
				(hide yes)
			)
		)
		(property "Description" ""
			(at 228.6 105.41 0)
			(effects
				(font
					(size 1.27 1.27)
				)
				(hide yes)
			)
		)
		(pin "1"
			(uuid "9c81b149-3428-4a3b-b86f-cd9b6ef74c2a")
		)
		(instances
			(project "UV-Detector"
				(path "/91cc9d15-231f-4b99-b8f8-b41b9ee23926"
					(reference "#PWR05")
					(unit 1)
				)
			)
		)
	)
	(symbol
		(lib_id "power:+2V5")
		(at 39.37 114.3 0)
		(unit 1)
		(exclude_from_sim no)
		(in_bom yes)
		(on_board yes)
		(dnp no)
		(fields_autoplaced yes)
		(uuid "63e32efc-5d50-4d56-8d92-add67a71ce8d")
		(property "Reference" "#PWR01"
			(at 39.37 118.11 0)
			(effects
				(font
					(size 1.27 1.27)
				)
				(hide yes)
			)
		)
		(property "Value" "+2V5"
			(at 39.37 109.22 0)
			(effects
				(font
					(size 1.27 1.27)
				)
			)
		)
		(property "Footprint" ""
			(at 39.37 114.3 0)
			(effects
				(font
					(size 1.27 1.27)
				)
				(hide yes)
			)
		)
		(property "Datasheet" ""
			(at 39.37 114.3 0)
			(effects
				(font
					(size 1.27 1.27)
				)
				(hide yes)
			)
		)
		(property "Description" ""
			(at 39.37 114.3 0)
			(effects
				(font
					(size 1.27 1.27)
				)
				(hide yes)
			)
		)
		(pin "1"
			(uuid "e3632e95-80c8-4af1-aa11-07fe45967017")
		)
		(instances
			(project "UV-Detector"
				(path "/91cc9d15-231f-4b99-b8f8-b41b9ee23926"
					(reference "#PWR01")
					(unit 1)
				)
			)
		)
	)
	(symbol
		(lib_id "Amplifier_Operational:OPA4340UA")
		(at 185.42 111.76 0)
		(mirror x)
		(unit 3)
		(exclude_from_sim no)
		(in_bom yes)
		(on_board yes)
		(dnp no)
		(uuid "6a56baa8-0e3f-4bb9-94bb-48b48914f3a9")
		(property "Reference" "U1"
			(at 189.23 118.11 0)
			(effects
				(font
					(size 1.27 1.27)
				)
			)
		)
		(property "Value" "OPA4340UA"
			(at 193.04 115.57 0)
			(effects
				(font
					(size 1.27 1.27)
				)
			)
		)
		(property "Footprint" "Package_SO:SOIC-14_3.9x8.7mm_P1.27mm"
			(at 184.15 114.3 0)
			(effects
				(font
					(size 1.27 1.27)
				)
				(hide yes)
			)
		)
		(property "Datasheet" "http://www.ti.com/lit/ds/symlink/opa340.pdf"
			(at 186.69 116.84 0)
			(effects
				(font
					(size 1.27 1.27)
				)
				(hide yes)
			)
		)
		(property "Description" ""
			(at 185.42 111.76 0)
			(effects
				(font
					(size 1.27 1.27)
				)
				(hide yes)
			)
		)
		(pin "3"
			(uuid "2b3cfe76-ed02-4d0e-b718-178c1d688000")
		)
		(pin "12"
			(uuid "56338be3-6a58-4b5d-98fa-8144be26e1fc")
		)
		(pin "14"
			(uuid "18606cca-477b-4492-a002-cf4d5b671841")
		)
		(pin "4"
			(uuid "cf4ebf61-6af1-4c81-a3a0-f4cbed37e823")
		)
		(pin "1"
			(uuid "46cddc40-5991-40e2-8e7b-4d4734e260b9")
		)
		(pin "2"
			(uuid "b1d2c095-6a2e-4a7e-a9c4-39e366e26959")
		)
		(pin "5"
			(uuid "ed8ba09c-70f0-4c20-b3cf-eec9aa5da44d")
		)
		(pin "6"
			(uuid "ce61f3ef-1329-4e21-b4c3-65be0fc76114")
		)
		(pin "7"
			(uuid "513442fc-5602-4a87-895e-a3e70116103d")
		)
		(pin "11"
			(uuid "ca565a94-c561-4eff-8b5a-6d8cf76ebf1f")
		)
		(pin "13"
			(uuid "1438ba5d-481f-4238-8293-d38f9435d13b")
		)
		(pin "10"
			(uuid "c89820ce-c931-4a38-a01f-f5732a19e8b0")
		)
		(pin "8"
			(uuid "e676e5ee-5c56-4af1-b274-b438caf1544f")
		)
		(pin "9"
			(uuid "214fd3b0-bed6-4a84-8dfd-91117ea4b8d5")
		)
		(instances
			(project "UV-Detector"
				(path "/91cc9d15-231f-4b99-b8f8-b41b9ee23926"
					(reference "U1")
					(unit 3)
				)
			)
		)
	)
	(symbol
		(lib_id "Device:R_US")
		(at 107.95 91.44 180)
		(unit 1)
		(exclude_from_sim no)
		(in_bom yes)
		(on_board yes)
		(dnp no)
		(fields_autoplaced yes)
		(uuid "799b58cd-b472-494c-b305-32a7eefa5629")
		(property "Reference" "R7"
			(at 110.49 90.17 0)
			(effects
				(font
					(size 1.27 1.27)
				)
				(justify right)
			)
		)
		(property "Value" "10K"
			(at 110.49 92.71 0)
			(effects
				(font
					(size 1.27 1.27)
				)
				(justify right)
			)
		)
		(property "Footprint" "Resistor_SMD:R_0805_2012Metric_Pad1.20x1.40mm_HandSolder"
			(at 106.934 91.186 90)
			(effects
				(font
					(size 1.27 1.27)
				)
				(hide yes)
			)
		)
		(property "Datasheet" "~"
			(at 107.95 91.44 0)
			(effects
				(font
					(size 1.27 1.27)
				)
				(hide yes)
			)
		)
		(property "Description" ""
			(at 107.95 91.44 0)
			(effects
				(font
					(size 1.27 1.27)
				)
				(hide yes)
			)
		)
		(pin "1"
			(uuid "40da6263-eed0-4c9b-80a6-c7baed28439f")
		)
		(pin "2"
			(uuid "9de80341-6313-4f73-b739-b000db35ee87")
		)
		(instances
			(project "UV-Detector"
				(path "/91cc9d15-231f-4b99-b8f8-b41b9ee23926"
					(reference "R7")
					(unit 1)
				)
			)
		)
	)
	(symbol
		(lib_id "Device:R_US")
		(at 127 83.82 270)
		(unit 1)
		(exclude_from_sim no)
		(in_bom yes)
		(on_board yes)
		(dnp no)
		(fields_autoplaced yes)
		(uuid "7d578e9f-07dd-4842-bdbe-a94c509ce00a")
		(property "Reference" "R8"
			(at 127 77.47 90)
			(effects
				(font
					(size 1.27 1.27)
				)
			)
		)
		(property "Value" "10K"
			(at 127 80.01 90)
			(effects
				(font
					(size 1.27 1.27)
				)
			)
		)
		(property "Footprint" "Resistor_SMD:R_0805_2012Metric_Pad1.20x1.40mm_HandSolder"
			(at 126.746 84.836 90)
			(effects
				(font
					(size 1.27 1.27)
				)
				(hide yes)
			)
		)
		(property "Datasheet" "~"
			(at 127 83.82 0)
			(effects
				(font
					(size 1.27 1.27)
				)
				(hide yes)
			)
		)
		(property "Description" ""
			(at 127 83.82 0)
			(effects
				(font
					(size 1.27 1.27)
				)
				(hide yes)
			)
		)
		(pin "1"
			(uuid "3c4f540c-e232-4b24-85d2-4670d91576e2")
		)
		(pin "2"
			(uuid "f61b3d42-9b0e-4596-9619-1559f2ff6603")
		)
		(instances
			(project "UV-Detector"
				(path "/91cc9d15-231f-4b99-b8f8-b41b9ee23926"
					(reference "R8")
					(unit 1)
				)
			)
		)
	)
	(symbol
		(lib_id "Mechanical:MountingHole")
		(at 191.77 154.94 0)
		(unit 1)
		(exclude_from_sim no)
		(in_bom yes)
		(on_board yes)
		(dnp no)
		(fields_autoplaced yes)
		(uuid "8424cd8f-54d3-48f3-885d-d2f7ff99c5fa")
		(property "Reference" "H3"
			(at 194.31 153.6699 0)
			(effects
				(font
					(size 1.27 1.27)
				)
				(justify left)
			)
		)
		(property "Value" "MountingHole"
			(at 194.31 156.2099 0)
			(effects
				(font
					(size 1.27 1.27)
				)
				(justify left)
			)
		)
		(property "Footprint" "MountingHole:MountingHole_2.7mm_M2.5"
			(at 191.77 154.94 0)
			(effects
				(font
					(size 1.27 1.27)
				)
				(hide yes)
			)
		)
		(property "Datasheet" "~"
			(at 191.77 154.94 0)
			(effects
				(font
					(size 1.27 1.27)
				)
				(hide yes)
			)
		)
		(property "Description" "Mounting Hole without connection"
			(at 191.77 154.94 0)
			(effects
				(font
					(size 1.27 1.27)
				)
				(hide yes)
			)
		)
		(instances
			(project "UV-Detector"
				(path "/91cc9d15-231f-4b99-b8f8-b41b9ee23926"
					(reference "H3")
					(unit 1)
				)
			)
		)
	)
	(symbol
		(lib_id "Device:C")
		(at 99.06 83.82 90)
		(unit 1)
		(exclude_from_sim no)
		(in_bom yes)
		(on_board yes)
		(dnp no)
		(fields_autoplaced yes)
		(uuid "8c5f9ad8-8ad2-48b5-9eed-4c0d2cd9d842")
		(property "Reference" "C3"
			(at 99.06 76.2 90)
			(effects
				(font
					(size 1.27 1.27)
				)
			)
		)
		(property "Value" "1uF"
			(at 99.06 78.74 90)
			(effects
				(font
					(size 1.27 1.27)
				)
			)
		)
		(property "Footprint" "Capacitor_SMD:C_0805_2012Metric_Pad1.18x1.45mm_HandSolder"
			(at 102.87 82.8548 0)
			(effects
				(font
					(size 1.27 1.27)
				)
				(hide yes)
			)
		)
		(property "Datasheet" "~"
			(at 99.06 83.82 0)
			(effects
				(font
					(size 1.27 1.27)
				)
				(hide yes)
			)
		)
		(property "Description" ""
			(at 99.06 83.82 0)
			(effects
				(font
					(size 1.27 1.27)
				)
				(hide yes)
			)
		)
		(pin "1"
			(uuid "bacb3ae4-3471-4705-adb8-d6f13e19e1e1")
		)
		(pin "2"
			(uuid "3daf1327-be7f-45d8-bbfa-3d3b9501b184")
		)
		(instances
			(project "UV-Detector"
				(path "/91cc9d15-231f-4b99-b8f8-b41b9ee23926"
					(reference "C3")
					(unit 1)
				)
			)
		)
	)
	(symbol
		(lib_id "Device:C")
		(at 248.92 57.15 90)
		(unit 1)
		(exclude_from_sim no)
		(in_bom yes)
		(on_board yes)
		(dnp no)
		(fields_autoplaced yes)
		(uuid "906cfe0f-dd45-46ae-9bd5-9caa515b91b0")
		(property "Reference" "C1"
			(at 248.92 49.53 90)
			(effects
				(font
					(size 1.27 1.27)
				)
			)
		)
		(property "Value" "1uF"
			(at 248.92 52.07 90)
			(effects
				(font
					(size 1.27 1.27)
				)
			)
		)
		(property "Footprint" "Capacitor_SMD:C_0805_2012Metric_Pad1.18x1.45mm_HandSolder"
			(at 252.73 56.1848 0)
			(effects
				(font
					(size 1.27 1.27)
				)
				(hide yes)
			)
		)
		(property "Datasheet" "~"
			(at 248.92 57.15 0)
			(effects
				(font
					(size 1.27 1.27)
				)
				(hide yes)
			)
		)
		(property "Description" ""
			(at 248.92 57.15 0)
			(effects
				(font
					(size 1.27 1.27)
				)
				(hide yes)
			)
		)
		(pin "1"
			(uuid "4d393a02-3aa2-4545-aa52-e01fec23e328")
		)
		(pin "2"
			(uuid "c96ca91a-2215-46bb-bc86-a54aa9e36a77")
		)
		(instances
			(project "UV-Detector"
				(path "/91cc9d15-231f-4b99-b8f8-b41b9ee23926"
					(reference "C1")
					(unit 1)
				)
			)
		)
	)
	(symbol
		(lib_id "power:+2V5")
		(at 130.81 102.87 0)
		(unit 1)
		(exclude_from_sim no)
		(in_bom yes)
		(on_board yes)
		(dnp no)
		(fields_autoplaced yes)
		(uuid "9fd114e3-3918-4224-8c1b-f3efe22d7dea")
		(property "Reference" "#PWR08"
			(at 130.81 106.68 0)
			(effects
				(font
					(size 1.27 1.27)
				)
				(hide yes)
			)
		)
		(property "Value" "+2V5"
			(at 130.81 97.79 0)
			(effects
				(font
					(size 1.27 1.27)
				)
			)
		)
		(property "Footprint" ""
			(at 130.81 102.87 0)
			(effects
				(font
					(size 1.27 1.27)
				)
				(hide yes)
			)
		)
		(property "Datasheet" ""
			(at 130.81 102.87 0)
			(effects
				(font
					(size 1.27 1.27)
				)
				(hide yes)
			)
		)
		(property "Description" ""
			(at 130.81 102.87 0)
			(effects
				(font
					(size 1.27 1.27)
				)
				(hide yes)
			)
		)
		(pin "1"
			(uuid "6269d0eb-c5f5-4f94-82f5-52ac9c950bc1")
		)
		(instances
			(project "UV-Detector"
				(path "/91cc9d15-231f-4b99-b8f8-b41b9ee23926"
					(reference "#PWR08")
					(unit 1)
				)
			)
		)
	)
	(symbol
		(lib_id "Diode:BAT54S")
		(at 199.39 96.52 0)
		(mirror y)
		(unit 1)
		(exclude_from_sim no)
		(in_bom yes)
		(on_board yes)
		(dnp no)
		(uuid "a2e8656b-c99e-45f0-b6fb-11ef50b2547c")
		(property "Reference" "D1"
			(at 199.39 90.17 0)
			(effects
				(font
					(size 1.27 1.27)
				)
			)
		)
		(property "Value" "BAT54S"
			(at 199.39 92.71 0)
			(effects
				(font
					(size 1.27 1.27)
				)
			)
		)
		(property "Footprint" "Package_TO_SOT_SMD:SOT-23"
			(at 197.485 93.345 0)
			(effects
				(font
					(size 1.27 1.27)
				)
				(justify left)
				(hide yes)
			)
		)
		(property "Datasheet" "https://www.diodes.com/assets/Datasheets/ds11005.pdf"
			(at 202.438 96.52 0)
			(effects
				(font
					(size 1.27 1.27)
				)
				(hide yes)
			)
		)
		(property "Description" ""
			(at 199.39 96.52 0)
			(effects
				(font
					(size 1.27 1.27)
				)
				(hide yes)
			)
		)
		(pin "2"
			(uuid "d1ea9a4f-428e-4359-a398-1f4c9ebef2d9")
		)
		(pin "1"
			(uuid "5f5365a6-5137-45fc-8549-1ebb2135e954")
		)
		(pin "3"
			(uuid "c7d482c4-cd23-4c0c-9177-819ae4e9583e")
		)
		(instances
			(project "UV-Detector"
				(path "/91cc9d15-231f-4b99-b8f8-b41b9ee23926"
					(reference "D1")
					(unit 1)
				)
			)
		)
	)
	(symbol
		(lib_id "power:GND")
		(at 227.33 138.43 0)
		(unit 1)
		(exclude_from_sim no)
		(in_bom yes)
		(on_board yes)
		(dnp no)
		(fields_autoplaced yes)
		(uuid "b144604e-98bc-4f03-928c-04a9aabbb44d")
		(property "Reference" "#PWR011"
			(at 227.33 144.78 0)
			(effects
				(font
					(size 1.27 1.27)
				)
				(hide yes)
			)
		)
		(property "Value" "GND"
			(at 227.33 143.51 0)
			(effects
				(font
					(size 1.27 1.27)
				)
			)
		)
		(property "Footprint" ""
			(at 227.33 138.43 0)
			(effects
				(font
					(size 1.27 1.27)
				)
				(hide yes)
			)
		)
		(property "Datasheet" ""
			(at 227.33 138.43 0)
			(effects
				(font
					(size 1.27 1.27)
				)
				(hide yes)
			)
		)
		(property "Description" ""
			(at 227.33 138.43 0)
			(effects
				(font
					(size 1.27 1.27)
				)
				(hide yes)
			)
		)
		(pin "1"
			(uuid "b652bb64-622f-417f-9ede-ea9a73081988")
		)
		(instances
			(project "UV-Detector"
				(path "/91cc9d15-231f-4b99-b8f8-b41b9ee23926"
					(reference "#PWR011")
					(unit 1)
				)
			)
		)
	)
	(symbol
		(lib_id "power:+2V5")
		(at 102.87 102.87 0)
		(unit 1)
		(exclude_from_sim no)
		(in_bom yes)
		(on_board yes)
		(dnp no)
		(fields_autoplaced yes)
		(uuid "b531edb9-5169-42cf-9654-246899599cab")
		(property "Reference" "#PWR06"
			(at 102.87 106.68 0)
			(effects
				(font
					(size 1.27 1.27)
				)
				(hide yes)
			)
		)
		(property "Value" "+2V5"
			(at 102.87 97.79 0)
			(effects
				(font
					(size 1.27 1.27)
				)
			)
		)
		(property "Footprint" ""
			(at 102.87 102.87 0)
			(effects
				(font
					(size 1.27 1.27)
				)
				(hide yes)
			)
		)
		(property "Datasheet" ""
			(at 102.87 102.87 0)
			(effects
				(font
					(size 1.27 1.27)
				)
				(hide yes)
			)
		)
		(property "Description" ""
			(at 102.87 102.87 0)
			(effects
				(font
					(size 1.27 1.27)
				)
				(hide yes)
			)
		)
		(pin "1"
			(uuid "a7d07d81-e3cf-4fd5-9c35-62dcea88979a")
		)
		(instances
			(project "UV-Detector"
				(path "/91cc9d15-231f-4b99-b8f8-b41b9ee23926"
					(reference "#PWR06")
					(unit 1)
				)
			)
		)
	)
	(symbol
		(lib_id "power:+2V5")
		(at 248.92 33.02 0)
		(unit 1)
		(exclude_from_sim no)
		(in_bom yes)
		(on_board yes)
		(dnp no)
		(fields_autoplaced yes)
		(uuid "b6124346-0c0b-472c-81a1-c339995fbf22")
		(property "Reference" "#PWR07"
			(at 248.92 36.83 0)
			(effects
				(font
					(size 1.27 1.27)
				)
				(hide yes)
			)
		)
		(property "Value" "+2V5"
			(at 248.92 27.94 0)
			(effects
				(font
					(size 1.27 1.27)
				)
			)
		)
		(property "Footprint" ""
			(at 248.92 33.02 0)
			(effects
				(font
					(size 1.27 1.27)
				)
				(hide yes)
			)
		)
		(property "Datasheet" ""
			(at 248.92 33.02 0)
			(effects
				(font
					(size 1.27 1.27)
				)
				(hide yes)
			)
		)
		(property "Description" ""
			(at 248.92 33.02 0)
			(effects
				(font
					(size 1.27 1.27)
				)
				(hide yes)
			)
		)
		(pin "1"
			(uuid "57221759-a703-45e4-b224-1542b44c11a7")
		)
		(instances
			(project "UV-Detector"
				(path "/91cc9d15-231f-4b99-b8f8-b41b9ee23926"
					(reference "#PWR07")
					(unit 1)
				)
			)
		)
	)
	(symbol
		(lib_id "Amplifier_Operational:OPA4340UA")
		(at 74.93 83.82 0)
		(mirror x)
		(unit 4)
		(exclude_from_sim no)
		(in_bom yes)
		(on_board yes)
		(dnp no)
		(uuid "bfe47b0d-8153-4af3-a703-d28206af229b")
		(property "Reference" "U1"
			(at 74.93 93.98 0)
			(effects
				(font
					(size 1.27 1.27)
				)
			)
		)
		(property "Value" "OPA4340UA"
			(at 74.93 91.44 0)
			(effects
				(font
					(size 1.27 1.27)
				)
			)
		)
		(property "Footprint" "Package_SO:SOIC-14_3.9x8.7mm_P1.27mm"
			(at 73.66 86.36 0)
			(effects
				(font
					(size 1.27 1.27)
				)
				(hide yes)
			)
		)
		(property "Datasheet" "http://www.ti.com/lit/ds/symlink/opa340.pdf"
			(at 76.2 88.9 0)
			(effects
				(font
					(size 1.27 1.27)
				)
				(hide yes)
			)
		)
		(property "Description" ""
			(at 74.93 83.82 0)
			(effects
				(font
					(size 1.27 1.27)
				)
				(hide yes)
			)
		)
		(pin "3"
			(uuid "2b3cfe76-ed02-4d0e-b718-178c1d687ffe")
		)
		(pin "12"
			(uuid "446a132e-1b60-4718-b947-40cf8093f4c7")
		)
		(pin "14"
			(uuid "083bd097-c0b2-423e-bc90-b489ff6bde22")
		)
		(pin "4"
			(uuid "cf4ebf61-6af1-4c81-a3a0-f4cbed37e821")
		)
		(pin "1"
			(uuid "46cddc40-5991-40e2-8e7b-4d4734e260b7")
		)
		(pin "2"
			(uuid "b1d2c095-6a2e-4a7e-a9c4-39e366e26957")
		)
		(pin "5"
			(uuid "ed8ba09c-70f0-4c20-b3cf-eec9aa5da44b")
		)
		(pin "6"
			(uuid "ce61f3ef-1329-4e21-b4c3-65be0fc76112")
		)
		(pin "7"
			(uuid "513442fc-5602-4a87-895e-a3e70116103b")
		)
		(pin "11"
			(uuid "ca565a94-c561-4eff-8b5a-6d8cf76ebf1d")
		)
		(pin "13"
			(uuid "7eea3a83-277b-43c3-955b-6f5b37f845ca")
		)
		(pin "10"
			(uuid "22d92ecb-219e-469a-a459-7c93061bc3d9")
		)
		(pin "8"
			(uuid "9c9b6c89-1d98-4b95-8acd-8cdc8e79ddc4")
		)
		(pin "9"
			(uuid "0b129bc4-e7e4-4b04-b2b0-f1a9c5e1ed70")
		)
		(instances
			(project "UV-Detector"
				(path "/91cc9d15-231f-4b99-b8f8-b41b9ee23926"
					(reference "U1")
					(unit 4)
				)
			)
		)
	)
	(symbol
		(lib_id "Device:R_US")
		(at 228.6 71.12 90)
		(unit 1)
		(exclude_from_sim no)
		(in_bom yes)
		(on_board yes)
		(dnp no)
		(fields_autoplaced yes)
		(uuid "c16fc5ff-3772-4fef-b76a-f6a82cfb888d")
		(property "Reference" "R3"
			(at 228.6 64.77 90)
			(effects
				(font
					(size 1.27 1.27)
				)
			)
		)
		(property "Value" "10K"
			(at 228.6 67.31 90)
			(effects
				(font
					(size 1.27 1.27)
				)
			)
		)
		(property "Footprint" "Resistor_SMD:R_0805_2012Metric_Pad1.20x1.40mm_HandSolder"
			(at 228.854 70.104 90)
			(effects
				(font
					(size 1.27 1.27)
				)
				(hide yes)
			)
		)
		(property "Datasheet" "~"
			(at 228.6 71.12 0)
			(effects
				(font
					(size 1.27 1.27)
				)
				(hide yes)
			)
		)
		(property "Description" ""
			(at 228.6 71.12 0)
			(effects
				(font
					(size 1.27 1.27)
				)
				(hide yes)
			)
		)
		(pin "1"
			(uuid "c819663a-6c5f-4e38-91c4-10e6d1fdaa65")
		)
		(pin "2"
			(uuid "df98cd35-57d9-4fa5-91b9-4848d163b6f7")
		)
		(instances
			(project "UV-Detector"
				(path "/91cc9d15-231f-4b99-b8f8-b41b9ee23926"
					(reference "R3")
					(unit 1)
				)
			)
		)
	)
	(symbol
		(lib_id "Amplifier_Operational:OPA4340UA")
		(at 248.92 87.63 0)
		(mirror x)
		(unit 2)
		(exclude_from_sim no)
		(in_bom yes)
		(on_board yes)
		(dnp no)
		(uuid "c9a0ebd4-081d-4095-92d5-b3a04c77ddec")
		(property "Reference" "U1"
			(at 248.92 97.79 0)
			(effects
				(font
					(size 1.27 1.27)
				)
			)
		)
		(property "Value" "OPA4340UA"
			(at 248.92 95.25 0)
			(effects
				(font
					(size 1.27 1.27)
				)
			)
		)
		(property "Footprint" "Package_SO:SOIC-14_3.9x8.7mm_P1.27mm"
			(at 247.65 90.17 0)
			(effects
				(font
					(size 1.27 1.27)
				)
				(hide yes)
			)
		)
		(property "Datasheet" "http://www.ti.com/lit/ds/symlink/opa340.pdf"
			(at 250.19 92.71 0)
			(effects
				(font
					(size 1.27 1.27)
				)
				(hide yes)
			)
		)
		(property "Description" ""
			(at 248.92 87.63 0)
			(effects
				(font
					(size 1.27 1.27)
				)
				(hide yes)
			)
		)
		(pin "3"
			(uuid "2b3cfe76-ed02-4d0e-b718-178c1d687ffd")
		)
		(pin "12"
			(uuid "56338be3-6a58-4b5d-98fa-8144be26e1f9")
		)
		(pin "14"
			(uuid "18606cca-477b-4492-a002-cf4d5b67183e")
		)
		(pin "4"
			(uuid "cf4ebf61-6af1-4c81-a3a0-f4cbed37e820")
		)
		(pin "1"
			(uuid "46cddc40-5991-40e2-8e7b-4d4734e260b6")
		)
		(pin "2"
			(uuid "b1d2c095-6a2e-4a7e-a9c4-39e366e26956")
		)
		(pin "5"
			(uuid "184c88e3-c80d-4e67-899a-d2fd3a2fe583")
		)
		(pin "6"
			(uuid "6c64a05a-de5f-4b56-8dc1-3790be19f3d4")
		)
		(pin "7"
			(uuid "aa86e37a-f8ff-4a1a-8b98-902ffa7087f4")
		)
		(pin "11"
			(uuid "ca565a94-c561-4eff-8b5a-6d8cf76ebf1c")
		)
		(pin "13"
			(uuid "1438ba5d-481f-4238-8293-d38f9435d138")
		)
		(pin "10"
			(uuid "22d92ecb-219e-469a-a459-7c93061bc3d8")
		)
		(pin "8"
			(uuid "9c9b6c89-1d98-4b95-8acd-8cdc8e79ddc3")
		)
		(pin "9"
			(uuid "0b129bc4-e7e4-4b04-b2b0-f1a9c5e1ed6f")
		)
		(instances
			(project "UV-Detector"
				(path "/91cc9d15-231f-4b99-b8f8-b41b9ee23926"
					(reference "U1")
					(unit 2)
				)
			)
		)
	)
	(symbol
		(lib_id "Device:R_US")
		(at 166.37 109.22 90)
		(unit 1)
		(exclude_from_sim no)
		(in_bom yes)
		(on_board yes)
		(dnp no)
		(fields_autoplaced yes)
		(uuid "d6437bfb-c488-4f25-8a43-879b6f87781d")
		(property "Reference" "R1"
			(at 166.37 102.87 90)
			(effects
				(font
					(size 1.27 1.27)
				)
			)
		)
		(property "Value" "10K"
			(at 166.37 105.41 90)
			(effects
				(font
					(size 1.27 1.27)
				)
			)
		)
		(property "Footprint" "Resistor_SMD:R_0805_2012Metric_Pad1.20x1.40mm_HandSolder"
			(at 166.624 108.204 90)
			(effects
				(font
					(size 1.27 1.27)
				)
				(hide yes)
			)
		)
		(property "Datasheet" "~"
			(at 166.37 109.22 0)
			(effects
				(font
					(size 1.27 1.27)
				)
				(hide yes)
			)
		)
		(property "Description" ""
			(at 166.37 109.22 0)
			(effects
				(font
					(size 1.27 1.27)
				)
				(hide yes)
			)
		)
		(pin "1"
			(uuid "f786f7a0-6dd1-4491-8693-836268caa851")
		)
		(pin "2"
			(uuid "3de7d011-9b7e-46ff-9db4-62635825d502")
		)
		(instances
			(project "UV-Detector"
				(path "/91cc9d15-231f-4b99-b8f8-b41b9ee23926"
					(reference "R1")
					(unit 1)
				)
			)
		)
	)
	(symbol
		(lib_id "Mechanical:MountingHole")
		(at 191.77 139.7 0)
		(unit 1)
		(exclude_from_sim no)
		(in_bom yes)
		(on_board yes)
		(dnp no)
		(fields_autoplaced yes)
		(uuid "daf65a1f-f649-46cf-bcdb-cc14225c08ce")
		(property "Reference" "H1"
			(at 194.31 138.4299 0)
			(effects
				(font
					(size 1.27 1.27)
				)
				(justify left)
			)
		)
		(property "Value" "MountingHole"
			(at 194.31 140.9699 0)
			(effects
				(font
					(size 1.27 1.27)
				)
				(justify left)
			)
		)
		(property "Footprint" "MountingHole:MountingHole_2.7mm_M2.5"
			(at 191.77 139.7 0)
			(effects
				(font
					(size 1.27 1.27)
				)
				(hide yes)
			)
		)
		(property "Datasheet" "~"
			(at 191.77 139.7 0)
			(effects
				(font
					(size 1.27 1.27)
				)
				(hide yes)
			)
		)
		(property "Description" "Mounting Hole without connection"
			(at 191.77 139.7 0)
			(effects
				(font
					(size 1.27 1.27)
				)
				(hide yes)
			)
		)
		(instances
			(project "UV-Detector"
				(path "/91cc9d15-231f-4b99-b8f8-b41b9ee23926"
					(reference "H1")
					(unit 1)
				)
			)
		)
	)
	(symbol
		(lib_id "Device:C")
		(at 135.89 91.44 0)
		(unit 1)
		(exclude_from_sim no)
		(in_bom yes)
		(on_board yes)
		(dnp no)
		(fields_autoplaced yes)
		(uuid "dd5fcf76-511c-40c4-9701-5696d4f2170a")
		(property "Reference" "C4"
			(at 139.7 90.1699 0)
			(effects
				(font
					(size 1.27 1.27)
				)
				(justify left)
			)
		)
		(property "Value" "1uF"
			(at 139.7 92.7099 0)
			(effects
				(font
					(size 1.27 1.27)
				)
				(justify left)
			)
		)
		(property "Footprint" "Capacitor_SMD:C_0805_2012Metric_Pad1.18x1.45mm_HandSolder"
			(at 136.8552 95.25 0)
			(effects
				(font
					(size 1.27 1.27)
				)
				(hide yes)
			)
		)
		(property "Datasheet" "~"
			(at 135.89 91.44 0)
			(effects
				(font
					(size 1.27 1.27)
				)
				(hide yes)
			)
		)
		(property "Description" ""
			(at 135.89 91.44 0)
			(effects
				(font
					(size 1.27 1.27)
				)
				(hide yes)
			)
		)
		(pin "1"
			(uuid "dafb19f0-1ceb-4d39-b1f7-fa22ef68397b")
		)
		(pin "2"
			(uuid "6995b671-7988-4a72-b73d-73262cc7b950")
		)
		(instances
			(project "UV-Detector"
				(path "/91cc9d15-231f-4b99-b8f8-b41b9ee23926"
					(reference "C4")
					(unit 1)
				)
			)
		)
	)
	(symbol
		(lib_id "power:+2V5")
		(at 248.92 135.89 0)
		(unit 1)
		(exclude_from_sim no)
		(in_bom yes)
		(on_board yes)
		(dnp no)
		(fields_autoplaced yes)
		(uuid "de067cb1-cf48-4e8a-94bd-dddb0185df83")
		(property "Reference" "#PWR09"
			(at 248.92 139.7 0)
			(effects
				(font
					(size 1.27 1.27)
				)
				(hide yes)
			)
		)
		(property "Value" "+2V5"
			(at 248.92 130.81 0)
			(effects
				(font
					(size 1.27 1.27)
				)
			)
		)
		(property "Footprint" ""
			(at 248.92 135.89 0)
			(effects
				(font
					(size 1.27 1.27)
				)
				(hide yes)
			)
		)
		(property "Datasheet" ""
			(at 248.92 135.89 0)
			(effects
				(font
					(size 1.27 1.27)
				)
				(hide yes)
			)
		)
		(property "Description" ""
			(at 248.92 135.89 0)
			(effects
				(font
					(size 1.27 1.27)
				)
				(hide yes)
			)
		)
		(pin "1"
			(uuid "b71157d0-ff7c-4d21-9f6c-801acbe3f7e2")
		)
		(instances
			(project "UV-Detector"
				(path "/91cc9d15-231f-4b99-b8f8-b41b9ee23926"
					(reference "#PWR09")
					(unit 1)
				)
			)
		)
	)
	(symbol
		(lib_id "power:+2V5")
		(at 163.83 129.54 0)
		(unit 1)
		(exclude_from_sim no)
		(in_bom yes)
		(on_board yes)
		(dnp no)
		(fields_autoplaced yes)
		(uuid "e11e156e-857e-47ad-9ca3-28337f153e85")
		(property "Reference" "#PWR04"
			(at 163.83 133.35 0)
			(effects
				(font
					(size 1.27 1.27)
				)
				(hide yes)
			)
		)
		(property "Value" "+2V5"
			(at 163.83 124.46 0)
			(effects
				(font
					(size 1.27 1.27)
				)
			)
		)
		(property "Footprint" ""
			(at 163.83 129.54 0)
			(effects
				(font
					(size 1.27 1.27)
				)
				(hide yes)
			)
		)
		(property "Datasheet" ""
			(at 163.83 129.54 0)
			(effects
				(font
					(size 1.27 1.27)
				)
				(hide yes)
			)
		)
		(property "Description" ""
			(at 163.83 129.54 0)
			(effects
				(font
					(size 1.27 1.27)
				)
				(hide yes)
			)
		)
		(pin "1"
			(uuid "b5748d8e-11f3-47b4-aa7a-8aac0d523a92")
		)
		(instances
			(project "UV-Detector"
				(path "/91cc9d15-231f-4b99-b8f8-b41b9ee23926"
					(reference "#PWR04")
					(unit 1)
				)
			)
		)
	)
	(symbol
		(lib_id "Device:C")
		(at 76.2 58.42 90)
		(unit 1)
		(exclude_from_sim no)
		(in_bom yes)
		(on_board yes)
		(dnp no)
		(uuid "e8a820ce-b5f5-4791-9530-ed1681d7deb2")
		(property "Reference" "C2"
			(at 72.39 55.88 90)
			(effects
				(font
					(size 1.27 1.27)
				)
			)
		)
		(property "Value" "1uF"
			(at 72.39 60.96 90)
			(effects
				(font
					(size 1.27 1.27)
				)
			)
		)
		(property "Footprint" "Capacitor_SMD:C_0805_2012Metric_Pad1.18x1.45mm_HandSolder"
			(at 80.01 57.4548 0)
			(effects
				(font
					(size 1.27 1.27)
				)
				(hide yes)
			)
		)
		(property "Datasheet" "~"
			(at 76.2 58.42 0)
			(effects
				(font
					(size 1.27 1.27)
				)
				(hide yes)
			)
		)
		(property "Description" ""
			(at 76.2 58.42 0)
			(effects
				(font
					(size 1.27 1.27)
				)
				(hide yes)
			)
		)
		(pin "1"
			(uuid "2ce9526d-7912-421c-a873-329b24f7caa9")
		)
		(pin "2"
			(uuid "c3c8af50-e91b-41f8-ab56-002d76f715cd")
		)
		(instances
			(project "UV-Detector"
				(path "/91cc9d15-231f-4b99-b8f8-b41b9ee23926"
					(reference "C2")
					(unit 1)
				)
			)
		)
	)
	(symbol
		(lib_id "power:+5V")
		(at 68.58 148.59 0)
		(unit 1)
		(exclude_from_sim no)
		(in_bom yes)
		(on_board yes)
		(dnp no)
		(fields_autoplaced yes)
		(uuid "ea693919-f4cd-4127-b157-b04bceabd3c8")
		(property "Reference" "#PWR02"
			(at 68.58 152.4 0)
			(effects
				(font
					(size 1.27 1.27)
				)
				(hide yes)
			)
		)
		(property "Value" "+5V"
			(at 68.58 143.51 0)
			(effects
				(font
					(size 1.27 1.27)
				)
			)
		)
		(property "Footprint" ""
			(at 68.58 148.59 0)
			(effects
				(font
					(size 1.27 1.27)
				)
				(hide yes)
			)
		)
		(property "Datasheet" ""
			(at 68.58 148.59 0)
			(effects
				(font
					(size 1.27 1.27)
				)
				(hide yes)
			)
		)
		(property "Description" ""
			(at 68.58 148.59 0)
			(effects
				(font
					(size 1.27 1.27)
				)
				(hide yes)
			)
		)
		(pin "1"
			(uuid "9b40fbe2-907b-478f-b6b3-dc61e78b4c1a")
		)
		(instances
			(project "UV-Detector"
				(path "/91cc9d15-231f-4b99-b8f8-b41b9ee23926"
					(reference "#PWR02")
					(unit 1)
				)
			)
		)
	)
	(symbol
		(lib_id "Mechanical:MountingHole")
		(at 191.77 162.56 0)
		(unit 1)
		(exclude_from_sim no)
		(in_bom yes)
		(on_board yes)
		(dnp no)
		(fields_autoplaced yes)
		(uuid "ec575eeb-919b-4850-9437-4bed119108ad")
		(property "Reference" "H4"
			(at 194.31 161.2899 0)
			(effects
				(font
					(size 1.27 1.27)
				)
				(justify left)
			)
		)
		(property "Value" "MountingHole"
			(at 194.31 163.8299 0)
			(effects
				(font
					(size 1.27 1.27)
				)
				(justify left)
			)
		)
		(property "Footprint" "MountingHole:MountingHole_2.7mm_M2.5"
			(at 191.77 162.56 0)
			(effects
				(font
					(size 1.27 1.27)
				)
				(hide yes)
			)
		)
		(property "Datasheet" "~"
			(at 191.77 162.56 0)
			(effects
				(font
					(size 1.27 1.27)
				)
				(hide yes)
			)
		)
		(property "Description" "Mounting Hole without connection"
			(at 191.77 162.56 0)
			(effects
				(font
					(size 1.27 1.27)
				)
				(hide yes)
			)
		)
		(instances
			(project "UV-Detector"
				(path "/91cc9d15-231f-4b99-b8f8-b41b9ee23926"
					(reference "H4")
					(unit 1)
				)
			)
		)
	)
	(symbol
		(lib_id "power:+5V")
		(at 243.84 133.35 0)
		(unit 1)
		(exclude_from_sim no)
		(in_bom yes)
		(on_board yes)
		(dnp no)
		(fields_autoplaced yes)
		(uuid "f4db7af6-2ed9-440d-a500-ab6054a03e81")
		(property "Reference" "#PWR010"
			(at 243.84 137.16 0)
			(effects
				(font
					(size 1.27 1.27)
				)
				(hide yes)
			)
		)
		(property "Value" "+5V"
			(at 243.84 128.27 0)
			(effects
				(font
					(size 1.27 1.27)
				)
			)
		)
		(property "Footprint" ""
			(at 243.84 133.35 0)
			(effects
				(font
					(size 1.27 1.27)
				)
				(hide yes)
			)
		)
		(property "Datasheet" ""
			(at 243.84 133.35 0)
			(effects
				(font
					(size 1.27 1.27)
				)
				(hide yes)
			)
		)
		(property "Description" ""
			(at 243.84 133.35 0)
			(effects
				(font
					(size 1.27 1.27)
				)
				(hide yes)
			)
		)
		(pin "1"
			(uuid "fe06a403-0d26-48e6-b68f-00630804a7c7")
		)
		(instances
			(project "UV-Detector"
				(path "/91cc9d15-231f-4b99-b8f8-b41b9ee23926"
					(reference "#PWR010")
					(unit 1)
				)
			)
		)
	)
	(sheet_instances
		(path "/"
			(page "1")
		)
	)
)