M48
; DRILL file {KiCad 8.0.0-8.0.0-1~ubuntu22.04.1} date 2024-08-19T21:31:13-0400
; FORMAT={-:-/ absolute / inch / decimal}
; #@! TF.CreationDate,2024-08-19T21:31:13-04:00
; #@! TF.GenerationSoftware,Kicad,Pcbnew,8.0.0-8.0.0-1~ubuntu22.04.1
; #@! TF.FileFunction,MixedPlating,1,2
FMAT,2
INCH
; #@! TA.AperFunction,Plated,PTH,ViaDrill
T1C0.0118
; #@! TA.AperFunction,Plated,PTH,ViaDrill
T2C0.0157
; #@! TA.AperFunction,Plated,PTH,ComponentDrill
T3C0.0276
; #@! TA.AperFunction,Plated,PTH,ComponentDrill
T4C0.0394
; #@! TA.AperFunction,NonPlated,NPTH,ComponentDrill
T5C0.1260
%
G90
G05
T1
X0.0315Y-0.2795
X0.0354Y-1.0512
X0.0354Y-1.3071
X0.0394Y-0.0394
X0.0394Y-0.4685
X0.0984Y-0.4173
X0.1024Y-0.6299
X0.1535Y-0.689
X0.1575Y-0.3701
X0.1575Y-0.5748
X0.2087Y-0.3268
X0.2205Y-0.4488
X0.2244Y-0.5748
X0.2402Y-0.8346
X0.2795Y-0.0394
X0.2795Y-1.0551
X0.2835Y-1.3031
X0.2992Y-0.8976
X0.3189Y-0.1496
X0.3189Y-0.189
X0.3228Y-0.5748
X0.3307Y-0.752
X0.3346Y-0.1024
X0.3386Y-0.3976
X0.3543Y-0.4488
X0.3622Y-0.8071
X0.3622Y-0.9606
X0.3622Y-1.1929
X0.3622Y-1.2205
X0.3622Y-1.248
X0.3622Y-1.2756
X0.3622Y-1.3031
X0.374Y-0.0945
X0.3898Y-1.1921
X0.4173Y-1.1921
X0.437Y-0.874
X0.437Y-1.0354
X0.4449Y-1.1921
X0.4539Y-0.4134
X0.4724Y-1.2047
X0.5079Y-0.9449
X0.5087Y-0.4528
X0.5276Y-0.0669
X0.528Y-0.1169
X0.5299Y-0.1665
X0.5315Y-0.5394
X0.5315Y-0.5669
X0.5315Y-0.5945
X0.5315Y-0.622
X0.5315Y-0.6496
X0.5591Y-0.5394
X0.5661Y-0.9388
X0.5709Y-0.2165
X0.5709Y-1.2008
X0.5748Y-0.3189
X0.5866Y-0.5394
X0.6142Y-0.5394
X0.6417Y-0.5394
X0.6417Y-0.937
X0.6496Y-1.0866
X0.6614Y-0.9134
X0.6693Y-1.2008
X0.685Y-0.8976
X0.7126Y-0.8976
X0.7217Y-0.0665
X0.726Y-0.3768
X0.7402Y-0.8976
X0.7677Y-0.8976
X0.7677Y-1.0866
X0.7677Y-1.2008
X0.7752Y-0.185
X0.7953Y-0.8976
X0.8228Y-0.8976
X0.8504Y-0.9134
X0.8701Y-0.5945
X0.8701Y-0.937
X0.8701Y-0.9685
X0.8701Y-1.0827
X0.8701Y-1.1969
X0.878Y-0.189
X0.8937Y-0.4252
X0.9528Y-0.1772
X0.9724Y-1.0669
X0.9724Y-1.1142
X0.9724Y-1.1575
X0.9724Y-1.1969
X0.985Y-0.0339
X0.9921Y-0.4252
X0.9921Y-0.685
X1.0551Y-0.0354
X1.063Y-1.063
X1.063Y-1.2992
X1.0697Y-0.6862
X1.0807Y-0.4945
X1.0827Y-0.2874
X1.3004Y-1.063
X1.3028Y-1.3055
X1.3031Y-0.0354
X1.3031Y-0.2835
T2
X0.2732Y-0.3174
X0.9449Y-0.3819
X0.9449Y-0.9449
T3
X0.6193Y-0.6693
X0.6693Y-0.6193
X0.7193Y-0.6693
T4
X0.4193Y-1.2598
X0.5193Y-1.2598
X0.6193Y-1.2598
X0.7193Y-1.2598
X0.8193Y-1.2598
X0.9193Y-1.2598
T5
X0.1575Y-0.1575
X0.1575Y-1.1811
X1.1811Y-0.1575
X1.1811Y-1.1811
M30
