%TF.GenerationSoftware,KiCad,Pcbnew,8.0.0-8.0.0-1~ubuntu22.04.1*%
%TF.CreationDate,2024-03-12T20:10:34-04:00*%
%TF.ProjectId,UV-Detector,55562d44-6574-4656-9374-6f722e6b6963,rev?*%
%TF.SameCoordinates,Original*%
%TF.FileFunction,Copper,L2,Bot*%
%TF.FilePolarity,Positive*%
%FSLAX46Y46*%
G04 Gerber Fmt 4.6, Leading zero omitted, Abs format (unit mm)*
G04 Created by KiCad (PCBNEW 8.0.0-8.0.0-1~ubuntu22.04.1) date 2024-03-12 20:10:34*
%MOMM*%
%LPD*%
G01*
G04 APERTURE LIST*
%TA.AperFunction,ComponentPad*%
%ADD10O,1.200000X1.600000*%
%TD*%
%TA.AperFunction,ComponentPad*%
%ADD11O,1.200000X1.200000*%
%TD*%
%TA.AperFunction,ComponentPad*%
%ADD12R,1.700000X1.700000*%
%TD*%
%TA.AperFunction,ComponentPad*%
%ADD13O,1.700000X1.700000*%
%TD*%
%TA.AperFunction,ViaPad*%
%ADD14C,0.800000*%
%TD*%
%TA.AperFunction,Conductor*%
%ADD15C,0.500000*%
%TD*%
G04 APERTURE END LIST*
D10*
%TO.P,D3,1,1*%
%TO.N,+2V5*%
X12500000Y-12500000D03*
D11*
%TO.P,D3,2,C*%
%TO.N,GND*%
X11230000Y-13770000D03*
%TO.P,D3,3,K*%
%TO.N,Net-(D3-K)*%
X12500000Y-15040000D03*
%TD*%
D12*
%TO.P,J2,1,Pin_1*%
%TO.N,GND*%
X8050000Y-26100000D03*
D13*
%TO.P,J2,2,Pin_2*%
%TO.N,+2V5*%
X10590000Y-26100000D03*
%TO.P,J2,3,Pin_3*%
%TO.N,+5V*%
X13130000Y-26100000D03*
%TO.P,J2,4,Pin_4*%
%TO.N,detect*%
X15670000Y-26100000D03*
%TO.P,J2,5,Pin_5*%
%TO.N,light-tight*%
X18210000Y-26100000D03*
%TD*%
D14*
%TO.N,Net-(D1-A)*%
X20250000Y-8900000D03*
X19750000Y-10600000D03*
%TO.N,GND*%
X10500000Y-18000000D03*
%TO.N,Net-(U1B--)*%
X18500000Y-2000000D03*
X23250000Y-18900000D03*
X23250000Y-13650000D03*
X18500000Y-13750000D03*
%TO.N,Net-(D3-K)*%
X10000000Y-750000D03*
X10000000Y-16000000D03*
%TO.N,Net-(C3-Pad2)*%
X2250000Y-12302500D03*
X2250000Y-8250000D03*
%TO.N,Net-(C4-Pad1)*%
X27250000Y-10750000D03*
X6750000Y-8000000D03*
X17500000Y-11000000D03*
X27250000Y-15500000D03*
X8750000Y-8000000D03*
X17500000Y-15500000D03*
X6750000Y-4500000D03*
X9000000Y-11000000D03*
%TO.N,Net-(D1-K)*%
X15000000Y-750000D03*
X21250000Y-8000000D03*
X21250000Y-9750000D03*
X15000000Y-8000000D03*
%TO.N,Net-(D1-COM)*%
X21250000Y-2700000D03*
X21250000Y-7000000D03*
%TO.N,+2V5*%
X11250000Y-750000D03*
X-1750000Y-13500000D03*
X-1750000Y-10250000D03*
X13750000Y-6250000D03*
X9000000Y-12250000D03*
X13770000Y-750000D03*
%TO.N,+5V*%
X12500000Y-5500000D03*
X12500000Y-9500000D03*
X15250000Y-9500000D03*
%TO.N,GND*%
X11230000Y-2020000D03*
X8150000Y-18000000D03*
%TO.N,detect*%
X15250000Y-17000000D03*
X16250000Y-5750000D03*
%TO.N,light-tight*%
X11750000Y-22250000D03*
X7750000Y1250000D03*
X7500000Y-17000000D03*
X7500000Y-10250000D03*
X17000000Y-22750000D03*
X11750000Y-17000000D03*
%TD*%
D15*
%TO.N,GND*%
X8150000Y-18000000D02*
X8000000Y-18150000D01*
X8000000Y-22500000D02*
X8050000Y-22550000D01*
X8000000Y-18150000D02*
X8000000Y-22500000D01*
X8050000Y-22550000D02*
X8050000Y-26575000D01*
X10500000Y-18000000D02*
X10500000Y-16750000D01*
X10500000Y-16750000D02*
X11230000Y-16020000D01*
X11230000Y-16020000D02*
X11230000Y-13770000D01*
%TO.N,Net-(D1-COM)*%
X21250000Y-2700000D02*
X21250000Y-7000000D01*
%TO.N,Net-(C4-Pad1)*%
X6750000Y-4500000D02*
X6750000Y-5500000D01*
X6750000Y-5500000D02*
X6750000Y-8000000D01*
%TO.N,Net-(D1-A)*%
X20250000Y-8900000D02*
X20250000Y-10100000D01*
X20250000Y-10100000D02*
X19750000Y-10600000D01*
%TO.N,Net-(C4-Pad1)*%
X27250000Y-15500000D02*
X27250000Y-10750000D01*
%TO.N,Net-(D1-A)*%
X19750000Y-10500000D02*
X19650000Y-10600000D01*
X19650000Y-10600000D02*
X19750000Y-10600000D01*
%TO.N,Net-(U1B--)*%
X23250000Y-18900000D02*
X23250000Y-13650000D01*
X18500000Y-3750000D02*
X18500000Y-2000000D01*
X18500000Y-13750000D02*
X18500000Y-3750000D01*
%TO.N,Net-(D3-K)*%
X10000000Y-10250000D02*
X10000000Y-16000000D01*
X10000000Y-750000D02*
X10000000Y-10000000D01*
X10000000Y-10000000D02*
X10000000Y-10250000D01*
%TO.N,Net-(C3-Pad2)*%
X2250000Y-8250000D02*
X2250000Y-13052500D01*
%TO.N,Net-(C4-Pad1)*%
X9000000Y-8250000D02*
X8750000Y-8000000D01*
X9000000Y-11000000D02*
X9000000Y-8250000D01*
X17500000Y-15500000D02*
X17500000Y-11000000D01*
%TO.N,Net-(D1-K)*%
X21250000Y-8000000D02*
X21250000Y-9750000D01*
X15000000Y-750000D02*
X15000000Y-8000000D01*
%TO.N,+2V5*%
X10590000Y-26575000D02*
X10590000Y-24590000D01*
X10590000Y-24590000D02*
X9250000Y-23250000D01*
X13770000Y-750000D02*
X11250000Y-750000D01*
X9000000Y-23000000D02*
X9000000Y-12250000D01*
X9250000Y-23250000D02*
X9000000Y-23000000D01*
X13750000Y-11250000D02*
X12500000Y-12500000D01*
X-1750000Y-13500000D02*
X-1750000Y-10250000D01*
X13750000Y-6250000D02*
X13750000Y-11250000D01*
%TO.N,+5V*%
X15250000Y-15000000D02*
X15250000Y-9500000D01*
X14000000Y-16250000D02*
X13130000Y-17120000D01*
X13130000Y-17120000D02*
X13130000Y-26575000D01*
X12500000Y-5500000D02*
X12500000Y-9500000D01*
X14000000Y-16250000D02*
X15250000Y-15000000D01*
%TO.N,GND*%
X11230000Y-2020000D02*
X11250000Y-2000000D01*
X11230000Y-13770000D02*
X11230000Y-2020000D01*
%TO.N,detect*%
X15250000Y-17000000D02*
X15250000Y-23250000D01*
X15250000Y-17000000D02*
X15500000Y-16750000D01*
X16250000Y-14750000D02*
X16250000Y-5750000D01*
X15670000Y-23670000D02*
X15670000Y-26575000D01*
X15500000Y-16750000D02*
X15500000Y-16250000D01*
X15500000Y-16250000D02*
X16250000Y-15500000D01*
X16250000Y-15500000D02*
X16250000Y-14750000D01*
X15250000Y-23250000D02*
X15670000Y-23670000D01*
%TO.N,light-tight*%
X7500000Y-10250000D02*
X7750000Y-10000000D01*
X7750000Y-9000000D02*
X7750000Y1250000D01*
X17000000Y-22750000D02*
X18250000Y-24000000D01*
X7500000Y-10250000D02*
X7500000Y-17000000D01*
X11750000Y-17750000D02*
X11750000Y-22250000D01*
X18210000Y-24040000D02*
X18210000Y-26575000D01*
X7750000Y-10000000D02*
X7750000Y-9000000D01*
X18250000Y-24000000D02*
X18210000Y-24040000D01*
X11750000Y-17000000D02*
X11750000Y-17750000D01*
%TD*%
M02*
