%TF.GenerationSoftware,KiCad,Pcbnew,8.0.0-8.0.0-1~ubuntu22.04.1*%
%TF.CreationDate,2024-03-12T20:10:34-04:00*%
%TF.ProjectId,UV-Detector,55562d44-6574-4656-9374-6f722e6b6963,rev?*%
%TF.SameCoordinates,Original*%
%TF.FileFunction,Paste,Top*%
%TF.FilePolarity,Positive*%
%FSLAX46Y46*%
G04 Gerber Fmt 4.6, Leading zero omitted, Abs format (unit mm)*
G04 Created by KiCad (PCBNEW 8.0.0-8.0.0-1~ubuntu22.04.1) date 2024-03-12 20:10:34*
%MOMM*%
%LPD*%
G01*
G04 APERTURE LIST*
G04 Aperture macros list*
%AMRoundRect*
0 Rectangle with rounded corners*
0 $1 Rounding radius*
0 $2 $3 $4 $5 $6 $7 $8 $9 X,Y pos of 4 corners*
0 Add a 4 corners polygon primitive as box body*
4,1,4,$2,$3,$4,$5,$6,$7,$8,$9,$2,$3,0*
0 Add four circle primitives for the rounded corners*
1,1,$1+$1,$2,$3*
1,1,$1+$1,$4,$5*
1,1,$1+$1,$6,$7*
1,1,$1+$1,$8,$9*
0 Add four rect primitives between the rounded corners*
20,1,$1+$1,$2,$3,$4,$5,0*
20,1,$1+$1,$4,$5,$6,$7,0*
20,1,$1+$1,$6,$7,$8,$9,0*
20,1,$1+$1,$8,$9,$2,$3,0*%
G04 Aperture macros list end*
%ADD10RoundRect,0.150000X0.150000X-0.825000X0.150000X0.825000X-0.150000X0.825000X-0.150000X-0.825000X0*%
%ADD11RoundRect,0.250000X0.450000X-0.350000X0.450000X0.350000X-0.450000X0.350000X-0.450000X-0.350000X0*%
%ADD12RoundRect,0.250000X-0.450000X0.350000X-0.450000X-0.350000X0.450000X-0.350000X0.450000X0.350000X0*%
%ADD13RoundRect,0.150000X-0.587500X-0.150000X0.587500X-0.150000X0.587500X0.150000X-0.587500X0.150000X0*%
%ADD14RoundRect,0.250000X-0.350000X-0.450000X0.350000X-0.450000X0.350000X0.450000X-0.350000X0.450000X0*%
%ADD15RoundRect,0.250000X0.475000X-0.337500X0.475000X0.337500X-0.475000X0.337500X-0.475000X-0.337500X0*%
%ADD16RoundRect,0.250000X-0.475000X0.337500X-0.475000X-0.337500X0.475000X-0.337500X0.475000X0.337500X0*%
G04 APERTURE END LIST*
D10*
%TO.C,U1*%
X8690000Y-3700000D03*
X9960000Y-3700000D03*
X11230000Y-3700000D03*
X12500000Y-3700000D03*
X13770000Y-3700000D03*
X15040000Y-3700000D03*
X16310000Y-3700000D03*
X16310000Y1250000D03*
X15040000Y1250000D03*
X13770000Y1250000D03*
X12500000Y1250000D03*
X11230000Y1250000D03*
X9960000Y1250000D03*
X8690000Y1250000D03*
%TD*%
D11*
%TO.C,R5*%
X24850000Y-18900000D03*
X24850000Y-16900000D03*
%TD*%
D12*
%TO.C,R3*%
X24850000Y-11650000D03*
X24850000Y-13650000D03*
%TD*%
D13*
%TO.C,D1*%
X23562500Y-6050000D03*
X23562500Y-7950000D03*
X25437500Y-7000000D03*
%TD*%
D14*
%TO.C,R1*%
X10000000Y-7750000D03*
X12000000Y-7750000D03*
%TD*%
D12*
%TO.C,R7*%
X0Y-10265000D03*
X0Y-12265000D03*
%TD*%
%TO.C,R8*%
X0Y-5500000D03*
X0Y-7500000D03*
%TD*%
%TO.C,R6*%
X4500000Y-15000000D03*
X4500000Y-17000000D03*
%TD*%
D15*
%TO.C,C1*%
X20750000Y-18875000D03*
X20750000Y-16800000D03*
%TD*%
D16*
%TO.C,C3*%
X4537500Y-10227500D03*
X4537500Y-12302500D03*
%TD*%
D14*
%TO.C,R2*%
X16250000Y-7750000D03*
X18250000Y-7750000D03*
%TD*%
D16*
%TO.C,C4*%
X4537500Y-5462500D03*
X4537500Y-7537500D03*
%TD*%
D12*
%TO.C,R4*%
X20750000Y-11700000D03*
X20750000Y-13700000D03*
%TD*%
D16*
%TO.C,C2*%
X0Y-15000000D03*
X0Y-17075000D03*
%TD*%
M02*
