%TF.GenerationSoftware,KiCad,Pcbnew,8.0.0-8.0.0-1~ubuntu22.04.1*%
%TF.CreationDate,2024-03-12T20:10:35-04:00*%
%TF.ProjectId,UV-Detector,55562d44-6574-4656-9374-6f722e6b6963,rev?*%
%TF.SameCoordinates,Original*%
%TF.FileFunction,Soldermask,Bot*%
%TF.FilePolarity,Negative*%
%FSLAX46Y46*%
G04 Gerber Fmt 4.6, Leading zero omitted, Abs format (unit mm)*
G04 Created by KiCad (PCBNEW 8.0.0-8.0.0-1~ubuntu22.04.1) date 2024-03-12 20:10:35*
%MOMM*%
%LPD*%
G01*
G04 APERTURE LIST*
%ADD10C,2.700000*%
%ADD11O,1.200000X1.600000*%
%ADD12O,1.200000X1.200000*%
%ADD13R,1.700000X1.700000*%
%ADD14O,1.700000X1.700000*%
G04 APERTURE END LIST*
D10*
%TO.C,H4*%
X25000000Y-25000000D03*
%TD*%
%TO.C,H3*%
X0Y-25000000D03*
%TD*%
%TO.C,He*%
X25000000Y0D03*
%TD*%
%TO.C,H1*%
X0Y0D03*
%TD*%
D11*
%TO.C,D3*%
X12500000Y-12500000D03*
D12*
X11230000Y-13770000D03*
X12500000Y-15040000D03*
%TD*%
D13*
%TO.C,J2*%
X8050000Y-26100000D03*
D14*
X10590000Y-26100000D03*
X13130000Y-26100000D03*
X15670000Y-26100000D03*
X18210000Y-26100000D03*
%TD*%
M02*
