%TF.GenerationSoftware,KiCad,Pcbnew,8.0.0-8.0.0-1~ubuntu22.04.1*%
%TF.CreationDate,2024-03-12T20:10:34-04:00*%
%TF.ProjectId,UV-Detector,55562d44-6574-4656-9374-6f722e6b6963,rev?*%
%TF.SameCoordinates,Original*%
%TF.FileFunction,Copper,L1,Top*%
%TF.FilePolarity,Positive*%
%FSLAX46Y46*%
G04 Gerber Fmt 4.6, Leading zero omitted, Abs format (unit mm)*
G04 Created by KiCad (PCBNEW 8.0.0-8.0.0-1~ubuntu22.04.1) date 2024-03-12 20:10:34*
%MOMM*%
%LPD*%
G01*
G04 APERTURE LIST*
G04 Aperture macros list*
%AMRoundRect*
0 Rectangle with rounded corners*
0 $1 Rounding radius*
0 $2 $3 $4 $5 $6 $7 $8 $9 X,Y pos of 4 corners*
0 Add a 4 corners polygon primitive as box body*
4,1,4,$2,$3,$4,$5,$6,$7,$8,$9,$2,$3,0*
0 Add four circle primitives for the rounded corners*
1,1,$1+$1,$2,$3*
1,1,$1+$1,$4,$5*
1,1,$1+$1,$6,$7*
1,1,$1+$1,$8,$9*
0 Add four rect primitives between the rounded corners*
20,1,$1+$1,$2,$3,$4,$5,0*
20,1,$1+$1,$4,$5,$6,$7,0*
20,1,$1+$1,$6,$7,$8,$9,0*
20,1,$1+$1,$8,$9,$2,$3,0*%
G04 Aperture macros list end*
%TA.AperFunction,SMDPad,CuDef*%
%ADD10RoundRect,0.150000X0.150000X-0.825000X0.150000X0.825000X-0.150000X0.825000X-0.150000X-0.825000X0*%
%TD*%
%TA.AperFunction,SMDPad,CuDef*%
%ADD11RoundRect,0.250000X0.450000X-0.350000X0.450000X0.350000X-0.450000X0.350000X-0.450000X-0.350000X0*%
%TD*%
%TA.AperFunction,SMDPad,CuDef*%
%ADD12RoundRect,0.250000X-0.450000X0.350000X-0.450000X-0.350000X0.450000X-0.350000X0.450000X0.350000X0*%
%TD*%
%TA.AperFunction,ComponentPad*%
%ADD13O,1.200000X1.600000*%
%TD*%
%TA.AperFunction,ComponentPad*%
%ADD14O,1.200000X1.200000*%
%TD*%
%TA.AperFunction,SMDPad,CuDef*%
%ADD15RoundRect,0.150000X-0.587500X-0.150000X0.587500X-0.150000X0.587500X0.150000X-0.587500X0.150000X0*%
%TD*%
%TA.AperFunction,SMDPad,CuDef*%
%ADD16RoundRect,0.250000X-0.350000X-0.450000X0.350000X-0.450000X0.350000X0.450000X-0.350000X0.450000X0*%
%TD*%
%TA.AperFunction,ComponentPad*%
%ADD17R,1.700000X1.700000*%
%TD*%
%TA.AperFunction,ComponentPad*%
%ADD18O,1.700000X1.700000*%
%TD*%
%TA.AperFunction,SMDPad,CuDef*%
%ADD19RoundRect,0.250000X0.475000X-0.337500X0.475000X0.337500X-0.475000X0.337500X-0.475000X-0.337500X0*%
%TD*%
%TA.AperFunction,SMDPad,CuDef*%
%ADD20RoundRect,0.250000X-0.475000X0.337500X-0.475000X-0.337500X0.475000X-0.337500X0.475000X0.337500X0*%
%TD*%
%TA.AperFunction,ViaPad*%
%ADD21C,0.800000*%
%TD*%
%TA.AperFunction,Conductor*%
%ADD22C,0.500000*%
%TD*%
G04 APERTURE END LIST*
D10*
%TO.P,U1,1*%
%TO.N,N/C*%
X8690000Y-3700000D03*
%TO.P,U1,2*%
X9960000Y-3700000D03*
%TO.P,U1,3*%
X11230000Y-3700000D03*
%TO.P,U1,4,V+*%
%TO.N,+5V*%
X12500000Y-3700000D03*
%TO.P,U1,5,+*%
%TO.N,+2V5*%
X13770000Y-3700000D03*
%TO.P,U1,6,-*%
%TO.N,Net-(U1B--)*%
X15040000Y-3700000D03*
%TO.P,U1,7*%
%TO.N,detect*%
X16310000Y-3700000D03*
%TO.P,U1,8*%
%TO.N,Net-(D1-COM)*%
X16310000Y1250000D03*
%TO.P,U1,9,-*%
%TO.N,Net-(D1-K)*%
X15040000Y1250000D03*
%TO.P,U1,10,+*%
%TO.N,+2V5*%
X13770000Y1250000D03*
%TO.P,U1,11,V-*%
%TO.N,GND*%
X12500000Y1250000D03*
%TO.P,U1,12,+*%
%TO.N,+2V5*%
X11230000Y1250000D03*
%TO.P,U1,13,-*%
%TO.N,Net-(D3-K)*%
X9960000Y1250000D03*
%TO.P,U1,14*%
%TO.N,light-tight*%
X8690000Y1250000D03*
%TD*%
D11*
%TO.P,R5,1*%
%TO.N,Net-(U1B--)*%
X24850000Y-18900000D03*
%TO.P,R5,2*%
%TO.N,detect*%
X24850000Y-16900000D03*
%TD*%
D12*
%TO.P,R3,1*%
%TO.N,Net-(C4-Pad1)*%
X24850000Y-11650000D03*
%TO.P,R3,2*%
%TO.N,Net-(U1B--)*%
X24850000Y-13650000D03*
%TD*%
D13*
%TO.P,D3,1,1*%
%TO.N,+2V5*%
X12500000Y-12500000D03*
D14*
%TO.P,D3,2,C*%
%TO.N,GND*%
X11230000Y-13770000D03*
%TO.P,D3,3,K*%
%TO.N,Net-(D3-K)*%
X12500000Y-15040000D03*
%TD*%
D15*
%TO.P,D1,1,A*%
%TO.N,Net-(D1-A)*%
X23562500Y-6050000D03*
%TO.P,D1,2,K*%
%TO.N,Net-(D1-K)*%
X23562500Y-7950000D03*
%TO.P,D1,3,COM*%
%TO.N,Net-(D1-COM)*%
X25437500Y-7000000D03*
%TD*%
D16*
%TO.P,R1,1*%
%TO.N,Net-(C4-Pad1)*%
X10000000Y-7750000D03*
%TO.P,R1,2*%
%TO.N,Net-(D1-K)*%
X12000000Y-7750000D03*
%TD*%
D12*
%TO.P,R7,1*%
%TO.N,+2V5*%
X0Y-10265000D03*
%TO.P,R7,2*%
%TO.N,Net-(C3-Pad2)*%
X0Y-12265000D03*
%TD*%
D17*
%TO.P,J2,1,Pin_1*%
%TO.N,GND*%
X8050000Y-26100000D03*
D18*
%TO.P,J2,2,Pin_2*%
%TO.N,+2V5*%
X10590000Y-26100000D03*
%TO.P,J2,3,Pin_3*%
%TO.N,+5V*%
X13130000Y-26100000D03*
%TO.P,J2,4,Pin_4*%
%TO.N,detect*%
X15670000Y-26100000D03*
%TO.P,J2,5,Pin_5*%
%TO.N,light-tight*%
X18210000Y-26100000D03*
%TD*%
D12*
%TO.P,R8,1*%
%TO.N,Net-(C4-Pad1)*%
X0Y-5500000D03*
%TO.P,R8,2*%
%TO.N,Net-(C3-Pad2)*%
X0Y-7500000D03*
%TD*%
%TO.P,R6,1*%
%TO.N,Net-(D3-K)*%
X4500000Y-15000000D03*
%TO.P,R6,2*%
%TO.N,light-tight*%
X4500000Y-17000000D03*
%TD*%
D19*
%TO.P,C1,1*%
%TO.N,Net-(U1B--)*%
X20750000Y-18875000D03*
%TO.P,C1,2*%
%TO.N,detect*%
X20750000Y-16800000D03*
%TD*%
D20*
%TO.P,C3,1*%
%TO.N,light-tight*%
X4537500Y-10227500D03*
%TO.P,C3,2*%
%TO.N,Net-(C3-Pad2)*%
X4537500Y-12302500D03*
%TD*%
D16*
%TO.P,R2,1*%
%TO.N,Net-(D1-K)*%
X16250000Y-7750000D03*
%TO.P,R2,2*%
%TO.N,Net-(D1-A)*%
X18250000Y-7750000D03*
%TD*%
D20*
%TO.P,C4,1*%
%TO.N,Net-(C4-Pad1)*%
X4537500Y-5462500D03*
%TO.P,C4,2*%
%TO.N,+2V5*%
X4537500Y-7537500D03*
%TD*%
D12*
%TO.P,R4,1*%
%TO.N,Net-(D1-A)*%
X20750000Y-11700000D03*
%TO.P,R4,2*%
%TO.N,Net-(U1B--)*%
X20750000Y-13700000D03*
%TD*%
D20*
%TO.P,C2,1*%
%TO.N,Net-(D3-K)*%
X0Y-15000000D03*
%TO.P,C2,2*%
%TO.N,light-tight*%
X0Y-17075000D03*
%TD*%
D21*
%TO.N,Net-(D1-A)*%
X20250000Y-8900000D03*
X19750000Y-10600000D03*
%TO.N,GND*%
X10500000Y-18000000D03*
%TO.N,Net-(U1B--)*%
X18500000Y-2000000D03*
X23250000Y-18900000D03*
X23250000Y-13650000D03*
X18500000Y-13750000D03*
%TO.N,Net-(D3-K)*%
X10000000Y-750000D03*
X10000000Y-16000000D03*
%TO.N,Net-(C3-Pad2)*%
X2250000Y-12302500D03*
X2250000Y-8250000D03*
%TO.N,Net-(C4-Pad1)*%
X27250000Y-10750000D03*
X6750000Y-8000000D03*
X17500000Y-11000000D03*
X27250000Y-15500000D03*
X8750000Y-8000000D03*
X17500000Y-15500000D03*
X6750000Y-4500000D03*
X9000000Y-11000000D03*
%TO.N,Net-(D1-K)*%
X15000000Y-750000D03*
X21250000Y-8000000D03*
X21250000Y-9750000D03*
X15000000Y-8000000D03*
%TO.N,Net-(D1-COM)*%
X21250000Y-2700000D03*
X21250000Y-7000000D03*
%TO.N,+2V5*%
X11250000Y-750000D03*
X-1750000Y-13500000D03*
X-1750000Y-10250000D03*
X13750000Y-6250000D03*
X9000000Y-12250000D03*
X13770000Y-750000D03*
%TO.N,+5V*%
X12500000Y-5500000D03*
X12500000Y-9500000D03*
X15250000Y-9500000D03*
%TO.N,GND*%
X11230000Y-2020000D03*
X8150000Y-18000000D03*
%TO.N,detect*%
X15250000Y-17000000D03*
X16250000Y-5750000D03*
%TO.N,light-tight*%
X11750000Y-22250000D03*
X7750000Y1250000D03*
X7500000Y-17000000D03*
X7500000Y-10250000D03*
X17000000Y-22750000D03*
X11750000Y-17000000D03*
%TD*%
D22*
%TO.N,GND*%
X8150000Y-18000000D02*
X10500000Y-18000000D01*
%TO.N,Net-(D1-COM)*%
X16310000Y1250000D02*
X17300000Y1250000D01*
X17300000Y1250000D02*
X21250000Y-2700000D01*
%TO.N,Net-(C3-Pad2)*%
X0Y-8250000D02*
X0Y-7500000D01*
%TO.N,Net-(C4-Pad1)*%
X4537500Y-5462500D02*
X5500000Y-4500000D01*
X5500000Y-4500000D02*
X6750000Y-4500000D01*
%TO.N,Net-(D1-A)*%
X19100000Y-7750000D02*
X20250000Y-8900000D01*
X18250000Y-7750000D02*
X19100000Y-7750000D01*
%TO.N,Net-(C4-Pad1)*%
X27250000Y-10750000D02*
X25750000Y-10750000D01*
X25750000Y-10750000D02*
X24850000Y-11650000D01*
%TO.N,Net-(D1-A)*%
X19750000Y-10600000D02*
X19750000Y-10700000D01*
X19750000Y-10700000D02*
X20750000Y-11700000D01*
%TO.N,Net-(U1B--)*%
X23250000Y-18900000D02*
X24850000Y-18900000D01*
X23250000Y-13650000D02*
X24850000Y-13650000D01*
X18500000Y-2000000D02*
X15765001Y-2000000D01*
X23225000Y-18875000D02*
X23250000Y-18900000D01*
X15040000Y-2725001D02*
X15040000Y-3700000D01*
X18550000Y-13700000D02*
X18500000Y-13750000D01*
X21300000Y-18875000D02*
X23225000Y-18875000D01*
X23250000Y-13650000D02*
X21350000Y-13650000D01*
X21350000Y-13650000D02*
X21300000Y-13700000D01*
X15765001Y-2000000D02*
X15040000Y-2725001D01*
X21300000Y-13700000D02*
X18550000Y-13700000D01*
%TO.N,Net-(D3-K)*%
X4500000Y-15000000D02*
X12460000Y-15000000D01*
X9960000Y1250000D02*
X9960000Y-710000D01*
X0Y-15000000D02*
X4500000Y-15000000D01*
X10000000Y-16000000D02*
X12500000Y-16000000D01*
X12500000Y-16000000D02*
X12500000Y-15040000D01*
X12460000Y-15000000D02*
X12500000Y-15040000D01*
X9960000Y-710000D02*
X10000000Y-750000D01*
%TO.N,Net-(C3-Pad2)*%
X0Y-8250000D02*
X2250000Y-8250000D01*
X37500Y-12302500D02*
X0Y-12265000D01*
X4537500Y-12302500D02*
X2250000Y-12302500D01*
X2250000Y-12302500D02*
X37500Y-12302500D01*
%TO.N,Net-(C4-Pad1)*%
X4500000Y-5500000D02*
X4537500Y-5462500D01*
X0Y-5500000D02*
X4500000Y-5500000D01*
X6750000Y-8000000D02*
X9500000Y-8000000D01*
X27250000Y-15500000D02*
X17500000Y-15500000D01*
X9000000Y-11000000D02*
X17500000Y-11000000D01*
X9500000Y-8000000D02*
X9750000Y-7750000D01*
%TO.N,Net-(D1-K)*%
X16250000Y-9250000D02*
X16250000Y-7750000D01*
X15040000Y-710000D02*
X15000000Y-750000D01*
X12250000Y-8000000D02*
X12000000Y-7750000D01*
X15000000Y-8000000D02*
X16000000Y-8000000D01*
X15040000Y1250000D02*
X15040000Y-710000D01*
X16750000Y-9750000D02*
X16250000Y-9250000D01*
X15000000Y-8000000D02*
X12250000Y-8000000D01*
X16000000Y-8000000D02*
X16250000Y-7750000D01*
X21300000Y-7950000D02*
X21250000Y-8000000D01*
X23562500Y-7950000D02*
X21300000Y-7950000D01*
X21250000Y-9750000D02*
X16750000Y-9750000D01*
%TO.N,Net-(D1-A)*%
X23562500Y-6050000D02*
X18450000Y-6050000D01*
X18450000Y-6050000D02*
X18250000Y-6250000D01*
X18250000Y-6250000D02*
X18250000Y-7750000D01*
%TO.N,Net-(D1-COM)*%
X21250000Y-7000000D02*
X25437500Y-7000000D01*
%TO.N,+2V5*%
X6250000Y-12500000D02*
X6250000Y-13250000D01*
X12250000Y-12250000D02*
X12500000Y-12500000D01*
X6000000Y-13500000D02*
X-1750000Y-13500000D01*
X9000000Y-12250000D02*
X6500000Y-12250000D01*
X11250000Y1230000D02*
X11230000Y1250000D01*
X-15000Y-10250000D02*
X0Y-10265000D01*
X-1750000Y-10250000D02*
X-15000Y-10250000D01*
X0Y-10265000D02*
X1810000Y-10265000D01*
X13770000Y-6230000D02*
X13750000Y-6250000D01*
X6250000Y-13250000D02*
X6000000Y-13500000D01*
X13770000Y1250000D02*
X13770000Y-3700000D01*
X9000000Y-12250000D02*
X12250000Y-12250000D01*
X13770000Y-3700000D02*
X13770000Y-6230000D01*
X6500000Y-12250000D02*
X6250000Y-12500000D01*
X11250000Y-750000D02*
X11250000Y1230000D01*
X1810000Y-10265000D02*
X4537500Y-7537500D01*
%TO.N,+5V*%
X12500000Y-3700000D02*
X12500000Y-5500000D01*
X15250000Y-9500000D02*
X12500000Y-9500000D01*
%TO.N,GND*%
X11500000Y-1750000D02*
X11230000Y-2020000D01*
X12500000Y1250000D02*
X12500000Y-1750000D01*
X12500000Y-1750000D02*
X11500000Y-1750000D01*
%TO.N,detect*%
X16250000Y-3760000D02*
X16310000Y-3700000D01*
X21300000Y-16800000D02*
X25300000Y-16800000D01*
X16250000Y-5750000D02*
X16250000Y-3760000D01*
X21300000Y-16800000D02*
X15450000Y-16800000D01*
X15450000Y-16800000D02*
X15250000Y-17000000D01*
%TO.N,light-tight*%
X4537500Y-10227500D02*
X7477500Y-10227500D01*
X4425000Y-17075000D02*
X4500000Y-17000000D01*
X7477500Y-10227500D02*
X7500000Y-10250000D01*
X0Y-17075000D02*
X4425000Y-17075000D01*
X7500000Y-17000000D02*
X4500000Y-17000000D01*
X7500000Y-17000000D02*
X11750000Y-17000000D01*
X16500000Y-22250000D02*
X17000000Y-22750000D01*
X7750000Y1250000D02*
X8690000Y1250000D01*
X11750000Y-22250000D02*
X16500000Y-22250000D01*
%TD*%
M02*
